Lab12/simulation/qsim/Lab12_1.msim.vcd
$comment
	File created using the following command:
		vcd file Lab12_1.msim.vcd -direction
$end
$date
	Thu May 23 17:06:25 2024
$end
$version
	ModelSim Version 10.1d
$end
$timescale
	1ps
$end
$scope module Lab12_1_vlg_vec_tst $end
$var reg 1 ! CLOCK_50 $end
$var reg 1 " SW [0:0] $end
$var wire 1 # VGA_B [3] $end
$var wire 1 $ VGA_B [2] $end
$var wire 1 % VGA_B [1] $end
$var wire 1 & VGA_B [0] $end
$var wire 1 ' VGA_G [3] $end
$var wire 1 ( VGA_G [2] $end
$var wire 1 ) VGA_G [1] $end
$var wire 1 * VGA_G [0] $end
$var wire 1 + VGA_HS $end
$var wire 1 , VGA_R [3] $end
$var wire 1 - VGA_R [2] $end
$var wire 1 . VGA_R [1] $end
$var wire 1 / VGA_R [0] $end
$var wire 1 0 VGA_VS $end
$var wire 1 1 sampler $end
$scope module i1 $end
$var wire 1 2 gnd $end
$var wire 1 3 vcc $end
$var wire 1 4 unknown $end
$var tri1 1 5 devclrn $end
$var tri1 1 6 devpor $end
$var tri1 1 7 devoe $end
$var wire 1 8 VGA_R[0]~output_o $end
$var wire 1 9 VGA_R[1]~output_o $end
$var wire 1 : VGA_R[2]~output_o $end
$var wire 1 ; VGA_R[3]~output_o $end
$var wire 1 < VGA_G[0]~output_o $end
$var wire 1 = VGA_G[1]~output_o $end
$var wire 1 > VGA_G[2]~output_o $end
$var wire 1 ? VGA_G[3]~output_o $end
$var wire 1 @ VGA_B[0]~output_o $end
$var wire 1 A VGA_B[1]~output_o $end
$var wire 1 B VGA_B[2]~output_o $end
$var wire 1 C VGA_B[3]~output_o $end
$var wire 1 D VGA_HS~output_o $end
$var wire 1 E VGA_VS~output_o $end
$var wire 1 F CLOCK_50~input_o $end
$var wire 1 G clock_div1|CLK_out~0_combout $end
$var wire 1 H clock_div1|CLK_out~feeder_combout $end
$var wire 1 I clock_div1|CLK_out~q $end
$var wire 1 J clock_div1|CLK_out~clkctrl_outclk $end
$var wire 1 K VGA_sync1|Add0~0_combout $end
$var wire 1 L VGA_sync1|Add0~1 $end
$var wire 1 M VGA_sync1|Add0~2_combout $end
$var wire 1 N VGA_sync1|Add0~3 $end
$var wire 1 O VGA_sync1|Add0~4_combout $end
$var wire 1 P VGA_sync1|Add0~5 $end
$var wire 1 Q VGA_sync1|Add0~6_combout $end
$var wire 1 R VGA_sync1|Add0~7 $end
$var wire 1 S VGA_sync1|Add0~8_combout $end
$var wire 1 T VGA_sync1|Add0~9 $end
$var wire 1 U VGA_sync1|Add0~10_combout $end
$var wire 1 V VGA_sync1|h_count~1_combout $end
$var wire 1 W VGA_sync1|Add0~11 $end
$var wire 1 X VGA_sync1|Add0~12_combout $end
$var wire 1 Y VGA_sync1|Add0~13 $end
$var wire 1 Z VGA_sync1|Add0~14_combout $end
$var wire 1 [ VGA_sync1|Equal0~1_combout $end
$var wire 1 \ VGA_sync1|Equal0~0_combout $end
$var wire 1 ] VGA_sync1|Equal0~2_combout $end
$var wire 1 ^ VGA_sync1|Add0~15 $end
$var wire 1 _ VGA_sync1|Add0~16_combout $end
$var wire 1 ` VGA_sync1|h_count~0_combout $end
$var wire 1 a VGA_sync1|Add0~17 $end
$var wire 1 b VGA_sync1|Add0~18_combout $end
$var wire 1 c VGA_sync1|h_count~2_combout $end
$var wire 1 d Vbar_display1|LessThan4~0_combout $end
$var wire 1 e Vbar_display1|LessThan4~1_combout $end
$var wire 1 f Vbar_display1|LessThan4~2_combout $end
$var wire 1 g Vbar_display1|Gout[0]~0_combout $end
$var wire 1 h Vbar_display1|Gout[0]~1_combout $end
$var wire 1 i Vbar_display1|Gout[0]~2_combout $end
$var wire 1 j VGA_sync1|Equal1~2_combout $end
$var wire 1 k VGA_sync1|Add1~3 $end
$var wire 1 l VGA_sync1|Add1~4_combout $end
$var wire 1 m VGA_sync1|v_count~2_combout $end
$var wire 1 n VGA_sync1|Add1~5 $end
$var wire 1 o VGA_sync1|Add1~6_combout $end
$var wire 1 p VGA_sync1|v_count~1_combout $end
$var wire 1 q VGA_sync1|Add1~7 $end
$var wire 1 r VGA_sync1|Add1~8_combout $end
$var wire 1 s VGA_sync1|Add1~9 $end
$var wire 1 t VGA_sync1|Add1~10_combout $end
$var wire 1 u VGA_sync1|Add1~11 $end
$var wire 1 v VGA_sync1|Add1~12_combout $end
$var wire 1 w VGA_sync1|Add1~13 $end
$var wire 1 x VGA_sync1|Add1~14_combout $end
$var wire 1 y VGA_sync1|Add1~15 $end
$var wire 1 z VGA_sync1|Add1~16_combout $end
$var wire 1 { VGA_sync1|Equal1~0_combout $end
$var wire 1 | VGA_sync1|Equal1~1_combout $end
$var wire 1 } VGA_sync1|Add1~17 $end
$var wire 1 ~ VGA_sync1|Add1~18_combout $end
$var wire 1 !! VGA_sync1|v_count~0_combout $end
$var wire 1 "! VGA_sync1|Add1~0_combout $end
$var wire 1 #! VGA_sync1|v_count~3_combout $end
$var wire 1 $! VGA_sync1|Add1~1 $end
$var wire 1 %! VGA_sync1|Add1~2_combout $end
$var wire 1 &! VGA_sync1|process_3~0_combout $end
$var wire 1 '! VGA_sync1|process_4~1_combout $end
$var wire 1 (! VGA_sync1|process_4~0_combout $end
$var wire 1 )! VGA_sync1|process_4~2_combout $end
$var wire 1 *! VGA_sync1|video_on~1_combout $end
$var wire 1 +! SW[0]~input_o $end
$var wire 1 ,! VGA_sync1|video_on~0_combout $end
$var wire 1 -! Vbar_display1|Rout[0]~0_combout $end
$var wire 1 .! Vbar_display1|process_0~1_combout $end
$var wire 1 /! Vbar_display1|process_0~2_combout $end
$var wire 1 0! Vbar_display1|process_0~0_combout $end
$var wire 1 1! Vbar_display1|process_0~3_combout $end
$var wire 1 2! Vbar_display1|Rout[0]~1_combout $end
$var wire 1 3! Vbar_display1|Gout[0]~3_combout $end
$var wire 1 4! Vbar_display1|Bout[0]~0_combout $end
$var wire 1 5! VGA_sync1|process_2~1_combout $end
$var wire 1 6! VGA_sync1|process_2~0_combout $end
$var wire 1 7! VGA_sync1|process_2~2_combout $end
$var wire 1 8! VGA_sync1|process_3~1_combout $end
$var wire 1 9! VGA_sync1|process_3~2_combout $end
$var wire 1 :! VGA_sync1|h_count [9] $end
$var wire 1 ;! VGA_sync1|h_count [8] $end
$var wire 1 <! VGA_sync1|h_count [7] $end
$var wire 1 =! VGA_sync1|h_count [6] $end
$var wire 1 >! VGA_sync1|h_count [5] $end
$var wire 1 ?! VGA_sync1|h_count [4] $end
$var wire 1 @! VGA_sync1|h_count [3] $end
$var wire 1 A! VGA_sync1|h_count [2] $end
$var wire 1 B! VGA_sync1|h_count [1] $end
$var wire 1 C! VGA_sync1|h_count [0] $end
$var wire 1 D! VGA_sync1|v_count [9] $end
$var wire 1 E! VGA_sync1|v_count [8] $end
$var wire 1 F! VGA_sync1|v_count [7] $end
$var wire 1 G! VGA_sync1|v_count [6] $end
$var wire 1 H! VGA_sync1|v_count [5] $end
$var wire 1 I! VGA_sync1|v_count [4] $end
$var wire 1 J! VGA_sync1|v_count [3] $end
$var wire 1 K! VGA_sync1|v_count [2] $end
$var wire 1 L! VGA_sync1|v_count [1] $end
$var wire 1 M! VGA_sync1|v_count [0] $end
$upscope $end
$upscope $end
$enddefinitions $end
#0
$dumpvars
0!
b1 "
0&
0%
0$
0#
0*
0)
0(
0'
1+
0/
0.
0-
0,
10
x1
02
13
x4
15
16
17
08
09
0:
0;
0<
0=
0>
0?
0@
0A
0B
0C
1D
1E
0F
1G
1H
0I
0J
1K
0L
0M
1N
0O
0P
0Q
1R
0S
0T
0U
0V
1W
0X
0Y
0Z
0[
0\
0]
1^
0_
0`
0a
0b
0c
0d
0e
0f
1g
1h
1i
0j
1k
0l
0m
0n
0o
0p
1q
0r
0s
0t
1u
0v
0w
0x
1y
0z
1{
1|
0}
0~
0!!
1"!
1#!
0$!
0%!
0&!
0'!
1(!
1)!
0*!
1+!
0,!
1-!
0.!
0/!
10!
11!
02!
03!
04!
05!
16!
17!
18!
19!
0C!
0B!
0A!
0@!
0?!
0>!
0=!
0<!
0;!
0:!
0M!
0L!
0K!
0J!
0I!
0H!
0G!
0F!
0E!
0D!
$end
#50
1!
1F
01
1I
1J
0G
0H
1C!
1L
0K
1M
#100
0!
0F
11
#150
1!
1F
01
0I
0J
1G
1H
#200
0!
0F
11
#250
1!
1F
01
1I
1J
0G
0H
1B!
0C!
0N
0M
0L
1K
1O
1N
1M
0O
#300
0!
0F
11
#350
1!
1F
01
0I
0J
1G
1H
#400
0!
0F
11
#450
1!
1F
01
1I
1J
0G
0H
1C!
1L
0K
0N
0M
1O
#500
0!
0F
11
#550
1!
1F
01
0I
0J
1G
1H
#600
0!
0F
11
#650
1!
1F
01
1I
1J
0G
0H
1A!
0B!
0C!
1P
0O
1N
1M
0L
1K
1Q
0P
1O
0M
0Q
#700
0!
0F
11
#750
1!
1F
01
0I
0J
1G
1H
#800
0!
0F
11
#850
1!
1F
01
1I
1J
0G
0H
1C!
1L
0K
1M
#900
0!
0F
11
#950
1!
1F
01
0I
0J
1G
1H
#1000
0!
0F
11
#1050
1!
1F
01
1I
1J
0G
0H
1B!
0C!
0N
0M
0L
1K
1P
0O
1N
1M
1Q
0P
1O
0Q
#1100
0!
0F
11
#1150
1!
1F
01
0I
0J
1G
1H
#1200
0!
0F
11
#1250
1!
1F
01
1I
1J
0G
0H
1C!
1L
0K
0N
0M
1P
0O
1Q
#1300
0!
0F
11
#1350
1!
1F
01
0I
0J
1G
1H
#1400
0!
0F
11
#1450
1!
1F
01
1I
1J
0G
0H
1@!
0A!
0B!
0C!
0R
0Q
0P
1O
1N
1M
0L
1K
1S
1R
1Q
0O
0M
0S
#1500
0!
0F
11
#1550
1!
1F
01
0I
0J
1G
1H
#1600
0!
0F
11
#1650
1!
1F
01
1I
1J
0G
0H
1C!
1L
0K
1M
#1700
0!
0F
11
#1750
1!
1F
01
0I
0J
1G
1H
#1800
0!
0F
11
#1850
1!
1F
01
1I
1J
0G
0H
1B!
0C!
0N
0M
0L
1K
1O
1N
1M
0O
#1900
0!
0F
11
#1950
1!
1F
01
0I
0J
1G
1H
#2000
0!
0F
11
#2050
1!
1F
01
1I
1J
0G
0H
1C!
1L
0K
0N
0M
1O
#2100
0!
0F
11
#2150
1!
1F
01
0I
0J
1G
1H
#2200
0!
0F
11
#2250
1!
1F
01
1I
1J
0G
0H
1A!
0B!
0C!
1P
0O
1N
1M
0L
1K
0R
0Q
0P
1O
0M
1S
1R
1Q
0S
#2300
0!
0F
11
#2350
1!
1F
01
0I
0J
1G
1H
#2400
0!
0F
11
#2450
1!
1F
01
1I
1J
0G
0H
1C!
1L
0K
1M
#2500
0!
0F
11
#2550
1!
1F
01
0I
0J
1G
1H
#2600
0!
0F
11
#2650
1!
1F
01
1I
1J
0G
0H
1B!
0C!
0N
0M
0L
1K
1P
0O
1N
1M
0R
0Q
0P
1O
1S
1R
1Q
0S
#2700
0!
0F
11
#2750
1!
1F
01
0I
0J
1G
1H
#2800
0!
0F
11
#2850
1!
1F
01
1I
1J
0G
0H
1C!
1L
0K
0N
0M
1P
0O
0R
0Q
1S
#2900
0!
0F
11
#2950
1!
1F
01
0I
0J
1G
1H
#3000
0!
0F
11
#3050
1!
1F
01
1I
1J
0G
0H
1?!
0@!
0A!
0B!
0C!
1T
0S
1R
1Q
0P
1O
1N
1M
0L
1K
1U
0T
1S
0Q
0O
0M
1V
0U
0V
#3100
0!
0F
11
#3150
1!
1F
01
0I
0J
1G
1H
#3200
0!
0F
11
#3250
1!
1F
01
1I
1J
0G
0H
1C!
1L
0K
1M
#3300
0!
0F
11
#3350
1!
1F
01
0I
0J
1G
1H
#3400
0!
0F
11
#3450
1!
1F
01
1I
1J
0G
0H
1B!
0C!
0N
0M
0L
1K
1O
1N
1M
0O
#3500
0!
0F
11
#3550
1!
1F
01
0I
0J
1G
1H
#3600
0!
0F
11
#3650
1!
1F
01
1I
1J
0G
0H
1C!
1L
0K
0N
0M
1O
#3700
0!
0F
11
#3750
1!
1F
01
0I
0J
1G
1H
#3800
0!
0F
11
#3850
1!
1F
01
1I
1J
0G
0H
1A!
0B!
0C!
15!
1P
0O
1N
1M
0L
1K
1Q
0P
1O
0M
0Q
#3900
0!
0F
11
#3950
1!
1F
01
0I
0J
1G
1H
#4000
0!
0F
11
#4050
1!
1F
01
1I
1J
0G
0H
1C!
1L
0K
1M
#4100
0!
0F
11
#4150
1!
1F
01
0I
0J
1G
1H
#4200
0!
0F
11
#4250
1!
1F
01
1I
1J
0G
0H
1B!
0C!
0N
0M
0L
1K
1P
0O
1N
1M
1Q
0P
1O
0Q
#4300
0!
0F
11
#4350
1!
1F
01
0I
0J
1G
1H
#4400
0!
0F
11
#4450
1!
1F
01
1I
1J
0G
0H
1C!
1\
1L
0K
1d
0N
0M
1P
0O
1Q
#4500
0!
0F
11
#4550
1!
1F
01
0I
0J
1G
1H
#4600
0!
0F
11
#4650
1!
1F
01
1I
1J
0G
0H
1@!
0A!
0B!
0C!
0R
0Q
0\
0P
1O
1N
1M
0L
1K
1T
0S
1R
1Q
0O
0M
1U
0T
1S
1V
0U
0V
#4700
0!
0F
11
#4750
1!
1F
01
0I
0J
1G
1H
#4800
0!
0F
11
#4850
1!
1F
01
1I
1J
0G
0H
1C!
1L
0K
1M
#4900
0!
0F
11
#4950
1!
1F
01
0I
0J
1G
1H
#5000
0!
0F
11
#5050
1!
1F
01
1I
1J
0G
0H
1B!
0C!
0N
0M
0L
1K
1O
1N
1M
0O
#5100
0!
0F
11
#5150
1!
1F
01
0I
0J
1G
1H
#5200
0!
0F
11
#5250
1!
1F
01
1I
1J
0G
0H
1C!
1L
0K
0N
0M
1O
#5300
0!
0F
11
#5350
1!
1F
01
0I
0J
1G
1H
#5400
0!
0F
11
#5450
1!
1F
01
1I
1J
0G
0H
1A!
0B!
0C!
1P
0O
1N
1M
0L
1K
0R
0Q
0P
1O
0M
1T
0S
1R
1Q
1U
0T
1S
1V
0U
0V
#5500
0!
0F
11
#5550
1!
1F
01
0I
0J
1G
1H
#5600
0!
0F
11
#5650
1!
1F
01
1I
1J
0G
0H
1C!
1L
0K
1M
#5700
0!
0F
11
#5750
1!
1F
01
0I
0J
1G
1H
#5800
0!
0F
11
#5850
1!
1F
01
1I
1J
0G
0H
1B!
0C!
0N
0M
0L
1K
1P
0O
1N
1M
0R
0Q
0P
1O
1T
0S
1R
1Q
1U
0T
1S
1V
0U
0V
#5900
0!
0F
11
#5950
1!
1F
01
0I
0J
1G
1H
#6000
0!
0F
11
#6050
1!
1F
01
1I
1J
0G
0H
1C!
1\
1L
0K
0N
0M
1P
0O
0R
0Q
1T
0S
1U
1V
#6100
0!
0F
11
#6150
1!
1F
01
0I
0J
1G
1H
#6200
0!
0F
11
#6250
1!
1F
01
1I
1J
0G
0H
1>!
0?!
0@!
0A!
0B!
0C!
0W
0U
05!
0\
0T
1S
1R
1Q
0P
1O
1N
1M
0L
1K
1X
0V
1W
1U
0S
0Q
0O
0M
0X
1V
#6300
0!
0F
11
#6350
1!
1F
01
0I
0J
1G
1H
#6400
0!
0F
11
#6450
1!
1F
01
1I
1J
0G
0H
1C!
1L
0K
1M
#6500
0!
0F
11
#6550
1!
1F
01
0I
0J
1G
1H
#6600
0!
0F
11
#6650
1!
1F
01
1I
1J
0G
0H
1B!
0C!
0N
0M
0L
1K
1O
1N
1M
0O
#6700
0!
0F
11
#6750
1!
1F
01
0I
0J
1G
1H
#6800
0!
0F
11
#6850
1!
1F
01
1I
1J
0G
0H
1C!
1L
0K
0N
0M
1O
#6900
0!
0F
11
#6950
1!
1F
01
0I
0J
1G
1H
#7000
0!
0F
11
#7050
1!
1F
01
1I
1J
0G
0H
1A!
0B!
0C!
1P
0O
1N
1M
0L
1K
1Q
0P
1O
0M
0Q
#7100
0!
0F
11
#7150
1!
1F
01
0I
0J
1G
1H
#7200
0!
0F
11
#7250
1!
1F
01
1I
1J
0G
0H
1C!
1L
0K
1M
#7300
0!
0F
11
#7350
1!
1F
01
0I
0J
1G
1H
#7400
0!
0F
11
#7450
1!
1F
01
1I
1J
0G
0H
1B!
0C!
0N
0M
0L
1K
1P
0O
1N
1M
1Q
0P
1O
0Q
#7500
0!
0F
11
#7550
1!
1F
01
0I
0J
1G
1H
#7600
0!
0F
11
#7650
1!
1F
01
1I
1J
0G
0H
1C!
1L
0K
0N
0M
1P
0O
1Q
#7700
0!
0F
11
#7750
1!
1F
01
0I
0J
1G
1H
#7800
0!
0F
11
#7850
1!
1F
01
1I
1J
0G
0H
1@!
0A!
0B!
0C!
0R
0Q
0P
1O
1N
1M
0L
1K
1S
1R
1Q
0O
0M
0S
#7900
0!
0F
11
#7950
1!
1F
01
0I
0J
1G
1H
#8000
0!
0F
11
#8050
1!
1F
01
1I
1J
0G
0H
1C!
1L
0K
1M
#8100
0!
0F
11
#8150
1!
1F
01
0I
0J
1G
1H
#8200
0!
0F
11
#8250
1!
1F
01
1I
1J
0G
0H
1B!
0C!
0N
0M
0L
1K
1O
1N
1M
0O
#8300
0!
0F
11
#8350
1!
1F
01
0I
0J
1G
1H
#8400
0!
0F
11
#8450
1!
1F
01
1I
1J
0G
0H
1C!
1L
0K
0N
0M
1O
#8500
0!
0F
11
#8550
1!
1F
01
0I
0J
1G
1H
#8600
0!
0F
11
#8650
1!
1F
01
1I
1J
0G
0H
1A!
0B!
0C!
0h
1P
0O
1N
1M
0L
1K
0R
0Q
0P
1O
0M
1S
1R
1Q
0S
#8700
0!
0F
11
#8750
1!
1F
01
0I
0J
1G
1H
#8800
0!
0F
11
#8850
1!
1F
01
1I
1J
0G
0H
1C!
1L
0K
1M
#8900
0!
0F
11
#8950
1!
1F
01
0I
0J
1G
1H
#9000
0!
0F
11
#9050
1!
1F
01
1I
1J
0G
0H
1B!
0C!
0N
0M
0L
1K
1P
0O
1N
1M
0R
0Q
0P
1O
1S
1R
1Q
0S
#9100
0!
0F
11
#9150
1!
1F
01
0I
0J
1G
1H
#9200
0!
0F
11
#9250
1!
1F
01
1I
1J
0G
0H
1C!
1L
0K
0N
0M
1P
0O
0R
0Q
1S
#9300
0!
0F
11
#9350
1!
1F
01
0I
0J
1G
1H
#9400
0!
0F
11
#9450
1!
1F
01
1I
1J
0G
0H
1?!
0@!
0A!
0B!
0C!
1T
0S
1R
1Q
0P
1O
1N
1M
0L
1K
0W
0U
0T
1S
0Q
0O
0M
1X
0V
1W
1U
0X
1V
#9500
0!
0F
11
#9550
1!
1F
01
0I
0J
1G
1H
#9600
0!
0F
11
#9650
1!
1F
01
1I
1J
0G
0H
1C!
1L
0K
1M
#9700
0!
0F
11
#9750
1!
1F
01
0I
0J
1G
1H
#9800
0!
0F
11
#9850
1!
1F
01
1I
1J
0G
0H
1B!
0C!
0N
0M
0L
1K
1O
1N
1M
0O
#9900
0!
0F
11
#9950
1!
1F
01
0I
0J
1G
1H
#10000
0!
0F
11
#10050
1!
1F
01
1I
1J
0G
0H
1C!
1L
0K
0N
0M
1O
#10100
0!
0F
11
#10150
1!
1F
01
0I
0J
1G
1H
#10200
0!
0F
11
#10250
1!
1F
01
1I
1J
0G
0H
1A!
0B!
0C!
15!
1P
0O
1N
1M
0L
1K
1Q
0P
1O
0M
0Q
#10300
0!
0F
11
#10350
1!
1F
01
0I
0J
1G
1H
#10400
0!
0F
11
#10450
1!
1F
01
1I
1J
0G
0H
1C!
1L
0K
1M
#10500
0!
0F
11
#10550
1!
1F
01
0I
0J
1G
1H
#10600
0!
0F
11
#10650
1!
1F
01
1I
1J
0G
0H
1B!
0C!
0N
0M
0L
1K
1P
0O
1N
1M
1Q
0P
1O
0Q
#10700
0!
0F
11
#10750
1!
1F
01
0I
0J
1G
1H
#10800
0!
0F
11
#10850
1!
1F
01
1I
1J
0G
0H
1C!
1\
1L
0K
0N
0M
1P
0O
1Q
#10900
0!
0F
11
#10950
1!
1F
01
0I
0J
1G
1H
#11000
0!
0F
11
#11050
1!
1F
01
1I
1J
0G
0H
1@!
0A!
0B!
0C!
0R
0Q
0\
0P
1O
1N
1M
0L
1K
1T
0S
1R
1Q
0O
0M
0W
0U
0T
1S
1X
0V
1W
1U
0X
1V
#11100
0!
0F
11
#11150
1!
1F
01
0I
0J
1G
1H
#11200
0!
0F
11
#11250
1!
1F
01
1I
1J
0G
0H
1C!
1L
0K
1M
#11300
0!
0F
11
#11350
1!
1F
01
0I
0J
1G
1H
#11400
0!
0F
11
#11450
1!
1F
01
1I
1J
0G
0H
1B!
0C!
0N
0M
0L
1K
1O
1N
1M
0O
#11500
0!
0F
11
#11550
1!
1F
01
0I
0J
1G
1H
#11600
0!
0F
11
#11650
1!
1F
01
1I
1J
0G
0H
1C!
1L
0K
0N
0M
1O
#11700
0!
0F
11
#11750
1!
1F
01
0I
0J
1G
1H
#11800
0!
0F
11
#11850
1!
1F
01
1I
1J
0G
0H
1A!
0B!
0C!
1P
0O
1N
1M
0L
1K
0R
0Q
0P
1O
0M
1T
0S
1R
1Q
0W
0U
0T
1S
1X
0V
1W
1U
0X
1V
#11900
0!
0F
11
#11950
1!
1F
01
0I
0J
1G
1H
#12000
0!
0F
11
#12050
1!
1F
01
1I
1J
0G
0H
1C!
1L
0K
1M
#12100
0!
0F
11
#12150
1!
1F
01
0I
0J
1G
1H
#12200
0!
0F
11
#12250
1!
1F
01
1I
1J
0G
0H
1B!
0C!
0N
0M
0L
1K
1P
0O
1N
1M
0R
0Q
0P
1O
1T
0S
1R
1Q
0W
0U
0T
1S
1X
0V
1W
1U
0X
1V
#12300
0!
0F
11
#12350
1!
1F
01
0I
0J
1G
1H
#12400
0!
0F
11
#12450
1!
1F
01
1I
1J
0G
0H
1C!
1\
1L
0K
0N
0M
1P
0O
0R
0Q
1T
0S
0W
0U
1X
0V
#12500
0!
0F
11
#12550
1!
1F
01
0I
0J
1G
1H
#12600
0!
0F
11
#12650
1!
1F
01
1I
1J
0G
0H
1=!
0>!
0?!
0@!
0A!
0B!
0C!
1Y
0X
1h
1W
1U
05!
0\
0T
1S
1R
1Q
0P
1O
1N
1M
0L
1K
1Z
0Y
1X
1V
0d
0U
0S
0Q
0O
0M
0Z
0V
#12700
0!
0F
11
#12750
1!
1F
01
0I
0J
1G
1H
#12800
0!
0F
11
#12850
1!
1F
01
1I
1J
0G
0H
1C!
1L
0K
1M
#12900
0!
0F
11
#12950
1!
1F
01
0I
0J
1G
1H
#13000
0!
0F
11
#13050
1!
1F
01
1I
1J
0G
0H
1B!
0C!
0N
0M
0L
1K
1O
1N
1M
0O
#13100
0!
0F
11
#13150
1!
1F
01
0I
0J
1G
1H
#13200
0!
0F
11
#13250
1!
1F
01
1I
1J
0G
0H
1C!
1L
0K
0N
0M
1O
#13300
0!
0F
11
#13350
1!
1F
01
0I
0J
1G
1H
#13400
0!
0F
11
#13450
1!
1F
01
1I
1J
0G
0H
1A!
0B!
0C!
1P
0O
1N
1M
0L
1K
1Q
0P
1O
0M
0Q
#13500
0!
0F
11
#13550
1!
1F
01
0I
0J
1G
1H
#13600
0!
0F
11
#13650
1!
1F
01
1I
1J
0G
0H
1C!
1L
0K
1M
#13700
0!
0F
11
#13750
1!
1F
01
0I
0J
1G
1H
#13800
0!
0F
11
#13850
1!
1F
01
1I
1J
0G
0H
1B!
0C!
0N
0M
0L
1K
1P
0O
1N
1M
1Q
0P
1O
0Q
#13900
0!
0F
11
#13950
1!
1F
01
0I
0J
1G
1H
#14000
0!
0F
11
#14050
1!
1F
01
1I
1J
0G
0H
1C!
1L
0K
0N
0M
1P
0O
1Q
#14100
0!
0F
11
#14150
1!
1F
01
0I
0J
1G
1H
#14200
0!
0F
11
#14250
1!
1F
01
1I
1J
0G
0H
1@!
0A!
0B!
0C!
0R
0Q
0P
1O
1N
1M
0L
1K
1S
1R
1Q
0O
0M
0S
#14300
0!
0F
11
#14350
1!
1F
01
0I
0J
1G
1H
#14400
0!
0F
11
#14450
1!
1F
01
1I
1J
0G
0H
1C!
1L
0K
1M
#14500
0!
0F
11
#14550
1!
1F
01
0I
0J
1G
1H
#14600
0!
0F
11
#14650
1!
1F
01
1I
1J
0G
0H
1B!
0C!
0N
0M
0L
1K
1O
1N
1M
0O
#14700
0!
0F
11
#14750
1!
1F
01
0I
0J
1G
1H
#14800
0!
0F
11
#14850
1!
1F
01
1I
1J
0G
0H
1C!
1L
0K
0N
0M
1O
#14900
0!
0F
11
#14950
1!
1F
01
0I
0J
1G
1H
#15000
0!
0F
11
#15050
1!
1F
01
1I
1J
0G
0H
1A!
0B!
0C!
1P
0O
1N
1M
0L
1K
0R
0Q
0P
1O
0M
1S
1R
1Q
0S
#15100
0!
0F
11
#15150
1!
1F
01
0I
0J
1G
1H
#15200
0!
0F
11
#15250
1!
1F
01
1I
1J
0G
0H
1C!
1L
0K
1M
#15300
0!
0F
11
#15350
1!
1F
01
0I
0J
1G
1H
#15400
0!
0F
11
#15450
1!
1F
01
1I
1J
0G
0H
1B!
0C!
0N
0M
0L
1K
1P
0O
1N
1M
0R
0Q
0P
1O
1S
1R
1Q
0S
#15500
0!
0F
11
#15550
1!
1F
01
0I
0J
1G
1H
#15600
0!
0F
11
#15650
1!
1F
01
1I
1J
0G
0H
1C!
1L
0K
0N
0M
1P
0O
0R
0Q
1S
#15700
0!
0F
11
#15750
1!
1F
01
0I
0J
1G
1H
#15800
0!
0F
11
#15850
1!
1F
01
1I
1J
0G
0H
1?!
0@!
0A!
0B!
0C!
1T
0S
1R
1Q
0P
1O
1N
1M
0L
1K
1U
0T
1S
0Q
0O
0M
1V
0U
0V
#15900
0!
0F
11
#15950
1!
1F
01
0I
0J
1G
1H
#16000
0!
0F
11
#16050
1!
1F
01
1I
1J
0G
0H
1C!
1L
0K
1M
#16100
0!
0F
11
#16150
1!
1F
01
0I
0J
1G
1H
#16200
0!
0F
11
#16250
1!
1F
01
1I
1J
0G
0H
1B!
0C!
0N
0M
0L
1K
1O
1N
1M
0O
#16300
0!
0F
11
#16350
1!
1F
01
0I
0J
1G
1H
#16400
0!
0F
11
#16450
1!
1F
01
1I
1J
0G
0H
1C!
1L
0K
0N
0M
1O
#16500
0!
0F
11
#16550
1!
1F
01
0I
0J
1G
1H
#16600
0!
0F
11
#16650
1!
1F
01
1I
1J
0G
0H
1A!
0B!
0C!
15!
1P
0O
1N
1M
0L
1K
1Q
0P
1O
0M
0Q
#16700
0!
0F
11
#16750
1!
1F
01
0I
0J
1G
1H
#16800
0!
0F
11
#16850
1!
1F
01
1I
1J
0G
0H
1C!
1L
0K
1M
#16900
0!
0F
11
#16950
1!
1F
01
0I
0J
1G
1H
#17000
0!
0F
11
#17050
1!
1F
01
1I
1J
0G
0H
1B!
0C!
0N
0M
0L
1K
1P
0O
1N
1M
1Q
0P
1O
0Q
#17100
0!
0F
11
#17150
1!
1F
01
0I
0J
1G
1H
#17200
0!
0F
11
#17250
1!
1F
01
1I
1J
0G
0H
1C!
1\
1L
0K
1d
0N
0M
1P
0O
1Q
#17300
0!
0F
11
#17350
1!
1F
01
0I
0J
1G
1H
#17400
0!
0F
11
#17450
1!
1F
01
1I
1J
0G
0H
1@!
0A!
0B!
0C!
0R
0Q
0\
0P
1O
1N
1M
0L
1K
1T
0S
1R
1Q
0O
0M
1U
0T
1S
1V
0U
0V
#17500
0!
0F
11
#17550
1!
1F
01
0I
0J
1G
1H
#17600
0!
0F
11
#17650
1!
1F
01
1I
1J
0G
0H
1C!
1L
0K
1M
#17700
0!
0F
11
#17750
1!
1F
01
0I
0J
1G
1H
#17800
0!
0F
11
#17850
1!
1F
01
1I
1J
0G
0H
1B!
0C!
0N
0M
0L
1K
1O
1N
1M
0O
#17900
0!
0F
11
#17950
1!
1F
01
0I
0J
1G
1H
#18000
0!
0F
11
#18050
1!
1F
01
1I
1J
0G
0H
1C!
1L
0K
0N
0M
1O
#18100
0!
0F
11
#18150
1!
1F
01
0I
0J
1G
1H
#18200
0!
0F
11
#18250
1!
1F
01
1I
1J
0G
0H
1A!
0B!
0C!
1P
0O
1N
1M
0L
1K
0R
0Q
0P
1O
0M
1T
0S
1R
1Q
1U
0T
1S
1V
0U
0V
#18300
0!
0F
11
#18350
1!
1F
01
0I
0J
1G
1H
#18400
0!
0F
11
#18450
1!
1F
01
1I
1J
0G
0H
1C!
1L
0K
1M
#18500
0!
0F
11
#18550
1!
1F
01
0I
0J
1G
1H
#18600
0!
0F
11
#18650
1!
1F
01
1I
1J
0G
0H
1B!
0C!
0N
0M
0L
1K
1P
0O
1N
1M
0R
0Q
0P
1O
1T
0S
1R
1Q
1U
0T
1S
1V
0U
0V
#18700
0!
0F
11
#18750
1!
1F
01
0I
0J
1G
1H
#18800
0!
0F
11
#18850
1!
1F
01
1I
1J
0G
0H
1C!
1\
1L
0K
0N
0M
1P
0O
0R
0Q
1T
0S
1U
1V
#18900
0!
0F
11
#18950
1!
1F
01
0I
0J
1G
1H
#19000
0!
0F
11
#19050
1!
1F
01
1I
1J
0G
0H
1>!
0?!
0@!
0A!
0B!
0C!
0W
0U
05!
0\
0T
1S
1R
1Q
0P
1O
1N
1M
0L
1K
1Y
0X
0V
1W
1U
0S
0Q
0O
0M
1Z
0Y
1X
1V
0Z
#19100
0!
0F
11
#19150
1!
1F
01
0I
0J
1G
1H
#19200
0!
0F
11
#19250
1!
1F
01
1I
1J
0G
0H
1C!
1L
0K
1M
#19300
0!
0F
11
#19350
1!
1F
01
0I
0J
1G
1H
#19400
0!
0F
11
#19450
1!
1F
01
1I
1J
0G
0H
1B!
0C!
0N
0M
0L
1K
1O
1N
1M
0O
#19500
0!
0F
11
#19550
1!
1F
01
0I
0J
1G
1H
#19600
0!
0F
11
