Lab10/simulation/qsim/Lab10_1.msim.vcd
$comment
	File created using the following command:
		vcd file Lab10_1.msim.vcd -direction
$end
$date
	Wed May 08 23:34:36 2024
$end
$version
	ModelSim Version 10.1d
$end
$timescale
	1ps
$end
$scope module Lab10_1_vlg_vec_tst $end
$var reg 1 ! CLOCK_50 $end
$var reg 2 " KEY [2:1] $end
$var wire 1 # GPIO_0 [21] $end
$var wire 1 $ GPIO_0 [20] $end
$var wire 1 % GPIO_0 [19] $end
$var wire 1 & GPIO_0 [18] $end
$var wire 1 ' GPIO_0 [17] $end
$var wire 1 ( GPIO_0 [16] $end
$var wire 1 ) GPIO_0 [15] $end
$var wire 1 * GPIO_0 [14] $end
$var wire 1 + GPIO_0 [13] $end
$var wire 1 , GPIO_0 [12] $end
$var wire 1 - GPIO_0 [11] $end
$var wire 1 . GPIO_0 [10] $end
$var wire 1 / GPIO_0 [9] $end
$var wire 1 0 GPIO_1 [21] $end
$var wire 1 1 GPIO_1 [20] $end
$var wire 1 2 GPIO_1 [19] $end
$var wire 1 3 GPIO_1 [18] $end
$var wire 1 4 GPIO_1 [17] $end
$var wire 1 5 GPIO_1 [16] $end
$var wire 1 6 GPIO_1 [15] $end
$var wire 1 7 GPIO_1 [14] $end
$var wire 1 8 GPIO_1 [13] $end
$var wire 1 9 GPIO_1 [12] $end
$var wire 1 : GPIO_1 [11] $end
$var wire 1 ; GPIO_1 [10] $end
$var wire 1 < GPIO_1 [9] $end
$var wire 1 = sampler $end
$scope module i1 $end
$var wire 1 > gnd $end
$var wire 1 ? vcc $end
$var wire 1 @ unknown $end
$var tri1 1 A devclrn $end
$var tri1 1 B devpor $end
$var tri1 1 C devoe $end
$var wire 1 D GPIO_0[9]~output_o $end
$var wire 1 E GPIO_0[10]~output_o $end
$var wire 1 F GPIO_0[11]~output_o $end
$var wire 1 G GPIO_0[12]~output_o $end
$var wire 1 H GPIO_0[13]~output_o $end
$var wire 1 I GPIO_0[14]~output_o $end
$var wire 1 J GPIO_0[15]~output_o $end
$var wire 1 K GPIO_0[16]~output_o $end
$var wire 1 L GPIO_0[17]~output_o $end
$var wire 1 M GPIO_0[18]~output_o $end
$var wire 1 N GPIO_0[19]~output_o $end
$var wire 1 O GPIO_0[20]~output_o $end
$var wire 1 P GPIO_0[21]~output_o $end
$var wire 1 Q GPIO_1[9]~output_o $end
$var wire 1 R GPIO_1[10]~output_o $end
$var wire 1 S GPIO_1[11]~output_o $end
$var wire 1 T GPIO_1[12]~output_o $end
$var wire 1 U GPIO_1[13]~output_o $end
$var wire 1 V GPIO_1[14]~output_o $end
$var wire 1 W GPIO_1[15]~output_o $end
$var wire 1 X GPIO_1[16]~output_o $end
$var wire 1 Y GPIO_1[17]~output_o $end
$var wire 1 Z GPIO_1[18]~output_o $end
$var wire 1 [ GPIO_1[19]~output_o $end
$var wire 1 \ GPIO_1[20]~output_o $end
$var wire 1 ] GPIO_1[21]~output_o $end
$var wire 1 ^ CLOCK_50~input_o $end
$var wire 1 _ CLK_U1|CLK_out~0_combout $end
$var wire 1 ` CLK_U1|CLK_out~feeder_combout $end
$var wire 1 a CLK_U1|CLK_out~q $end
$var wire 1 b CLK_U1|CLK_out~clkctrl_outclk $end
$var wire 1 c COUNTER[0]~6_combout $end
$var wire 1 d ~GND~combout $end
$var wire 1 e KEY[1]~input_o $end
$var wire 1 f KEY[1]~inputclkctrl_outclk $end
$var wire 1 g COUNTER[1]~9 $end
$var wire 1 h COUNTER[2]~10_combout $end
$var wire 1 i COUNTER[2]~11 $end
$var wire 1 j COUNTER[3]~12_combout $end
$var wire 1 k COUNTER[3]~13 $end
$var wire 1 l COUNTER[4]~14_combout $end
$var wire 1 m COUNTER[4]~15 $end
$var wire 1 n COUNTER[5]~16_combout $end
$var wire 1 o LessThan0~0_combout $end
$var wire 1 p LessThan0~1_combout $end
$var wire 1 q COUNTER[0]~7 $end
$var wire 1 r COUNTER[1]~8_combout $end
$var wire 1 s Selector0~3_combout $end
$var wire 1 t Selector0~2_combout $end
$var wire 1 u Selector0~0_combout $end
$var wire 1 v Selector0~1_combout $end
$var wire 1 w Selector0~4_combout $end
$var wire 1 x Selector0~5_combout $end
$var wire 1 y LCM_RS~q $end
$var wire 1 z KEY[2]~input_o $end
$var wire 1 { LINE1[0][0]~feeder_combout $end
$var wire 1 | LINE1[0][0]~q $end
$var wire 1 } Selector8~17_combout $end
$var wire 1 ~ Selector8~36_combout $end
$var wire 1 !! Selector8~18_combout $end
$var wire 1 "! Selector8~37_combout $end
$var wire 1 #! Selector8~19_combout $end
$var wire 1 $! Selector8~38_combout $end
$var wire 1 %! Selector8~30_combout $end
$var wire 1 &! Selector8~23_combout $end
$var wire 1 '! Selector8~16_combout $end
$var wire 1 (! Selector8~9_combout $end
$var wire 1 )! Selector8~7_combout $end
$var wire 1 *! Selector8~40_combout $end
$var wire 1 +! Selector8~12_combout $end
$var wire 1 ,! Selector8~14_combout $end
$var wire 1 -! Selector8~31_combout $end
$var wire 1 .! Selector8~32_combout $end
$var wire 1 /! Selector8~13_combout $end
$var wire 1 0! Selector8~15_combout $end
$var wire 1 1! Selector8~35_combout $end
$var wire 1 2! Selector8~20_combout $end
$var wire 1 3! Selector8~21_combout $end
$var wire 1 4! Selector8~22_combout $end
$var wire 1 5! Selector7~4_combout $end
$var wire 1 6! Selector7~22_combout $end
$var wire 1 7! Selector7~18_combout $end
$var wire 1 8! Selector8~24_combout $end
$var wire 1 9! Selector7~13_combout $end
$var wire 1 :! Selector7~23_combout $end
$var wire 1 ;! Selector8~39_combout $end
$var wire 1 <! Selector8~25_combout $end
$var wire 1 =! Selector7~19_combout $end
$var wire 1 >! Selector8~26_combout $end
$var wire 1 ?! Selector7~20_combout $end
$var wire 1 @! Selector7~21_combout $end
$var wire 1 A! Selector6~15_combout $end
$var wire 1 B! Selector6~16_combout $end
$var wire 1 C! Selector6~14_combout $end
$var wire 1 D! Selector6~13_combout $end
$var wire 1 E! Selector8~34_combout $end
$var wire 1 F! Selector8~33_combout $end
$var wire 1 G! Selector6~10_combout $end
$var wire 1 H! Selector8~27_combout $end
$var wire 1 I! Selector2~11_combout $end
$var wire 1 J! Selector3~0_combout $end
$var wire 1 K! Selector6~11_combout $end
$var wire 1 L! Selector5~23_combout $end
$var wire 1 M! Selector5~24_combout $end
$var wire 1 N! Selector5~15_combout $end
$var wire 1 O! Selector5~14_combout $end
$var wire 1 P! Selector5~11_combout $end
$var wire 1 Q! Selector5~12_combout $end
$var wire 1 R! Selector5~20_combout $end
$var wire 1 S! Selector5~21_combout $end
$var wire 1 T! Selector5~22_combout $end
$var wire 1 U! Selector6~12_combout $end
$var wire 1 V! Selector8~28_combout $end
$var wire 1 W! Selector4~10_combout $end
$var wire 1 X! Selector4~11_combout $end
$var wire 1 Y! Selector4~9_combout $end
$var wire 1 Z! Selector4~8_combout $end
$var wire 1 [! Selector3~2_combout $end
$var wire 1 \! Selector3~1_combout $end
$var wire 1 ]! Selector8~29_combout $end
$var wire 1 ^! Selector3~3_combout $end
$var wire 1 _! Selector2~17_combout $end
$var wire 1 `! Selector2~18_combout $end
$var wire 1 a! Selector2~15_combout $end
$var wire 1 b! Selector2~16_combout $end
$var wire 1 c! Selector2~14_combout $end
$var wire 1 d! Selector2~12_combout $end
$var wire 1 e! Selector2~13_combout $end
$var wire 1 f! LCM_DB~2_combout $end
$var wire 1 g! LCM_DB~3_combout $end
$var wire 1 h! LCM_DB [7] $end
$var wire 1 i! LCM_DB [6] $end
$var wire 1 j! LCM_DB [5] $end
$var wire 1 k! LCM_DB [4] $end
$var wire 1 l! LCM_DB [3] $end
$var wire 1 m! LCM_DB [2] $end
$var wire 1 n! LCM_DB [1] $end
$var wire 1 o! LCM_DB [0] $end
$var wire 1 p! COUNTER [5] $end
$var wire 1 q! COUNTER [4] $end
$var wire 1 r! COUNTER [3] $end
$var wire 1 s! COUNTER [2] $end
$var wire 1 t! COUNTER [1] $end
$var wire 1 u! COUNTER [0] $end
$upscope $end
$upscope $end
$enddefinitions $end
#0
$dumpvars
0!
b10 "
0/
0.
0-
0,
0+
0*
0)
0(
0'
0&
0%
0$
0#
0<
0;
0:
09
08
07
06
05
04
03
12
01
00
x=
0>
1?
x@
1A
1B
1C
0D
0E
0F
0G
0H
0I
0J
0K
0L
0M
0N
0O
0P
0Q
0R
0S
0T
0U
0V
0W
0X
0Y
0Z
1[
0\
0]
0^
1_
1`
0a
0b
1c
0d
0e
0f
1g
0h
0i
0j
1k
0l
0m
0n
1o
0p
0q
0r
0s
0t
0u
0v
0w
0x
0y
1z
1{
0|
0}
0~
0!!
0"!
0#!
0$!
0%!
1&!
0'!
0(!
0)!
0*!
0+!
0,!
0-!
0.!
0/!
00!
01!
02!
03!
04!
15!
16!
17!
08!
09!
0:!
0;!
0<!
0=!
0>!
0?!
0@!
1A!
0B!
0C!
0D!
0E!
0F!
0G!
0H!
1I!
1J!
0K!
0L!
1M!
0N!
0O!
1P!
0Q!
1R!
1S!
1T!
0U!
1V!
0W!
0X!
0Y!
1Z!
1[!
1\!
0]!
1^!
0_!
0`!
0a!
0b!
0c!
0d!
0e!
1f!
0g!
0o!
0n!
0m!
0l!
0k!
0j!
0i!
0h!
0u!
0t!
0s!
0r!
0q!
0p!
$end
#5000
1!
1^
0=
1a
1b
0_
1L
1'
0`
#10000
b11 "
0!
1e
0^
1f
1=
#15000
1!
1^
0=
0a
0b
1_
0L
0'
1`
1l!
1k!
1j!
1S
1U
1V
1:
18
17
#20000
0!
0^
1=
#25000
1!
1^
0=
1a
1b
0_
1L
1'
0`
1u!
0f!
1,!
1s
0o
1q
0c
1r
#30000
0!
0^
1=
#35000
1!
1^
0=
0a
0b
1_
0L
0'
1`
#40000
0!
0^
1=
#45000
1!
1^
0=
1a
1b
0_
1L
1'
0`
1t!
0u!
1W!
1B!
0A!
0,!
0s
0g
0r
0q
1c
0B!
1h
1g
1r
0h
#50000
0!
0^
1=
#55000
1!
1^
0=
0a
0b
1_
0L
0'
1`
#60000
0!
0^
1=
#65000
1!
1^
0=
1a
1b
0_
1L
1'
0`
1u!
0W!
1q
0c
0g
0r
1h
#70000
0!
0^
1=
#75000
1!
1^
0=
0a
0b
1_
0L
0'
1`
#80000
0!
0^
1=
#85000
1!
1^
0=
1a
1b
0_
1L
1'
0`
0t!
0u!
1s!
1A!
1g
1r
0q
1c
0V!
0S!
0R!
1+!
1i
0h
0i
1h
0r
0Z!
0[!
1j
0j
0^!
#90000
0!
0^
1=
#95000
1!
1^
0=
0a
0b
1_
0L
0'
1`
0k!
0j!
0U
0V
08
07
#100000
0!
0^
1=
#105000
1!
1^
0=
1a
1b
0_
1L
1'
0`
1u!
0T!
1,!
1q
0c
10!
1r
18!
#110000
0!
0^
1=
#115000
1!
1^
0=
0a
0b
1_
0L
0'
1`
1o!
0l!
1N
0S
1%
0:
#120000
0!
0^
1=
#125000
1!
1^
0=
1a
1b
0_
1L
1'
0`
1t!
0u!
1[!
0J!
1B!
0A!
0,!
0g
0r
1T!
0q
1c
1K!
0B!
00!
1i
0h
1g
1r
08!
1j
0i
1h
0j
#130000
0!
0^
1=
#135000
1!
1^
0=
0a
0b
1_
0L
0'
1`
0o!
1m!
1l!
0N
1Q
1S
0%
1<
1:
#140000
0!
0^
1=
#145000
1!
1^
0=
1a
1b
0_
1L
1'
0`
1u!
0T!
1?!
1q
0c
1@!
0g
0r
1i
0h
1j
#150000
0!
0^
1=
#155000
1!
1^
0=
0a
0b
1_
0L
0'
1`
1n!
0l!
1P
0S
1#
0:
#160000
0!
0^
1=
#165000
1!
1^
0=
1a
1b
0_
1L
1'
0`
0t!
0u!
1r!
0s!
1f!
0[!
1J!
0?!
1o
1g
1r
1T!
0q
1c
0M!
0+!
1#!
0k
0j
0i
1h
1g!
0K!
0@!
0h
0r
0T!
1l
1k
1j
0l
#170000
0!
0^
1=
#175000
1!
1^
0=
0a
0b
1_
0L
0'
1`
0n!
0m!
1h!
0P
0Q
1Y
0#
0<
14
#180000
0!
0^
1=
#185000
1!
1^
0=
1a
1b
0_
1L
1'
0`
1u!
0f!
1[!
1A!
1,!
1s
0o
1q
0c
0g!
1^!
1x
1r
#190000
0!
0^
1=
#195000
1!
1^
0=
0a
0b
1_
0L
0'
1`
1y
1j!
0h!
1t
1I
1V
0Y
1*
17
04
#200000
0!
0^
1=
#205000
1!
1^
0=
1a
1b
0_
1L
1'
0`
1t!
0u!
1W!
0,!
1u
0t
0s
0g
0r
0q
1c
1v
0x
1h
1g
1r
1w
0h
1x
#210000
0!
0^
1=
#215000
1!
1^
0=
0a
0b
1_
0L
0'
1`
#220000
0!
0^
1=
#225000
1!
1^
0=
1a
1b
0_
1L
1'
0`
1u!
1q
0c
0g
0r
1h
#230000
0!
0^
1=
#235000
1!
1^
0=
0a
0b
1_
0L
0'
1`
#240000
0!
0^
1=
#245000
1!
1^
0=
1a
1b
0_
1L
1'
0`
0t!
0u!
1s!
0[!
1X!
0A!
0u
1g
1r
0q
1c
1R!
1-!
0#!
1i
0h
0^!
0i
1h
0r
1/!
1[!
0k
0j
1k
1j
1^!
1l
0l
#250000
0!
0^
1=
#255000
1!
1^
0=
0a
0b
1_
0L
0'
1`
#260000
0!
0^
1=
#265000
1!
1^
0=
1a
1b
0_
1L
1'
0`
1u!
0W!
1A!
0/!
1,!
1q
0c
0X!
1r
#270000
0!
0^
1=
#275000
1!
1^
0=
0a
0b
1_
0L
0'
1`
#280000
0!
0^
1=
#285000
1!
1^
0=
1a
1b
0_
1L
1'
0`
1t!
0u!
1a!
0,!
1u
0g
0r
0q
1c
1b!
1i
0h
1g
1r
0k
0j
0i
1h
1l
1k
1j
0l
#290000
0!
0^
1=
#295000
1!
1^
0=
0a
0b
1_
0L
0'
1`
#300000
0!
0^
1=
#305000
1!
1^
0=
1a
1b
0_
1L
1'
0`
1u!
1/!
1q
0c
0g
0r
1i
0h
0k
0j
1l
#310000
0!
0^
1=
#315000
1!
1^
0=
0a
0b
1_
0L
0'
1`
#320000
0!
0^
1=
#325000
1!
1^
0=
1a
1b
0_
1L
1'
0`
0t!
0u!
1q!
0r!
0s!
0P!
1B!
1t
1g
1r
05!
0q
1c
1_!
1.!
0-!
1m
0l
1k
1j
1S!
0i
1h
0R!
0h
0r
0/!
1n
0m
1l
0j
0S!
0n
#330000
0!
0^
1=
#335000
1!
1^
0=
0a
0b
1_
0L
0'
1`
#340000
0!
0^
1=
#345000
1!
1^
0=
1a
1b
0_
1L
1'
0`
1u!
1f!
19!
15!
1/!
1,!
1q
0c
1r
#350000
0!
0^
1=
#355000
1!
1^
0=
0a
0b
1_
0L
0'
1`
#360000
b1 "
0!
0z
0^
1=
1|
1c!
1P!
1O!
1H!
1;!
10!
1e!
1R!
18!
1S!
1T!
#365000
1!
1^
0=
1a
1b
0_
1L
1'
0`
1t!
0u!
0f!
1`!
1W!
1Q!
0P!
1N!
0H!
1E!
0B!
0A!
0;!
0/!
0,!
1s
0g
0r
0c!
0T!
05!
0q
1c
1c!
1X!
0R!
1G!
1B!
00!
1h
0e!
1g
1r
1e!
1Y!
0S!
1K!
08!
0h
1Z!
#370000
b11 "
0!
1z
0^
1=
#375000
1!
1^
0=
0a
0b
1_
0L
0'
1`
1m!
1k!
1i!
1Q
1U
1W
1<
18
16
#380000
0!
0^
1=
#385000
1!
1^
0=
1a
1b
0_
1L
1'
0`
1u!
0W!
0E!
15!
1/!
0s
1q
0c
0X!
0G!
10!
0g
0r
0Y!
0K!
18!
1h
0Z!
#390000
0!
0^
1=
#395000
1!
1^
0=
0a
0b
1_
0L
0'
1`
1o!
0m!
0k!
1N
0Q
0U
1%
0<
08
#400000
0!
0^
1=
#405000
1!
1^
0=
1a
1b
0_
1L
1'
0`
0t!
0u!
1s!
0a!
0Q!
1P!
0N!
1L!
0B!
1A!
1;!
09!
0/!
1g
1r
0q
1c
0b!
1S!
1C!
1:!
0.!
1i
0h
1M!
0C!
1B!
0:!
00!
0i
1h
0r
1K!
1@!
1j
1T!
0K!
1C!
0@!
08!
0j
1K!
#410000
0!
0^
1=
#415000
1!
1^
0=
0a
0b
1_
0L
0'
1`
0o!
1m!
1l!
0N
1Q
1S
0%
1<
1:
#420000
0!
0^
1=
#425000
1!
1^
0=
1a
1b
0_
1L
1'
0`
1u!
0c!
1H!
19!
1,!
1q
0c
0e!
1:!
1r
1@!
#430000
0!
0^
1=
#435000
1!
1^
0=
0a
0b
1_
0L
0'
1`
1n!
0i!
1P
0W
1#
06
#440000
0!
0^
1=
#445000
1!
1^
0=
1a
1b
0_
1L
1'
0`
1t!
0u!
0`!
1Q!
0P!
1N!
0H!
1E!
0B!
0A!
0;!
0,!
0g
0r
1c!
0q
1c
0c!
0C!
1B!
1i
0h
1e!
1g
1r
0e!
0K!
1C!
1j
0i
1h
1K!
0j
#450000
0!
0^
1=
#455000
1!
1^
0=
0a
0b
1_
0L
0'
1`
#460000
0!
0^
1=
#465000
1!
1^
0=
1a
1b
0_
1L
1'
0`
1u!
0E!
1q
0c
0g
0r
1i
0h
1j
#470000
0!
0^
1=
#475000
1!
1^
0=
0a
0b
1_
0L
0'
1`
#480000
0!
0^
1=
#485000
1!
1^
0=
1a
1b
0_
1L
1'
0`
0t!
0u!
1r!
0s!
0Q!
1P!
0N!
0B!
1;!
09!
1g
1r
05!
0q
1c
0_!
1R!
0:!
1(!
1!!
0k
0j
0S!
0C!
0i
1h
0R!
1S!
0h
0r
0@!
1>!
1m
0l
0K!
1k
1j
0S!
1D!
1?!
1n
0m
1l
1K!
1@!
0n
#490000
0!
0^
1=
#495000
1!
1^
0=
0a
0b
1_
0L
0'
1`
#500000
0!
0^
1=
#505000
1!
1^
0=
1a
1b
0_
1L
1'
0`
1u!
1f!
1]!
0T!
1H!
1A!
0>!
19!
15!
1,!
0u
1q
0c
1g!
1d!
0^!
1B!
0D!
0?!
0v
1r
1e!
0K!
0@!
0w
0x
#510000
0!
0^
1=
#515000
1!
1^
0=
0a
0b
1_
0L
0'
1`
0y
0n!
0m!
0l!
0j!
1i!
1h!
0t
0I
0P
0Q
0S
0V
1W
1Y
0*
0#
0<
0:
07
16
14
#520000
0!
0^
1=
#525000
1!
1^
0=
1a
1b
0_
1L
1'
0`
1t!
0u!
0f!
0]!
1W!
1Q!
0P!
1N!
0L!
0H!
1E!
0;!
0,!
1)!
1u
1s
0g
0r
1T!
1>!
05!
0q
1c
0g!
0d!
1^!
1X!
1R!
0M!
1*!
1x
1h
1?!
1g
1r
0e!
1Y!
1S!
0T!
18!
1@!
0h
1Z!
#530000
0!
0^
1=
#535000
1!
1^
0=
0a
0b
1_
0L
0'
1`
1y
1o!
1n!
1k!
1j!
0i!
0h!
1v
1I
1N
1P
1U
1V
0W
0Y
1*
1%
1#
18
17
06
04
1w
#540000
0!
0^
1=
#545000
1!
1^
0=
1a
1b
0_
1L
1'
0`
1u!
1T!
0E!
0>!
15!
0*!
1"!
0s
1q
0c
0?!
08!
0&!
0g
0r
0@!
1e!
18!
1h
#550000
0!
0^
1=
#555000
1!
1^
0=
0a
0b
1_
0L
0'
1`
0n!
1l!
1i!
0P
1S
1W
0#
1:
16
#560000
b10 "
0!
0e
0^
0f
1=
0|
0t!
0u!
0q!
0r!
0Y!
0Q!
1P!
0O!
0N!
0"!
1f!
0X!
0W!
0B!
09!
0)!
0u
1t
1o
1g
1r
0T!
0q
1c
1V!
1M!
0(!
0!!
0l
0R!
0j
1R!
0S!
1&!
0v
0h
0r
1T!
1S!
0e!
08!
0w
0x
#565000
1!
1^
0=
1a
1b
0_
1L
1'
0`
#570000
0!
0^
1=
#575000
1!
1^
0=
0a
0b
1_
0L
0'
1`
0y
0o!
0i!
0t
0I
0N
0W
0*
0%
06
#580000
b11 "
0!
1e
0^
1f
1=
#585000
1!
1^
0=
1a
1b
0_
1L
1'
0`
1u!
0f!
1,!
1s
0o
1q
0c
1r
#590000
0!
0^
1=
#595000
1!
1^
0=
0a
0b
1_
0L
0'
1`
#600000
0!
0^
1=
#605000
1!
1^
0=
1a
1b
0_
1L
1'
0`
1t!
0u!
1W!
1B!
0A!
0,!
0s
0g
0r
0q
1c
0B!
1h
1g
1r
0h
#610000
0!
0^
1=
#615000
1!
1^
0=
0a
0b
1_
0L
0'
1`
#620000
0!
0^
1=
#625000
1!
1^
0=
1a
1b
0_
1L
1'
0`
1u!
0W!
1q
0c
0g
0r
1h
#630000
0!
0^
1=
#635000
1!
1^
0=
0a
0b
1_
0L
0'
1`
#640000
0!
0^
1=
#645000
1!
1^
0=
1a
1b
0_
1L
1'
0`
0t!
0u!
1s!
1A!
1g
1r
0q
1c
0V!
0S!
0R!
1+!
1i
0h
0i
1h
0r
0Z!
0[!
1j
0j
0^!
#650000
0!
0^
1=
#655000
1!
1^
0=
0a
0b
1_
0L
0'
1`
0k!
0j!
0U
0V
08
07
#660000
0!
0^
1=
#665000
1!
1^
0=
1a
1b
0_
1L
1'
0`
1u!
0T!
1,!
1q
0c
10!
1r
18!
#670000
0!
0^
1=
#675000
1!
1^
0=
0a
0b
1_
0L
0'
1`
1o!
0l!
1N
0S
1%
0:
#680000
0!
0^
1=
#685000
1!
1^
0=
1a
1b
0_
1L
1'
0`
1t!
0u!
1[!
0J!
1B!
0A!
0,!
0g
0r
1T!
0q
1c
1K!
0B!
00!
1i
0h
1g
1r
08!
1j
0i
1h
0j
#690000
0!
0^
1=
#695000
1!
1^
0=
0a
0b
1_
0L
0'
1`
0o!
1m!
1l!
0N
1Q
1S
0%
1<
1:
#700000
0!
0^
1=
#705000
1!
1^
0=
1a
1b
0_
1L
1'
0`
1u!
0T!
1?!
1q
0c
1@!
0g
0r
1i
0h
1j
#710000
0!
0^
1=
#715000
1!
1^
0=
0a
0b
1_
0L
0'
1`
1n!
0l!
1P
0S
1#
0:
#720000
0!
0^
1=
#725000
1!
1^
0=
1a
1b
0_
1L
1'
0`
0t!
0u!
1r!
0s!
1f!
0[!
1J!
0?!
1o
1g
1r
1T!
0q
1c
0M!
0+!
1#!
0k
0j
0i
1h
1g!
0K!
0@!
0h
0r
0T!
1l
1k
1j
0l
#730000
0!
0^
1=
#735000
1!
1^
0=
0a
0b
1_
0L
0'
1`
0n!
0m!
1h!
0P
0Q
1Y
0#
0<
14
#740000
0!
0^
1=
#745000
1!
1^
0=
1a
1b
0_
1L
1'
0`
1u!
0f!
1[!
1A!
1,!
1s
0o
1q
0c
0g!
1^!
1x
1r
#750000
0!
0^
1=
#755000
1!
1^
0=
0a
0b
1_
0L
0'
1`
1y
1j!
0h!
1t
1I
1V
0Y
1*
17
04
#760000
0!
0^
1=
#765000
1!
1^
0=
1a
1b
0_
1L
1'
0`
1t!
0u!
1W!
0,!
1u
0t
0s
0g
0r
0q
1c
1v
0x
1h
1g
1r
1w
0h
1x
#770000
0!
0^
1=
#775000
1!
1^
0=
0a
0b
1_
0L
0'
1`
#780000
0!
0^
1=
#785000
1!
1^
0=
1a
1b
0_
1L
1'
0`
1u!
1q
0c
0g
0r
1h
#790000
0!
0^
1=
#795000
1!
1^
0=
0a
0b
1_
0L
0'
1`
#800000
0!
0^
1=
#805000
1!
1^
0=
1a
1b
0_
1L
1'
0`
0t!
0u!
1s!
0[!
1X!
0A!
0u
1g
1r
0q
1c
1R!
1-!
0#!
1i
0h
0^!
0i
1h
0r
1/!
1[!
0k
0j
1k
1j
1^!
1l
0l
#810000
0!
0^
1=
#815000
1!
1^
0=
0a
0b
1_
0L
0'
1`
#820000
0!
0^
1=
#825000
1!
1^
0=
1a
1b
0_
1L
1'
0`
1u!
0W!
1A!
0/!
1,!
1q
0c
0X!
1r
#830000
0!
0^
1=
#835000
1!
1^
0=
0a
0b
1_
0L
0'
1`
#840000
0!
0^
1=
#845000
1!
1^
0=
1a
1b
0_
1L
1'
0`
1t!
0u!
1a!
0,!
1u
0g
0r
0q
1c
1b!
1i
0h
1g
1r
0k
0j
0i
1h
1l
1k
1j
0l
#850000
0!
0^
1=
#855000
1!
1^
0=
0a
0b
1_
0L
0'
1`
#860000
0!
0^
1=
#865000
1!
1^
0=
1a
1b
0_
1L
1'
0`
1u!
1/!
1q
0c
0g
0r
1i
0h
0k
0j
1l
#870000
0!
0^
1=
#875000
1!
1^
0=
0a
0b
1_
0L
0'
1`
#880000
0!
0^
1=
#885000
1!
1^
0=
1a
1b
0_
1L
1'
0`
0t!
0u!
1q!
0r!
0s!
0P!
1B!
1t
1g
1r
05!
0q
1c
1_!
1.!
0-!
1m
0l
1k
1j
1S!
0i
1h
0R!
0h
0r
0/!
1n
0m
1l
0j
0S!
0n
#890000
0!
0^
1=
#895000
1!
1^
0=
0a
0b
1_
0L
0'
1`
#900000
0!
0^
1=
#905000
1!
1^
0=
1a
1b
0_
1L
1'
0`
1u!
1f!
19!
15!
1/!
1,!
1q
0c
1r
#910000
0!
0^
1=
#915000
1!
1^
0=
0a
0b
1_
0L
0'
1`
#920000
0!
0^
1=
#925000
1!
1^
0=
1a
1b
0_
1L
1'
0`
1t!
0u!
0f!
1`!
1W!
0B!
0A!
0/!
0,!
1s
0g
0r
05!
0q
1c
1X!
1B!
1h
1g
1r
0h
#930000
0!
0^
1=
#935000
1!
1^
0=
0a
0b
1_
0L
0'
1`
#940000
0!
0^
1=
#945000
1!
1^
0=
1a
1b
0_
1L
1'
0`
1u!
0W!
15!
1/!
0s
1q
0c
0X!
0g
0r
1h
#950000
0!
0^
1=
#955000
1!
1^
0=
0a
0b
1_
0L
0'
1`
#960000
0!
0^
1=
#965000
1!
1^
0=
1a
1b
0_
1L
1'
0`
0t!
0u!
1s!
0a!
0B!
1A!
09!
0/!
1g
1r
0q
1c
0b!
0.!
1i
0h
1B!
0i
1h
0r
1j
0j
#970000
0!
0^
1=
#975000
1!
1^
0=
0a
0b
1_
0L
0'
1`
#980000
0!
0^
1=
#985000
1!
1^
0=
1a
1b
0_
1L
1'
0`
1u!
19!
1,!
1q
0c
1r
#990000
0!
0^
1=
#995000
1!
1^
0=
0a
0b
1_
0L
0'
1`
