Lab10/simulation/qsim/Lab10_2.msim.vcd
$comment
	File created using the following command:
		vcd file Lab10_2.msim.vcd -direction
$end
$date
	Wed May 08 23:14:44 2024
$end
$version
	ModelSim Version 10.1d
$end
$timescale
	1ps
$end
$scope module Lab10_2_vlg_vec_tst $end
$var reg 1 ! CLOCK_50 $end
$var reg 2 " KEY [2:1] $end
$var wire 1 # GPIO_0 [21] $end
$var wire 1 $ GPIO_0 [20] $end
$var wire 1 % GPIO_0 [19] $end
$var wire 1 & GPIO_0 [18] $end
$var wire 1 ' GPIO_0 [17] $end
$var wire 1 ( GPIO_0 [16] $end
$var wire 1 ) GPIO_0 [15] $end
$var wire 1 * GPIO_0 [14] $end
$var wire 1 + GPIO_0 [13] $end
$var wire 1 , GPIO_0 [12] $end
$var wire 1 - GPIO_0 [11] $end
$var wire 1 . GPIO_0 [10] $end
$var wire 1 / GPIO_0 [9] $end
$var wire 1 0 GPIO_1 [21] $end
$var wire 1 1 GPIO_1 [20] $end
$var wire 1 2 GPIO_1 [19] $end
$var wire 1 3 GPIO_1 [18] $end
$var wire 1 4 GPIO_1 [17] $end
$var wire 1 5 GPIO_1 [16] $end
$var wire 1 6 GPIO_1 [15] $end
$var wire 1 7 GPIO_1 [14] $end
$var wire 1 8 GPIO_1 [13] $end
$var wire 1 9 GPIO_1 [12] $end
$var wire 1 : GPIO_1 [11] $end
$var wire 1 ; GPIO_1 [10] $end
$var wire 1 < GPIO_1 [9] $end
$var wire 1 = sampler $end
$scope module i1 $end
$var wire 1 > gnd $end
$var wire 1 ? vcc $end
$var wire 1 @ unknown $end
$var tri1 1 A devclrn $end
$var tri1 1 B devpor $end
$var tri1 1 C devoe $end
$var wire 1 D GPIO_0[9]~output_o $end
$var wire 1 E GPIO_0[10]~output_o $end
$var wire 1 F GPIO_0[11]~output_o $end
$var wire 1 G GPIO_0[12]~output_o $end
$var wire 1 H GPIO_0[13]~output_o $end
$var wire 1 I GPIO_0[14]~output_o $end
$var wire 1 J GPIO_0[15]~output_o $end
$var wire 1 K GPIO_0[16]~output_o $end
$var wire 1 L GPIO_0[17]~output_o $end
$var wire 1 M GPIO_0[18]~output_o $end
$var wire 1 N GPIO_0[19]~output_o $end
$var wire 1 O GPIO_0[20]~output_o $end
$var wire 1 P GPIO_0[21]~output_o $end
$var wire 1 Q GPIO_1[9]~output_o $end
$var wire 1 R GPIO_1[10]~output_o $end
$var wire 1 S GPIO_1[11]~output_o $end
$var wire 1 T GPIO_1[12]~output_o $end
$var wire 1 U GPIO_1[13]~output_o $end
$var wire 1 V GPIO_1[14]~output_o $end
$var wire 1 W GPIO_1[15]~output_o $end
$var wire 1 X GPIO_1[16]~output_o $end
$var wire 1 Y GPIO_1[17]~output_o $end
$var wire 1 Z GPIO_1[18]~output_o $end
$var wire 1 [ GPIO_1[19]~output_o $end
$var wire 1 \ GPIO_1[20]~output_o $end
$var wire 1 ] GPIO_1[21]~output_o $end
$var wire 1 ^ CLOCK_50~input_o $end
$var wire 1 _ CLOCK_50~inputclkctrl_outclk $end
$var wire 1 ` CLK_U1|CLK_out~0_combout $end
$var wire 1 a CLK_U1|CLK_out~q $end
$var wire 1 b CLK_U1|CLK_out~clkctrl_outclk $end
$var wire 1 c COUNTER[0]~5_combout $end
$var wire 1 d ~GND~combout $end
$var wire 1 e KEY[1]~input_o $end
$var wire 1 f KEY[1]~inputclkctrl_outclk $end
$var wire 1 g COUNTER[0]~6 $end
$var wire 1 h COUNTER[1]~7_combout $end
$var wire 1 i COUNTER[1]~8 $end
$var wire 1 j COUNTER[2]~9_combout $end
$var wire 1 k COUNTER[2]~10 $end
$var wire 1 l COUNTER[3]~11_combout $end
$var wire 1 m COUNTER[3]~12 $end
$var wire 1 n COUNTER[4]~13_combout $end
$var wire 1 o LessThan0~0_combout $end
$var wire 1 p Equal1~0_combout $end
$var wire 1 q Selector0~0_combout $end
$var wire 1 r Selector0~1_combout $end
$var wire 1 s Selector0~2_combout $end
$var wire 1 t LCM_RS~q $end
$var wire 1 u Equal1~1_combout $end
$var wire 1 v Equal1~2_combout $end
$var wire 1 w Equal1~3_combout $end
$var wire 1 x KEY[2]~input_o $end
$var wire 1 y LINE1[0][6]~70_combout $end
$var wire 1 z LINE1[7][2]~1_combout $end
$var wire 1 { CLK_U1|count2[0]~0_combout $end
$var wire 1 | CLK_U1|CLK_out2~0_combout $end
$var wire 1 } CLK_U1|CLK_out2~feeder_combout $end
$var wire 1 ~ CLK_U1|CLK_out2~q $end
$var wire 1 !! CLK_U1|CLK_out2~clkctrl_outclk $end
$var wire 1 "! Add1~0_combout $end
$var wire 1 #! LINE1[0][7]~54_combout $end
$var wire 1 $! Add1~1 $end
$var wire 1 %! Add1~2_combout $end
$var wire 1 &! Add1~3 $end
$var wire 1 '! Add1~4_combout $end
$var wire 1 (! Add1~5 $end
$var wire 1 )! Add1~6_combout $end
$var wire 1 *! displayCOUNTER~0_combout $end
$var wire 1 +! Add1~7 $end
$var wire 1 ,! Add1~8_combout $end
$var wire 1 -! displayCOUNTER~1_combout $end
$var wire 1 .! LessThan1~0_combout $end
$var wire 1 /! LINE1[1][2]~15_combout $end
$var wire 1 0! LINE1[7][2]~0_combout $end
$var wire 1 1! LINE1[7][2]~0clkctrl_outclk $end
$var wire 1 2! LINE1[1][2]~_emulated_q $end
$var wire 1 3! LINE1[1][2]~14_combout $end
$var wire 1 4! LINE1[2][2]~13_combout $end
$var wire 1 5! LINE1[2][2]~_emulated_q $end
$var wire 1 6! LINE1[2][2]~12_combout $end
$var wire 1 7! LINE1[3][2]~11_combout $end
$var wire 1 8! LINE1[3][2]~_emulated_q $end
$var wire 1 9! LINE1[3][2]~10_combout $end
$var wire 1 :! LINE1[4][2]~9_combout $end
$var wire 1 ;! LINE1[4][2]~_emulated_q $end
$var wire 1 <! LINE1[4][2]~8_combout $end
$var wire 1 =! LINE1[5][2]~7_combout $end
$var wire 1 >! LINE1[5][2]~_emulated_q $end
$var wire 1 ?! LINE1[5][2]~6_combout $end
$var wire 1 @! LINE1[6][2]~5_combout $end
$var wire 1 A! LINE1[6][2]~_emulated_q $end
$var wire 1 B! LINE1[6][2]~4_combout $end
$var wire 1 C! LINE1[7][2]~3_combout $end
$var wire 1 D! LINE1[7][2]~_emulated_q $end
$var wire 1 E! LINE1[7][2]~2_combout $end
$var wire 1 F! LINE1~60_combout $end
$var wire 1 G! LINE1[0][7]~54clkctrl_outclk $end
$var wire 1 H! LINE1[8][2]~q $end
$var wire 1 I! LINE1~59_combout $end
$var wire 1 J! LINE1[9][2]~q $end
$var wire 1 K! LINE1~58_combout $end
$var wire 1 L! LINE1[10][2]~q $end
$var wire 1 M! LINE1~57_combout $end
$var wire 1 N! LINE1[11][2]~q $end
$var wire 1 O! LINE1~56_combout $end
$var wire 1 P! LINE1[12][2]~q $end
$var wire 1 Q! LINE1~55_combout $end
$var wire 1 R! LINE1[13][2]~q $end
$var wire 1 S! LINE1~53_combout $end
$var wire 1 T! LINE1[14][2]~q $end
$var wire 1 U! LINE1~61_combout $end
$var wire 1 V! LINE1[15][2]~q $end
$var wire 1 W! LINE1[0][2]~17_combout $end
$var wire 1 X! LINE1[0][2]~_emulated_q $end
$var wire 1 Y! LINE1[0][2]~16_combout $end
$var wire 1 Z! Selector6~1_combout $end
$var wire 1 [! Selector6~2_combout $end
$var wire 1 \! Selector6~0_combout $end
$var wire 1 ]! Selector6~9_combout $end
$var wire 1 ^! Selector6~10_combout $end
$var wire 1 _! Selector6~7_combout $end
$var wire 1 `! Selector2~7_combout $end
$var wire 1 a! Selector6~8_combout $end
$var wire 1 b! Selector2~8_combout $end
$var wire 1 c! Selector6~6_combout $end
$var wire 1 d! Selector2~6_combout $end
$var wire 1 e! Selector2~9_combout $end
$var wire 1 f! Selector6~4_combout $end
$var wire 1 g! Selector2~3_combout $end
$var wire 1 h! Selector6~5_combout $end
$var wire 1 i! Selector2~4_combout $end
$var wire 1 j! Selector6~3_combout $end
$var wire 1 k! Selector2~0_combout $end
$var wire 1 l! Selector2~1_combout $end
$var wire 1 m! Selector2~2_combout $end
$var wire 1 n! Selector2~5_combout $end
$var wire 1 o! Selector6~11_combout $end
$var wire 1 p! WideOr4~0_combout $end
$var wire 1 q! LessThan3~0_combout $end
$var wire 1 r! Selector6~13_combout $end
$var wire 1 s! LINE1[7][5]~19_combout $end
$var wire 1 t! LINE1~69_combout $end
$var wire 1 u! LINE1[15][5]~q $end
$var wire 1 v! LINE1~63_combout $end
$var wire 1 w! LINE1[14][5]~q $end
$var wire 1 x! LINE1~62_combout $end
$var wire 1 y! LINE1[13][5]~q $end
$var wire 1 z! LINE1~65_combout $end
$var wire 1 {! LINE1[12][5]~q $end
$var wire 1 |! LINE1~64_combout $end
$var wire 1 }! LINE1[11][5]~q $end
$var wire 1 ~! LINE1~67_combout $end
$var wire 1 !" LINE1[10][5]~q $end
$var wire 1 "" LINE1~66_combout $end
$var wire 1 #" LINE1[9][5]~q $end
$var wire 1 $" LINE1~68_combout $end
$var wire 1 %" LINE1[8][5]~q $end
$var wire 1 &" LINE1[7][5]~21_combout $end
$var wire 1 '" LINE1[7][5]~18_combout $end
$var wire 1 (" LINE1[7][5]~18clkctrl_outclk $end
$var wire 1 )" LINE1[7][5]~_emulated_q $end
$var wire 1 *" LINE1[7][5]~20_combout $end
$var wire 1 +" LINE1[6][5]~23_combout $end
$var wire 1 ," LINE1[6][5]~_emulated_q $end
$var wire 1 -" LINE1[6][5]~22_combout $end
$var wire 1 ." LINE1[5][5]~25_combout $end
$var wire 1 /" LINE1[5][5]~_emulated_q $end
$var wire 1 0" LINE1[5][5]~24_combout $end
$var wire 1 1" LINE1[4][5]~27_combout $end
$var wire 1 2" LINE1[4][5]~_emulated_q $end
$var wire 1 3" LINE1[4][5]~26_combout $end
$var wire 1 4" LINE1[3][5]~29_combout $end
$var wire 1 5" LINE1[3][5]~_emulated_q $end
$var wire 1 6" LINE1[3][5]~28_combout $end
$var wire 1 7" LINE1[2][5]~31_combout $end
$var wire 1 8" LINE1[2][5]~_emulated_q $end
$var wire 1 9" LINE1[2][5]~30_combout $end
$var wire 1 :" LINE1[1][5]~33_combout $end
$var wire 1 ;" LINE1[1][5]~_emulated_q $end
$var wire 1 <" LINE1[1][5]~32_combout $end
$var wire 1 =" LINE1[0][5]~35_combout $end
$var wire 1 >" LINE1[0][5]~_emulated_q $end
$var wire 1 ?" LINE1[0][5]~34_combout $end
$var wire 1 @" Selector3~5_combout $end
$var wire 1 A" Selector6~12_combout $end
$var wire 1 B" Selector3~1_combout $end
$var wire 1 C" Selector3~0_combout $end
$var wire 1 D" Selector3~2_combout $end
$var wire 1 E" Selector3~3_combout $end
$var wire 1 F" Selector3~4_combout $end
$var wire 1 G" Selector3~6_combout $end
$var wire 1 H" Selector6~14_combout $end
$var wire 1 I" Selector3~8_combout $end
$var wire 1 J" Selector3~7_combout $end
$var wire 1 K" Selector3~9_combout $end
$var wire 1 L" Selector3~10_combout $end
$var wire 1 M" Selector3~11_combout $end
$var wire 1 N" Selector2~10_combout $end
$var wire 1 O" Equal1~4_combout $end
$var wire 1 P" CLK_U1|count2 [1] $end
$var wire 1 Q" CLK_U1|count2 [0] $end
$var wire 1 R" LCM_DB [7] $end
$var wire 1 S" LCM_DB [6] $end
$var wire 1 T" LCM_DB [5] $end
$var wire 1 U" LCM_DB [4] $end
$var wire 1 V" LCM_DB [3] $end
$var wire 1 W" LCM_DB [2] $end
$var wire 1 X" LCM_DB [1] $end
$var wire 1 Y" LCM_DB [0] $end
$var wire 1 Z" COUNTER [4] $end
$var wire 1 [" COUNTER [3] $end
$var wire 1 \" COUNTER [2] $end
$var wire 1 ]" COUNTER [1] $end
$var wire 1 ^" COUNTER [0] $end
$var wire 1 _" displayCOUNTER [4] $end
$var wire 1 `" displayCOUNTER [3] $end
$var wire 1 a" displayCOUNTER [2] $end
$var wire 1 b" displayCOUNTER [1] $end
$var wire 1 c" displayCOUNTER [0] $end
$upscope $end
$upscope $end
$enddefinitions $end
#0
$dumpvars
0!
b10 "
0/
0.
0-
0,
0+
0*
0)
0(
0'
0&
0%
0$
0#
0<
0;
0:
09
08
07
06
05
04
03
12
01
00
x=
0>
1?
x@
1A
1B
1C
0D
0E
0F
0G
0H
0I
0J
0K
0L
0M
0N
0O
0P
0Q
0R
0S
0T
0U
0V
0W
0X
0Y
0Z
1[
0\
0]
0^
0_
1`
0a
0b
1c
0d
0e
0f
0g
0h
1i
0j
0k
0l
1m
0n
0o
0p
0q
0r
0s
0t
0u
0v
0w
1x
0y
0z
1{
0|
0}
0~
0!!
1"!
1#!
0$!
0%!
1&!
0'!
0(!
0)!
1*!
1+!
0,!
0-!
0.!
0/!
10!
11!
02!
03!
04!
05!
06!
07!
08!
09!
0:!
0;!
0<!
0=!
0>!
0?!
0@!
0A!
0B!
0C!
0D!
0E!
0F!
1G!
0H!
0I!
0J!
0K!
0L!
0M!
0N!
0O!
0P!
0Q!
0R!
0S!
0T!
0U!
0V!
0W!
0X!
0Y!
0Z!
0[!
0\!
0]!
0^!
0_!
1`!
0a!
0b!
0c!
1d!
1e!
0f!
0g!
0h!
0i!
0j!
0k!
0l!
0m!
1n!
0o!
1p!
1q!
0r!
1s!
0t!
0u!
0v!
0w!
0x!
0y!
0z!
0{!
0|!
0}!
0~!
0!"
0""
0#"
0$"
0%"
0&"
1'"
1("
0)"
1*"
0+"
0,"
1-"
0."
0/"
10"
01"
02"
13"
04"
05"
16"
07"
08"
19"
0:"
0;"
1<"
0="
0>"
1?"
0@"
0A"
0B"
0C"
0D"
0E"
0F"
0G"
1H"
1I"
0J"
0K"
1L"
1M"
0N"
0O"
0Q"
zP"
0Y"
0X"
0W"
0V"
0U"
0T"
0S"
0R"
0^"
0]"
0\"
0["
0Z"
0c"
0b"
0a"
0`"
0_"
$end
#5000
1!
1^
1_
0=
1Q"
1a
1b
1|
0{
0`
1L
1'
1}
#10000
b11 "
0!
1e
0^
1f
0_
1=
0'"
00!
0#!
0("
01!
0G!
#15000
1!
1^
1_
0=
1~
0Q"
1!!
0a
0b
1{
1`
0L
0'
1V"
1U"
1T"
1S
1U
1V
1:
18
17
#20000
0!
0^
0_
1=
#25000
1!
1^
1_
0=
1Q"
1a
1b
0|
0{
0`
1L
1'
0}
1^"
1g
0c
1h
#30000
0!
0^
0_
1=
#35000
1!
1^
1_
0=
0~
0Q"
0!!
0a
0b
1{
1`
0L
0'
1c"
1$!
0"!
1%!
#40000
0!
0^
0_
1=
#45000
1!
1^
1_
0=
1Q"
1a
1b
1|
0{
0`
1L
1'
1}
0^"
1]"
0g
1c
0H"
1r!
0i
0h
1i
1h
0I"
1@"
1j
0j
0L"
#50000
0!
0^
0_
1=
#55000
1!
1^
1_
0=
1~
0Q"
1!!
0a
0b
1{
1`
0L
0'
#60000
0!
0^
0_
1=
#65000
1!
1^
1_
0=
1Q"
1a
1b
0|
0{
0`
1L
1'
0}
1^"
1g
0c
0i
0h
1j
#70000
0!
0^
0_
1=
#75000
1!
1^
1_
0=
0~
0Q"
0!!
0a
0b
1{
1`
0L
0'
0c"
1b"
0$!
1"!
0&!
0%!
1&!
1%!
1'!
0'!
#80000
0!
0^
0_
1=
#85000
1!
1^
1_
0=
1Q"
1a
1b
1|
0{
0`
1L
1'
1}
0^"
1\"
0]"
0g
1c
0r!
0q!
1q
1k
0j
1i
1h
0h
0@"
1r
1l
0k
1j
0M"
0l
#90000
0!
0^
0_
1=
#95000
1!
1^
1_
0=
1~
0Q"
1!!
0a
0b
1{
1`
0L
0'
0U"
0T"
0U
0V
08
07
#100000
0!
0^
0_
1=
#105000
1!
1^
1_
0=
1Q"
1a
1b
0|
0{
0`
1L
1'
0}
1^"
0p!
1u
1g
0c
1v
1h
#110000
0!
0^
0_
1=
#115000
1!
1^
1_
0=
0~
0Q"
0!!
0a
0b
1{
1`
0L
0'
1c"
1Y"
0V"
1$!
0"!
1N
0S
1%
0:
0&!
0%!
1'!
#120000
0!
0^
0_
1=
#125000
1!
1^
1_
0=
1Q"
1a
1b
1|
0{
0`
1L
1'
1}
0^"
1]"
1p!
0u
0g
1c
1\!
1w
0v
0i
0h
0w
1i
1h
1o!
1k
0j
0k
1j
1l
0l
#130000
0!
0^
0_
1=
#135000
1!
1^
1_
0=
1~
0Q"
1!!
0a
0b
1{
1`
0L
0'
0Y"
1W"
1V"
0N
1Q
1S
0%
1<
1:
#140000
0!
0^
0_
1=
#145000
1!
1^
1_
0=
1Q"
1a
1b
0|
0{
0`
1L
1'
0}
1^"
0p!
1u
1g
0c
1w
0i
0h
1k
0j
1l
#150000
0!
0^
0_
1=
#155000
1!
1^
1_
0=
0~
0Q"
0!!
0a
0b
1{
1`
0L
0'
0c"
0b"
1a"
1X"
0V"
0$!
1"!
1&!
1%!
1(!
0'!
1P
0S
1#
0:
0%!
0(!
1'!
1)!
0)!
#160000
0!
0^
0_
1=
#165000
1!
1^
1_
0=
1Q"
1a
1b
1|
0{
0`
1L
1'
1}
0^"
1["
0\"
0]"
0u
0g
1c
0\!
1Z!
0q
1p
0m
0l
0k
1j
0w
1v
1i
1h
0v
0h
0o!
0r
1O"
1n
1m
1l
0j
0n
#170000
0!
0^
0_
1=
#175000
1!
1^
1_
0=
1~
0Q"
1!!
0a
0b
1{
1`
0L
0'
0X"
0W"
1R"
0P
0Q
1Y
0#
0<
14
#180000
0!
0^
0_
1=
#185000
1!
1^
1_
0=
1Q"
1a
1b
0|
0{
0`
1L
1'
0}
1^"
0O"
1@"
1s
1g
0c
1M"
1h
#190000
0!
0^
0_
1=
#195000
1!
1^
1_
0=
0~
0Q"
0!!
0a
0b
1{
1`
0L
0'
1c"
1t
1T"
0R"
1$!
0"!
1I
1V
0Y
1*
17
04
1%!
#200000
0!
0^
0_
1=
#205000
1!
1^
1_
0=
1Q"
1a
1b
1|
0{
0`
1L
1'
1}
0^"
1]"
1O"
0@"
0s
0g
1c
1_!
0Z!
1q
0p
0i
0h
0M"
1i
1h
1K"
1r
0O"
1j
0j
1L"
1s
1M"
#210000
0!
0^
0_
1=
#215000
1!
1^
1_
0=
1~
0Q"
1!!
0a
0b
1{
1`
0L
0'
#220000
0!
0^
0_
1=
#225000
1!
1^
1_
0=
1Q"
1a
1b
0|
0{
0`
1L
1'
0}
1^"
1g
0c
0i
0h
1j
#230000
0!
0^
0_
1=
#235000
1!
1^
1_
0=
0~
0Q"
0!!
0a
0b
1{
1`
0L
0'
0c"
1b"
0$!
1"!
0&!
0%!
1&!
1%!
1(!
0'!
0(!
1'!
1)!
0)!
#240000
0!
0^
0_
1=
#245000
1!
1^
1_
0=
1Q"
1a
1b
1|
0{
0`
1L
1'
1}
0^"
1\"
0]"
0g
1c
1c!
0_!
1k
0j
1i
1h
0h
1J"
0K"
0m
0l
0k
1j
1n
1m
1l
0n
#250000
0!
0^
0_
1=
#255000
1!
1^
1_
0=
1~
0Q"
1!!
0a
0b
1{
1`
0L
0'
#260000
0!
0^
0_
1=
#265000
1!
1^
1_
0=
1Q"
1a
1b
0|
0{
0`
1L
1'
0}
1^"
1g
0c
1h
#270000
0!
0^
0_
1=
#275000
1!
1^
1_
0=
0~
0Q"
0!!
0a
0b
1{
1`
0L
0'
1c"
1$!
0"!
0&!
0%!
1(!
0'!
1)!
#280000
0!
0^
0_
1=
#285000
1!
1^
1_
0=
1Q"
1a
1b
1|
0{
0`
1L
1'
1}
0^"
1]"
0g
1c
0c!
1a!
0i
0h
1i
1h
0J"
1G"
1k
0j
0k
1j
0m
0l
1m
1l
1n
0n
#290000
0!
0^
0_
1=
#295000
1!
1^
1_
0=
1~
0Q"
1!!
0a
0b
1{
1`
0L
0'
#300000
0!
0^
0_
1=
#305000
1!
1^
1_
0=
1Q"
1a
1b
0|
0{
0`
1L
1'
0}
1^"
1g
0c
0i
0h
1k
0j
0m
0l
1n
#310000
0!
0^
0_
1=
#315000
1!
1^
1_
0=
0~
0Q"
0!!
0a
0b
1{
1`
0L
0'
0c"
0b"
0a"
1`"
0$!
1"!
1&!
1%!
0(!
1'!
1.!
0+!
0)!
0%!
0'!
1+!
1)!
1,!
0,!
1-!
0-!
#320000
0!
0^
0_
1=
#325000
1!
1^
1_
0=
1Q"
1a
1b
1|
0{
0`
1L
1'
1}
0^"
1Z"
0["
0\"
0]"
0g
1c
1h!
0a!
0n
0q
1m
1l
0k
1j
1i
1h
0h
1E"
0G"
1n
0l
0j
1F"
0L"
#330000
0!
0^
0_
1=
#335000
1!
1^
1_
0=
1~
0Q"
1!!
0a
0b
1{
1`
0L
0'
#340000
0!
0^
0_
1=
#345000
1!
1^
1_
0=
1Q"
1a
1b
0|
0{
0`
1L
1'
0}
1^"
1g
0c
1h
#350000
0!
0^
0_
1=
#355000
1!
1^
1_
0=
0~
0Q"
0!!
0a
0b
1{
1`
0L
0'
1c"
1$!
0"!
1%!
#360000
0!
0^
0_
1=
#365000
1!
1^
1_
0=
1Q"
1a
1b
1|
0{
0`
1L
1'
1}
0^"
1]"
0g
1c
0h!
1f!
0i
0h
1i
1h
0E"
1D"
1j
0j
#370000
0!
0^
0_
1=
#375000
1!
1^
1_
0=
1~
0Q"
1!!
0a
0b
1{
1`
0L
0'
#380000
0!
0^
0_
1=
#385000
1!
1^
1_
0=
1Q"
1a
1b
0|
0{
0`
1L
1'
0}
1^"
1g
0c
0i
0h
1j
#390000
0!
0^
0_
1=
#395000
1!
1^
1_
0=
0~
0Q"
0!!
0a
0b
1{
1`
0L
0'
0c"
1b"
0$!
1"!
0&!
0%!
1&!
1%!
1'!
0'!
#400000
0!
0^
0_
1=
#405000
1!
1^
1_
0=
1Q"
1a
1b
1|
0{
0`
1L
1'
1}
0^"
1\"
0]"
0g
1c
1A"
0f!
1q
1k
0j
1i
1h
0h
1B"
0D"
1l
0k
1j
0l
#410000
0!
0^
0_
1=
#415000
1!
1^
1_
0=
1~
0Q"
1!!
0a
0b
1{
1`
0L
0'
#420000
0!
0^
0_
1=
#425000
1!
1^
1_
0=
1Q"
1a
1b
0|
0{
0`
1L
1'
0}
1^"
1g
0c
1h
#430000
0!
0^
0_
1=
#435000
1!
1^
1_
0=
0~
0Q"
0!!
0a
0b
1{
1`
0L
0'
1c"
1$!
0"!
0&!
0%!
1'!
#440000
0!
0^
0_
1=
#445000
1!
1^
1_
0=
1Q"
1a
1b
1|
0{
0`
1L
1'
1}
0^"
1]"
0g
1c
0A"
1j!
0i
0h
1i
1h
0B"
1C"
1k
0j
0k
1j
1l
0l
#450000
0!
0^
0_
1=
#455000
1!
1^
1_
0=
1~
0Q"
1!!
0a
0b
1{
1`
0L
0'
#460000
0!
0^
0_
1=
#465000
1!
1^
1_
0=
1Q"
1a
1b
0|
0{
0`
1L
1'
0}
1^"
1g
0c
0i
0h
1k
0j
1l
#470000
0!
0^
0_
1=
#475000
1!
1^
1_
0=
0~
0Q"
0!!
0a
0b
1{
1`
0L
0'
0c"
0b"
1a"
0$!
1"!
1&!
1%!
1(!
0'!
0%!
0(!
1'!
0+!
0)!
1+!
1)!
1,!
0,!
1-!
0-!
#480000
0!
0^
0_
1=
#485000
1!
1^
1_
0=
1Q"
1a
1b
1|
0{
0`
1L
1'
1}
0^"
1["
0\"
0]"
0r
0g
1c
0j!
1]!
0q
1o
0m
0l
0k
1j
1i
1h
0s
0h
0C"
1I"
1r
0n
1m
1l
0j
0F"
1L"
1s
1n
#490000
0!
0^
0_
1=
#495000
1!
1^
1_
0=
1~
0Q"
1!!
0a
0b
1{
1`
0L
0'
#500000
0!
0^
0_
1=
#505000
1!
1^
1_
0=
1Q"
1a
1b
0|
0{
0`
1L
1'
0}
0Z"
0]!
1Z!
0r
1p
0o
0n
0I"
0s
1O"
0L"
0M"
#510000
0!
0^
0_
1=
#515000
1!
1^
1_
0=
0~
0Q"
0!!
0a
0b
1{
1`
0L
0'
1c"
0t
0T"
1R"
1$!
0"!
0I
0V
1Y
0*
07
14
1%!
#520000
0!
0^
0_
1=
#525000
1!
1^
1_
0=
1Q"
1a
1b
1|
0{
0`
1L
1'
1}
1^"
0O"
1@"
1s
1g
0c
1M"
1h
#530000
0!
0^
0_
1=
#535000
1!
1^
1_
0=
1~
0Q"
1!!
0a
0b
1{
1`
0L
0'
1t
1T"
0R"
1I
1V
0Y
1*
17
04
#540000
b1 "
0!
0x
0^
0_
1=
1#!
1y
1G!
0?"
0<"
09"
06"
03"
00"
0-"
0*"
1'"
0s!
1Y!
1E!
1B!
1?!
1<!
19!
16!
13!
10!
1z
1("
11!
0@"
1t!
1&"
1[!
1U!
1C!
0M"
1N"
1o!
#545000
1!
1^
1_
0=
1Q"
1a
1b
0|
0{
0`
1L
1'
0}
0^"
1]"
1O"
0[!
0s
0g
1c
1_!
0Z!
1q
0p
0i
0h
0N"
0o!
1i
1h
0`!
1r
0O"
1j
0j
0e!
1s
1N"
1o!
#550000
b11 "
0!
1x
0^
0_
1=
0#!
0y
0G!
0'"
00!
0("
01!
#555000
1!
1^
1_
0=
0~
0Q"
0!!
0a
0b
1{
1`
0L
0'
0c"
1b"
1D!
1V!
1u!
1)"
1W"
0T"
1S"
0$!
1"!
0*!
0&!
0%!
0E!
1S!
1v!
1*"
1Q
0V
1W
1<
07
16
1&!
1%!
1(!
0'!
1@!
1+"
0(!
1'!
0+!
0)!
1+!
1)!
1,!
0,!
1-!
0-!
#560000
0!
0^
0_
1=
#565000
1!
1^
1_
0=
1Q"
1a
1b
1|
0{
0`
1L
1'
1}
1^"
1g
0c
0i
0h
1j
#570000
0!
0^
0_
1=
#575000
1!
1^
1_
0=
1~
0Q"
1!!
0a
0b
1{
1`
0L
0'
#580000
0!
0^
0_
1=
#585000
1!
1^
1_
0=
1Q"
1a
1b
0|
0{
0`
1L
1'
0}
0^"
1\"
0]"
0g
1c
1c!
0_!
1k
0j
1i
1h
0h
0d!
1`!
0m
0l
0k
1j
1n
1m
1l
0n
#590000
0!
0^
0_
1=
#595000
1!
1^
1_
0=
0~
0Q"
0!!
0a
0b
1{
1`
0L
0'
1c"
1A!
1T!
1w!
1,"
1$!
0"!
0B!
1Q!
1x!
1-"
0&!
0%!
1=!
1."
1(!
0'!
0+!
0)!
1,!
#600000
0!
0^
0_
1=
#605000
1!
1^
1_
0=
1Q"
1a
1b
1|
0{
0`
1L
1'
1}
1^"
1g
0c
1h
#610000
0!
0^
0_
1=
#615000
1!
1^
1_
0=
1~
0Q"
1!!
0a
0b
1{
1`
0L
0'
#620000
0!
0^
0_
1=
#625000
1!
1^
1_
0=
1Q"
1a
1b
0|
0{
0`
1L
1'
0}
0^"
1]"
0g
1c
0c!
1a!
0i
0h
1i
1h
1d!
1b!
1k
0j
0k
1j
0m
0l
1m
1l
1n
0n
#630000
0!
0^
0_
1=
#635000
1!
1^
1_
0=
0~
0Q"
0!!
0a
0b
1{
1`
0L
0'
0c"
0b"
0a"
0`"
1>!
1R!
1y!
1/"
1-!
0$!
1"!
1*!
1&!
1%!
0(!
1'!
0x!
0Q!
0.!
1+!
1)!
0?!
10"
0%!
0'!
0)!
0."
0=!
0,!
0b!
1G"
0-!
1e!
1L"
0N"
0o!
1M"
#640000
0!
0^
0_
1=
#645000
1!
1^
1_
0=
1Q"
1a
1b
1|
0{
0`
1L
1'
1}
1^"
1g
0c
0i
0h
1k
0j
0m
0l
1n
#650000
0!
0^
0_
1=
#655000
1!
1^
1_
0=
1~
0Q"
1!!
0a
0b
1{
1`
0L
0'
0W"
1T"
0S"
0Q
1V
0W
0<
17
06
#660000
0!
0^
0_
1=
#665000
1!
1^
1_
0=
1Q"
1a
1b
0|
0{
0`
1L
1'
0}
0^"
1Z"
0["
0\"
0]"
0g
1c
1h!
0a!
0n
0q
1m
1l
0k
1j
1i
1h
0h
1E"
0G"
1n
0l
0j
1F"
0L"
#670000
0!
0^
0_
1=
#675000
1!
1^
1_
0=
0~
0Q"
0!!
0a
0b
1{
1`
0L
0'
1c"
0>!
0R!
0y!
0/"
1$!
0"!
1?!
0S!
0v!
00"
1%!
0@!
0+"
#680000
0!
0^
0_
1=
#685000
1!
1^
1_
0=
1Q"
1a
1b
1|
0{
0`
1L
1'
1}
1^"
1g
0c
1h
#690000
0!
0^
0_
1=
#695000
1!
1^
1_
0=
1~
0Q"
1!!
0a
0b
1{
1`
0L
0'
#700000
0!
0^
0_
1=
#705000
1!
1^
1_
0=
1Q"
1a
1b
0|
0{
0`
1L
1'
0}
0^"
1]"
0g
1c
0h!
1f!
0i
0h
1i
1h
0E"
1D"
1j
0j
#710000
0!
0^
0_
1=
#715000
1!
1^
1_
0=
0~
0Q"
0!!
0a
0b
1{
1`
0L
0'
0c"
1b"
0A!
0T!
0w!
0,"
0$!
1"!
0&!
0%!
1B!
0U!
0t!
0-"
1&!
1%!
1'!
0C!
0&"
0'!
#720000
0!
0^
0_
1=
#725000
1!
1^
1_
0=
1Q"
1a
1b
1|
0{
0`
1L
1'
1}
1^"
1g
0c
0i
0h
1j
#730000
0!
0^
0_
1=
#735000
1!
1^
1_
0=
1~
0Q"
1!!
0a
0b
1{
1`
0L
0'
#740000
0!
0^
0_
1=
#745000
1!
1^
1_
0=
1Q"
1a
1b
0|
0{
0`
1L
1'
0}
0^"
1\"
0]"
0g
1c
1A"
0f!
1q
1k
0j
1i
1h
0h
1B"
0D"
1l
0k
1j
0l
#750000
0!
0^
0_
1=
#755000
1!
1^
1_
0=
0~
0Q"
0!!
0a
0b
1{
1`
0L
0'
1c"
0D!
0V!
0u!
0)"
1$!
0"!
1E!
1W!
1="
0*"
0&!
0%!
1F!
1$"
1'!
#760000
0!
0^
0_
1=
#765000
1!
1^
1_
0=
1Q"
1a
1b
1|
0{
0`
1L
1'
1}
1^"
1g
0c
1h
#770000
0!
0^
0_
1=
