Lab2/simulation/qsim/Lab2_1.msim.vcd
$comment
	File created using the following command:
		vcd file Lab2_1.msim.vcd -direction
$end
$date
	Thu Feb 29 10:58:18 2024
$end
$version
	ModelSim Version 10.1d
$end
$timescale
	1ps
$end
$scope module Lab2_1_vlg_vec_tst $end
$var reg 4 ! switch [3:0] $end
$var wire 1 " sevensegement [0] $end
$var wire 1 # sevensegement [1] $end
$var wire 1 $ sevensegement [2] $end
$var wire 1 % sevensegement [3] $end
$var wire 1 & sevensegement [4] $end
$var wire 1 ' sevensegement [5] $end
$var wire 1 ( sevensegement [6] $end
$var wire 1 ) sampler $end
$scope module i1 $end
$var wire 1 * gnd $end
$var wire 1 + vcc $end
$var wire 1 , unknown $end
$var tri1 1 - devclrn $end
$var tri1 1 . devpor $end
$var tri1 1 / devoe $end
$var wire 1 0 sevensegement[6]~output_o $end
$var wire 1 1 sevensegement[5]~output_o $end
$var wire 1 2 sevensegement[4]~output_o $end
$var wire 1 3 sevensegement[3]~output_o $end
$var wire 1 4 sevensegement[2]~output_o $end
$var wire 1 5 sevensegement[1]~output_o $end
$var wire 1 6 sevensegement[0]~output_o $end
$var wire 1 7 switch[3]~input_o $end
$var wire 1 8 switch[0]~input_o $end
$var wire 1 9 switch[1]~input_o $end
$var wire 1 : switch[2]~input_o $end
$var wire 1 ; Mux6~0_combout $end
$var wire 1 < Mux5~0_combout $end
$var wire 1 = Mux4~0_combout $end
$var wire 1 > Mux3~0_combout $end
$var wire 1 ? Mux2~0_combout $end
$var wire 1 @ Mux1~0_combout $end
$var wire 1 A Mux0~0_combout $end
$upscope $end
$upscope $end
$enddefinitions $end
#0
$dumpvars
b0 !
1(
0'
0&
0%
0$
0#
0"
x)
0*
1+
x,
1-
1.
1/
10
01
02
03
04
05
06
07
08
09
0:
0;
0<
0=
0>
0?
0@
0A
$end
#10000
b1 !
18
0)
1A
1>
1=
1<
16
13
12
11
1"
1%
1&
1'
#20000
b11 !
b10 !
08
19
1)
1;
0A
1?
0>
0=
00
06
14
03
02
0(
0"
1$
0%
0&
#30000
b11 !
18
0)
0?
1=
04
12
0$
1&
#40000
b111 !
b101 !
b100 !
08
09
1:
1)
1A
1>
0<
16
13
01
1"
1%
0'
#50000
b101 !
18
0)
0A
1@
0>
06
15
03
0"
1#
0%
#60000
b111 !
b110 !
08
19
1)
0=
02
0&
#70000
b111 !
18
0)
0;
0@
1>
1=
1<
10
05
13
12
11
1(
0#
1%
1&
1'
#80000
b1111 !
b1011 !
b1001 !
b1000 !
08
09
0:
17
1)
1;
0>
0=
0<
00
03
02
01
0(
0%
0&
0'
#90000
b1001 !
18
0)
1>
1=
13
12
1%
1&
#100000
b1011 !
b1010 !
08
19
1)
0=
02
0&
#110000
b1011 !
18
0)
1A
1@
0>
16
15
03
1"
1#
0%
#120000
b1111 !
b1101 !
b1100 !
08
09
1:
1)
0;
0A
1?
10
06
14
1(
0"
1$
#130000
b1101 !
18
0)
1;
1A
0@
0?
1<
00
16
05
04
11
0(
1"
0#
0$
1'
#140000
b1111 !
b1110 !
08
19
1)
0A
1@
1?
0<
06
15
14
01
0"
1#
1$
0'
#150000
b1111 !
18
0)
1>
13
1%
#160000
b111 !
b11 !
b1 !
b0 !
08
09
0:
07
1)
0;
0@
0?
0>
10
05
04
03
1(
0#
0$
0%
#170000
b1 !
18
0)
1A
1>
1=
1<
16
13
12
11
1"
1%
1&
1'
#180000
b11 !
b10 !
08
19
1)
1;
0A
1?
0>
0=
00
06
14
03
02
0(
0"
1$
0%
0&
#190000
b11 !
18
0)
0?
1=
04
12
0$
1&
#200000
b111 !
b101 !
b100 !
08
09
1:
1)
1A
1>
0<
16
13
01
1"
1%
0'
#210000
b101 !
18
0)
0A
1@
0>
06
15
03
0"
1#
0%
#220000
b111 !
b110 !
08
19
1)
0=
02
0&
#230000
b111 !
18
0)
0;
0@
1>
1=
1<
10
05
13
12
11
1(
0#
1%
1&
1'
#240000
b1111 !
b1011 !
b1001 !
b1000 !
08
09
0:
17
1)
1;
0>
0=
0<
00
03
02
01
0(
0%
0&
0'
#250000
b1001 !
18
0)
1>
1=
13
12
1%
1&
#260000
b1011 !
b1010 !
08
19
1)
0=
02
0&
#270000
b1011 !
18
0)
1A
1@
0>
16
15
03
1"
1#
0%
#280000
b1111 !
b1101 !
b1100 !
08
09
1:
1)
0;
0A
1?
10
06
14
1(
0"
1$
#290000
b1101 !
18
0)
1;
1A
0@
0?
1<
00
16
05
04
11
0(
1"
0#
0$
1'
#300000
b1111 !
b1110 !
08
19
1)
0A
1@
1?
0<
06
15
14
01
0"
1#
1$
0'
#310000
b1111 !
18
0)
1>
13
1%
#320000
b111 !
b11 !
b1 !
b0 !
08
09
0:
07
1)
0;
0@
0?
0>
10
05
04
03
1(
0#
0$
0%
#330000
b1 !
18
0)
1A
1>
1=
1<
16
13
12
11
1"
1%
1&
1'
#340000
b11 !
b10 !
08
19
1)
1;
0A
1?
0>
0=
00
06
14
03
02
0(
0"
1$
0%
0&
#350000
b11 !
18
0)
0?
1=
04
12
0$
1&
#360000
b111 !
b101 !
b100 !
08
09
1:
1)
1A
1>
0<
16
13
01
1"
1%
0'
#370000
b101 !
18
0)
0A
1@
0>
06
15
03
0"
1#
0%
#380000
b111 !
b110 !
08
19
1)
0=
02
0&
#390000
b111 !
18
0)
0;
0@
1>
1=
1<
10
05
13
12
11
1(
0#
1%
1&
1'
#400000
b1111 !
b1011 !
b1001 !
b1000 !
08
09
0:
17
1)
1;
0>
0=
0<
00
03
02
01
0(
0%
0&
0'
#410000
b1001 !
18
0)
1>
1=
13
12
1%
1&
#420000
b1011 !
b1010 !
08
19
1)
0=
02
0&
#430000
b1011 !
18
0)
1A
1@
0>
16
15
03
1"
1#
0%
#440000
b1111 !
b1101 !
b1100 !
08
09
1:
1)
0;
0A
1?
10
06
14
1(
0"
1$
#450000
b1101 !
18
0)
1;
1A
0@
0?
1<
00
16
05
04
11
0(
1"
0#
0$
1'
#460000
b1111 !
b1110 !
08
19
1)
0A
1@
1?
0<
06
15
14
01
0"
1#
1$
0'
#470000
b1111 !
18
0)
1>
13
1%
#480000
b111 !
b11 !
b1 !
b0 !
08
09
0:
07
1)
0;
0@
0?
0>
10
05
04
03
1(
0#
0$
0%
#490000
b1 !
18
0)
1A
1>
1=
1<
16
13
12
11
1"
1%
1&
1'
#500000
b11 !
b10 !
08
19
1)
1;
0A
1?
0>
0=
00
06
14
03
02
0(
0"
1$
0%
0&
#510000
b11 !
18
0)
0?
1=
04
12
0$
1&
#520000
b111 !
b101 !
b100 !
08
09
1:
1)
1A
1>
0<
16
13
01
1"
1%
0'
#530000
b101 !
18
0)
0A
1@
0>
06
15
03
0"
1#
0%
#540000
b111 !
b110 !
08
19
1)
0=
02
0&
#550000
b111 !
18
0)
0;
0@
1>
1=
1<
10
05
13
12
11
1(
0#
1%
1&
1'
#560000
b1111 !
b1011 !
b1001 !
b1000 !
08
09
0:
17
1)
1;
0>
0=
0<
00
03
02
01
0(
0%
0&
0'
#570000
b1001 !
18
0)
1>
1=
13
12
1%
1&
#580000
b1011 !
b1010 !
08
19
1)
0=
02
0&
#590000
b1011 !
18
0)
1A
1@
0>
16
15
03
1"
1#
0%
#600000
b1111 !
b1101 !
b1100 !
08
09
1:
1)
0;
0A
1?
10
06
14
1(
0"
1$
#610000
b1101 !
18
0)
1;
1A
0@
0?
1<
00
16
05
04
11
0(
1"
0#
0$
1'
#620000
b1111 !
b1110 !
08
19
1)
0A
1@
1?
0<
06
15
14
01
0"
1#
1$
0'
#630000
b1111 !
18
0)
1>
13
1%
#640000
b111 !
b11 !
b1 !
b0 !
08
09
0:
07
1)
0;
0@
0?
0>
10
05
04
03
1(
0#
0$
0%
#650000
b1 !
18
0)
1A
1>
1=
1<
16
13
12
11
1"
1%
1&
1'
#660000
b11 !
b10 !
08
19
1)
1;
0A
1?
0>
0=
00
06
14
03
02
0(
0"
1$
0%
0&
#670000
b11 !
18
0)
0?
1=
04
12
0$
1&
#680000
b111 !
b101 !
b100 !
08
09
1:
1)
1A
1>
0<
16
13
01
1"
1%
0'
#690000
b101 !
18
0)
0A
1@
0>
06
15
03
0"
1#
0%
#700000
b111 !
b110 !
08
19
1)
0=
02
0&
#710000
b111 !
18
0)
0;
0@
1>
1=
1<
10
05
13
12
11
1(
0#
1%
1&
1'
#720000
b1111 !
b1011 !
b1001 !
b1000 !
08
09
0:
17
1)
1;
0>
0=
0<
00
03
02
01
0(
0%
0&
0'
#730000
b1001 !
18
0)
1>
1=
13
12
1%
1&
#740000
b1011 !
b1010 !
08
19
1)
0=
02
0&
#750000
b1011 !
18
0)
1A
1@
0>
16
15
03
1"
1#
0%
#760000
b1111 !
b1101 !
b1100 !
08
09
1:
1)
0;
0A
1?
10
06
14
1(
0"
1$
#770000
b1101 !
18
0)
1;
1A
0@
0?
1<
00
16
05
04
11
0(
1"
0#
0$
1'
#780000
b1111 !
b1110 !
08
19
1)
0A
1@
1?
0<
06
15
14
01
0"
1#
1$
0'
#790000
b1111 !
18
0)
1>
13
1%
#800000
b111 !
b11 !
b1 !
b0 !
08
09
0:
07
1)
0;
0@
0?
0>
10
05
04
03
1(
0#
0$
0%
#810000
b1 !
18
0)
1A
1>
1=
1<
16
13
12
11
1"
1%
1&
1'
#820000
b11 !
b10 !
08
19
1)
1;
0A
1?
0>
0=
00
06
14
03
02
0(
0"
1$
0%
0&
#830000
b11 !
18
0)
0?
1=
04
12
0$
1&
#840000
b111 !
b101 !
b100 !
08
09
1:
1)
1A
1>
0<
16
13
01
1"
1%
0'
#850000
b101 !
18
0)
0A
1@
0>
06
15
03
0"
1#
0%
#860000
b111 !
b110 !
08
19
1)
0=
02
0&
#870000
b111 !
18
0)
0;
0@
1>
1=
1<
10
05
13
12
11
1(
0#
1%
1&
1'
#880000
b1111 !
b1011 !
b1001 !
b1000 !
08
09
0:
17
1)
1;
0>
0=
0<
00
03
02
01
0(
0%
0&
0'
#890000
b1001 !
18
0)
1>
1=
13
12
1%
1&
#900000
b1011 !
b1010 !
08
19
1)
0=
02
0&
#910000
b1011 !
18
0)
1A
1@
0>
16
15
03
1"
1#
0%
#920000
b1111 !
b1101 !
b1100 !
08
09
1:
1)
0;
0A
1?
10
06
14
1(
0"
1$
#930000
b1101 !
18
0)
1;
1A
0@
0?
1<
00
16
05
04
11
0(
1"
0#
0$
1'
#940000
b1111 !
b1110 !
08
19
1)
0A
1@
1?
0<
06
15
14
01
0"
1#
1$
0'
#950000
b1111 !
18
0)
1>
13
1%
#960000
b111 !
b11 !
b1 !
b0 !
08
09
0:
07
1)
0;
0@
0?
0>
10
05
04
03
1(
0#
0$
0%
#970000
b1 !
18
0)
1A
1>
1=
1<
16
13
12
11
1"
1%
1&
1'
#980000
b11 !
b10 !
08
19
1)
1;
0A
1?
0>
0=
00
06
14
03
02
0(
0"
1$
0%
0&
#990000
b11 !
18
0)
0?
1=
04
12
0$
1&
