Lab2/simulation/qsim/Lab2_1_1.msim.vcd
$comment
	File created using the following command:
		vcd file Lab2_1_1.msim.vcd -direction
$end
$date
	Thu Feb 29 12:58:50 2024
$end
$version
	ModelSim Version 10.1d
$end
$timescale
	1ps
$end
$scope module Lab2_1_1_vlg_vec_tst $end
$var reg 4 ! switch [3:0] $end
$var wire 1 " prime $end
$var wire 1 # sevensegement [0] $end
$var wire 1 $ sevensegement [1] $end
$var wire 1 % sevensegement [2] $end
$var wire 1 & sevensegement [3] $end
$var wire 1 ' sevensegement [4] $end
$var wire 1 ( sevensegement [5] $end
$var wire 1 ) sevensegement [6] $end
$var wire 1 * sampler $end
$scope module i1 $end
$var wire 1 + gnd $end
$var wire 1 , vcc $end
$var wire 1 - unknown $end
$var tri1 1 . devclrn $end
$var tri1 1 / devpor $end
$var tri1 1 0 devoe $end
$var wire 1 1 sevensegement[6]~output_o $end
$var wire 1 2 sevensegement[5]~output_o $end
$var wire 1 3 sevensegement[4]~output_o $end
$var wire 1 4 sevensegement[3]~output_o $end
$var wire 1 5 sevensegement[2]~output_o $end
$var wire 1 6 sevensegement[1]~output_o $end
$var wire 1 7 sevensegement[0]~output_o $end
$var wire 1 8 prime~output_o $end
$var wire 1 9 switch[0]~input_o $end
$var wire 1 : switch[3]~input_o $end
$var wire 1 ; switch[2]~input_o $end
$var wire 1 < switch[1]~input_o $end
$var wire 1 = sevensegement~0_combout $end
$var wire 1 > sevensegement~1_combout $end
$var wire 1 ? sevensegement~2_combout $end
$var wire 1 @ sevensegement~3_combout $end
$var wire 1 A sevensegement~4_combout $end
$var wire 1 B sevensegement~5_combout $end
$var wire 1 C sevensegement~6_combout $end
$var wire 1 D prime~0_combout $end
$upscope $end
$upscope $end
$enddefinitions $end
#0
$dumpvars
b0 !
0"
1)
0(
0'
0&
0%
0$
0#
x*
0+
1,
x-
1.
1/
10
11
02
03
04
05
06
07
08
09
0:
0;
0<
1=
0>
0?
0@
0A
0B
0C
0D
$end
#10000
b1 !
19
0*
1C
1@
1?
1>
17
14
13
12
1#
1&
1'
1(
#20000
b11 !
b10 !
09
1<
1*
1D
0C
1A
0@
0?
0=
18
07
15
04
03
01
1"
0#
1%
0&
0'
0)
#30000
b11 !
19
0*
0A
1?
05
13
0%
1'
#40000
b111 !
b101 !
b100 !
09
0<
1;
1*
0D
1C
1@
0>
08
17
14
02
0"
1#
1&
0(
#50000
b101 !
19
0*
1D
0C
1B
0@
18
07
16
04
1"
0#
1$
0&
#60000
b111 !
b110 !
09
1<
1*
0D
0?
08
03
0"
0'
#70000
b111 !
19
0*
1D
0B
1@
1?
1>
1=
18
06
14
13
12
11
1"
0$
1&
1'
1(
1)
#80000
b1111 !
b1011 !
b1001 !
b1000 !
09
0<
0;
1:
1*
0D
0@
0?
0>
0=
08
04
03
02
01
0"
0&
0'
0(
0)
#90000
b1001 !
19
0*
1@
1?
14
13
1&
1'
#100000
b1011 !
b1010 !
09
1<
1*
0?
03
0'
#110000
b1011 !
19
0*
1D
1C
1B
0@
18
17
16
04
1"
1#
1$
0&
#120000
b1111 !
b1101 !
b1100 !
09
0<
1;
1*
0D
0C
1A
1=
08
07
15
11
0"
0#
1%
1)
#130000
b1101 !
19
0*
1D
1C
0B
0A
1>
0=
18
17
06
05
12
01
1"
1#
0$
0%
1(
0)
#140000
b1111 !
b1110 !
09
1<
1*
0D
0C
1B
1A
0>
08
07
16
15
02
0"
0#
1$
1%
0(
#150000
b1111 !
19
0*
1@
14
1&
#160000
b111 !
b11 !
b1 !
b0 !
09
0<
0;
0:
1*
0B
0A
0@
1=
06
05
04
11
0$
0%
0&
1)
#170000
b1 !
19
0*
1C
1@
1?
1>
17
14
13
12
1#
1&
1'
1(
#180000
b11 !
b10 !
09
1<
1*
1D
0C
1A
0@
0?
0=
18
07
15
04
03
01
1"
0#
1%
0&
0'
0)
#190000
b11 !
19
0*
0A
1?
05
13
0%
1'
#200000
b111 !
b101 !
b100 !
09
0<
1;
1*
0D
1C
1@
0>
08
17
14
02
0"
1#
1&
0(
#210000
b101 !
19
0*
1D
0C
1B
0@
18
07
16
04
1"
0#
1$
0&
#220000
b111 !
b110 !
09
1<
1*
0D
0?
08
03
0"
0'
#230000
b111 !
19
0*
1D
0B
1@
1?
1>
1=
18
06
14
13
12
11
1"
0$
1&
1'
1(
1)
#240000
b1111 !
b1011 !
b1001 !
b1000 !
09
0<
0;
1:
1*
0D
0@
0?
0>
0=
08
04
03
02
01
0"
0&
0'
0(
0)
#250000
b1001 !
19
0*
1@
1?
14
13
1&
1'
#260000
b1011 !
b1010 !
09
1<
1*
0?
03
0'
#270000
b1011 !
19
0*
1D
1C
1B
0@
18
17
16
04
1"
1#
1$
0&
#280000
b1111 !
b1101 !
b1100 !
09
0<
1;
1*
0D
0C
1A
1=
08
07
15
11
0"
0#
1%
1)
#290000
b1101 !
19
0*
1D
1C
0B
0A
1>
0=
18
17
06
05
12
01
1"
1#
0$
0%
1(
0)
#300000
b1111 !
b1110 !
09
1<
1*
0D
0C
1B
1A
0>
08
07
16
15
02
0"
0#
1$
1%
0(
#310000
b1111 !
19
0*
1@
14
1&
#320000
b111 !
b11 !
b1 !
b0 !
09
0<
0;
0:
1*
0B
0A
0@
1=
06
05
04
11
0$
0%
0&
1)
#330000
b1 !
19
0*
1C
1@
1?
1>
17
14
13
12
1#
1&
1'
1(
#340000
b11 !
b10 !
09
1<
1*
1D
0C
1A
0@
0?
0=
18
07
15
04
03
01
1"
0#
1%
0&
0'
0)
#350000
b11 !
19
0*
0A
1?
05
13
0%
1'
#360000
b111 !
b101 !
b100 !
09
0<
1;
1*
0D
1C
1@
0>
08
17
14
02
0"
1#
1&
0(
#370000
b101 !
19
0*
1D
0C
1B
0@
18
07
16
04
1"
0#
1$
0&
#380000
b111 !
b110 !
09
1<
1*
0D
0?
08
03
0"
0'
#390000
b111 !
19
0*
1D
0B
1@
1?
1>
1=
18
06
14
13
12
11
1"
0$
1&
1'
1(
1)
#400000
b1111 !
b1011 !
b1001 !
b1000 !
09
0<
0;
1:
1*
0D
0@
0?
0>
0=
08
04
03
02
01
0"
0&
0'
0(
0)
#410000
b1001 !
19
0*
1@
1?
14
13
1&
1'
#420000
b1011 !
b1010 !
09
1<
1*
0?
03
0'
#430000
b1011 !
19
0*
1D
1C
1B
0@
18
17
16
04
1"
1#
1$
0&
#440000
b1111 !
b1101 !
b1100 !
09
0<
1;
1*
0D
0C
1A
1=
08
07
15
11
0"
0#
1%
1)
#450000
b1101 !
19
0*
1D
1C
0B
0A
1>
0=
18
17
06
05
12
01
1"
1#
0$
0%
1(
0)
#460000
b1111 !
b1110 !
09
1<
1*
0D
0C
1B
1A
0>
08
07
16
15
02
0"
0#
1$
1%
0(
#470000
b1111 !
19
0*
1@
14
1&
#480000
b111 !
b11 !
b1 !
b0 !
09
0<
0;
0:
1*
0B
0A
0@
1=
06
05
04
11
0$
0%
0&
1)
#490000
b1 !
19
0*
1C
1@
1?
1>
17
14
13
12
1#
1&
1'
1(
#500000
b11 !
b10 !
09
1<
1*
1D
0C
1A
0@
0?
0=
18
07
15
04
03
01
1"
0#
1%
0&
0'
0)
#510000
b11 !
19
0*
0A
1?
05
13
0%
1'
#520000
b111 !
b101 !
b100 !
09
0<
1;
1*
0D
1C
1@
0>
08
17
14
02
0"
1#
1&
0(
#530000
b101 !
19
0*
1D
0C
1B
0@
18
07
16
04
1"
0#
1$
0&
#540000
b111 !
b110 !
09
1<
1*
0D
0?
08
03
0"
0'
#550000
b111 !
19
0*
1D
0B
1@
1?
1>
1=
18
06
14
13
12
11
1"
0$
1&
1'
1(
1)
#560000
b1111 !
b1011 !
b1001 !
b1000 !
09
0<
0;
1:
1*
0D
0@
0?
0>
0=
08
04
03
02
01
0"
0&
0'
0(
0)
#570000
b1001 !
19
0*
1@
1?
14
13
1&
1'
#580000
b1011 !
b1010 !
09
1<
1*
0?
03
0'
#590000
b1011 !
19
0*
1D
1C
1B
0@
18
17
16
04
1"
1#
1$
0&
#600000
b1111 !
b1101 !
b1100 !
09
0<
1;
1*
0D
0C
1A
1=
08
07
15
11
0"
0#
1%
1)
#610000
b1101 !
19
0*
1D
1C
0B
0A
1>
0=
18
17
06
05
12
01
1"
1#
0$
0%
1(
0)
#620000
b1111 !
b1110 !
09
1<
1*
0D
0C
1B
1A
0>
08
07
16
15
02
0"
0#
1$
1%
0(
#630000
b1111 !
19
0*
1@
14
1&
#640000
b111 !
b11 !
b1 !
b0 !
09
0<
0;
0:
1*
0B
0A
0@
1=
06
05
04
11
0$
0%
0&
1)
#650000
b1 !
19
0*
1C
1@
1?
1>
17
14
13
12
1#
1&
1'
1(
#660000
b11 !
b10 !
09
1<
1*
1D
0C
1A
0@
0?
0=
18
07
15
04
03
01
1"
0#
1%
0&
0'
0)
#670000
b11 !
19
0*
0A
1?
05
13
0%
1'
#680000
b111 !
b101 !
b100 !
09
0<
1;
1*
0D
1C
1@
0>
08
17
14
02
0"
1#
1&
0(
#690000
b101 !
19
0*
1D
0C
1B
0@
18
07
16
04
1"
0#
1$
0&
#700000
b111 !
b110 !
09
1<
1*
0D
0?
08
03
0"
0'
#710000
b111 !
19
0*
1D
0B
1@
1?
1>
1=
18
06
14
13
12
11
1"
0$
1&
1'
1(
1)
#720000
b1111 !
b1011 !
b1001 !
b1000 !
09
0<
0;
1:
1*
0D
0@
0?
0>
0=
08
04
03
02
01
0"
0&
0'
0(
0)
#730000
b1001 !
19
0*
1@
1?
14
13
1&
1'
#740000
b1011 !
b1010 !
09
1<
1*
0?
03
0'
#750000
b1011 !
19
0*
1D
1C
1B
0@
18
17
16
04
1"
1#
1$
0&
#760000
b1111 !
b1101 !
b1100 !
09
0<
1;
1*
0D
0C
1A
1=
08
07
15
11
0"
0#
1%
1)
#770000
b1101 !
19
0*
1D
1C
0B
0A
1>
0=
18
17
06
05
12
01
1"
1#
0$
0%
1(
0)
#780000
b1111 !
b1110 !
09
1<
1*
0D
0C
1B
1A
0>
08
07
16
15
02
0"
0#
1$
1%
0(
#790000
b1111 !
19
0*
1@
14
1&
#800000
b111 !
b11 !
b1 !
b0 !
09
0<
0;
0:
1*
0B
0A
0@
1=
06
05
04
11
0$
0%
0&
1)
#810000
b1 !
19
0*
1C
1@
1?
1>
17
14
13
12
1#
1&
1'
1(
#820000
b11 !
b10 !
09
1<
1*
1D
0C
1A
0@
0?
0=
18
07
15
04
03
01
1"
0#
1%
0&
0'
0)
#830000
b11 !
19
0*
0A
1?
05
13
0%
1'
#840000
b111 !
b101 !
b100 !
09
0<
1;
1*
0D
1C
1@
0>
08
17
14
02
0"
1#
1&
0(
#850000
b101 !
19
0*
1D
0C
1B
0@
18
07
16
04
1"
0#
1$
0&
#860000
b111 !
b110 !
09
1<
1*
0D
0?
08
03
0"
0'
#870000
b111 !
19
0*
1D
0B
1@
1?
1>
1=
18
06
14
13
12
11
1"
0$
1&
1'
1(
1)
#880000
b1111 !
b1011 !
b1001 !
b1000 !
09
0<
0;
1:
1*
0D
0@
0?
0>
0=
08
04
03
02
01
0"
0&
0'
0(
0)
#890000
b1001 !
19
0*
1@
1?
14
13
1&
1'
#900000
b1011 !
b1010 !
09
1<
1*
0?
03
0'
#910000
b1011 !
19
0*
1D
1C
1B
0@
18
17
16
04
1"
1#
1$
0&
#920000
b1111 !
b1101 !
b1100 !
09
0<
1;
1*
0D
0C
1A
1=
08
07
15
11
0"
0#
1%
1)
#930000
b1101 !
19
0*
1D
1C
0B
0A
1>
0=
18
17
06
05
12
01
1"
1#
0$
0%
1(
0)
#940000
b1111 !
b1110 !
09
1<
1*
0D
0C
1B
1A
0>
08
07
16
15
02
0"
0#
1$
1%
0(
#950000
b1111 !
19
0*
1@
14
1&
#960000
b111 !
b11 !
b1 !
b0 !
09
0<
0;
0:
1*
0B
0A
0@
1=
06
05
04
11
0$
0%
0&
1)
#970000
b1 !
19
0*
1C
1@
1?
1>
17
14
13
12
1#
1&
1'
1(
#980000
b11 !
b10 !
09
1<
1*
1D
0C
1A
0@
0?
0=
18
07
15
04
03
01
1"
0#
1%
0&
0'
0)
#990000
b11 !
19
0*
0A
1?
05
13
0%
1'
