Lab3/simulation/qsim/Lab3_1.msim.vcd
$comment
	File created using the following command:
		vcd file Lab3_1.msim.vcd -direction
$end
$date
	Wed Mar 06 18:51:11 2024
$end
$version
	ModelSim Version 10.1d
$end
$timescale
	1ps
$end
$scope module Lab3_1_vlg_vec_tst $end
$var reg 2 ! switch [1:0] $end
$var wire 1 " sevensegement [0] $end
$var wire 1 # sevensegement [1] $end
$var wire 1 $ sevensegement [2] $end
$var wire 1 % sevensegement [3] $end
$var wire 1 & sevensegement [4] $end
$var wire 1 ' sevensegement [5] $end
$var wire 1 ( sevensegement [6] $end
$var wire 1 ) sampler $end
$scope module i1 $end
$var wire 1 * gnd $end
$var wire 1 + vcc $end
$var wire 1 , unknown $end
$var tri1 1 - devclrn $end
$var tri1 1 . devpor $end
$var tri1 1 / devoe $end
$var wire 1 0 sevensegement[6]~output_o $end
$var wire 1 1 sevensegement[5]~output_o $end
$var wire 1 2 sevensegement[4]~output_o $end
$var wire 1 3 sevensegement[3]~output_o $end
$var wire 1 4 sevensegement[2]~output_o $end
$var wire 1 5 sevensegement[1]~output_o $end
$var wire 1 6 sevensegement[0]~output_o $end
$var wire 1 7 switch[1]~input_o $end
$var wire 1 8 switch[0]~input_o $end
$var wire 1 9 Mux3~0_combout $end
$var wire 1 : Mux2~0_combout $end
$upscope $end
$upscope $end
$enddefinitions $end
#0
$dumpvars
b0 !
0(
1'
0&
0%
0$
0#
1"
x)
0*
1+
x,
1-
1.
1/
00
11
02
03
04
05
16
07
08
09
0:
$end
#10000
b1 !
0)
18
19
15
14
1#
1$
01
06
0'
0"
#20000
b11 !
b10 !
1)
08
17
05
04
10
0#
0$
1(
#30000
b11 !
0)
18
09
15
14
1#
1$
1:
11
16
13
12
1'
1"
1%
1&
#40000
b1 !
b0 !
1)
08
07
05
04
00
0#
0$
0(
0:
03
02
0%
0&
#50000
b1 !
0)
18
19
15
14
1#
1$
01
06
0'
0"
#60000
b11 !
b10 !
1)
08
17
05
04
10
0#
0$
1(
#70000
b11 !
0)
18
09
15
14
1#
1$
1:
11
16
13
12
1'
1"
1%
1&
#80000
b1 !
b0 !
1)
08
07
05
04
00
0#
0$
0(
0:
03
02
0%
0&
#90000
b1 !
0)
18
19
15
14
1#
1$
01
06
0'
0"
#100000
b11 !
b10 !
1)
08
17
05
04
10
0#
0$
1(
#110000
b11 !
0)
18
09
15
14
1#
1$
1:
11
16
13
12
1'
1"
1%
1&
#120000
b1 !
b0 !
1)
08
07
05
04
00
0#
0$
0(
0:
03
02
0%
0&
#130000
b1 !
0)
18
19
15
14
1#
1$
01
06
0'
0"
#140000
b11 !
b10 !
1)
08
17
05
04
10
0#
0$
1(
#150000
b11 !
0)
18
09
15
14
1#
1$
1:
11
16
13
12
1'
1"
1%
1&
#160000
b1 !
b0 !
1)
08
07
05
04
00
0#
0$
0(
0:
03
02
0%
0&
#170000
b1 !
0)
18
19
15
14
1#
1$
01
06
0'
0"
#180000
b11 !
b10 !
1)
08
17
05
04
10
0#
0$
1(
#190000
b11 !
0)
18
09
15
14
1#
1$
1:
11
16
13
12
1'
1"
1%
1&
#200000
b1 !
b0 !
1)
08
07
05
04
00
0#
0$
0(
0:
03
02
0%
0&
#210000
b1 !
0)
18
19
15
14
1#
1$
01
06
0'
0"
#220000
b11 !
b10 !
1)
08
17
05
04
10
0#
0$
1(
#230000
b11 !
0)
18
09
15
14
1#
1$
1:
11
16
13
12
1'
1"
1%
1&
#240000
b1 !
b0 !
1)
08
07
05
04
00
0#
0$
0(
0:
03
02
0%
0&
#250000
b1 !
0)
18
19
15
14
1#
1$
01
06
0'
0"
#260000
b11 !
b10 !
1)
08
17
05
04
10
0#
0$
1(
#270000
b11 !
0)
18
09
15
14
1#
1$
1:
11
16
13
12
1'
1"
1%
1&
#280000
b1 !
b0 !
1)
08
07
05
04
00
0#
0$
0(
0:
03
02
0%
0&
#290000
b1 !
0)
18
19
15
14
1#
1$
01
06
0'
0"
#300000
b11 !
b10 !
1)
08
17
05
04
10
0#
0$
1(
#310000
b11 !
0)
18
09
15
14
1#
1$
1:
11
16
13
12
1'
1"
1%
1&
#320000
b1 !
b0 !
1)
08
07
05
04
00
0#
0$
0(
0:
03
02
0%
0&
#330000
b1 !
0)
18
19
15
14
1#
1$
01
06
0'
0"
#340000
b11 !
b10 !
1)
08
17
05
04
10
0#
0$
1(
#350000
b11 !
0)
18
09
15
14
1#
1$
1:
11
16
13
12
1'
1"
1%
1&
#360000
b1 !
b0 !
1)
08
07
05
04
00
0#
0$
0(
0:
03
02
0%
0&
#370000
b1 !
0)
18
19
15
14
1#
1$
01
06
0'
0"
#380000
b11 !
b10 !
1)
08
17
05
04
10
0#
0$
1(
#390000
b11 !
0)
18
09
15
14
1#
1$
1:
11
16
13
12
1'
1"
1%
1&
#400000
b1 !
b0 !
1)
08
07
05
04
00
0#
0$
0(
0:
03
02
0%
0&
#410000
b1 !
0)
18
19
15
14
1#
1$
01
06
0'
0"
#420000
b11 !
b10 !
1)
08
17
05
04
10
0#
0$
1(
#430000
b11 !
0)
18
09
15
14
1#
1$
1:
11
16
13
12
1'
1"
1%
1&
#440000
b1 !
b0 !
1)
08
07
05
04
00
0#
0$
0(
0:
03
02
0%
0&
#450000
b1 !
0)
18
19
15
14
1#
1$
01
06
0'
0"
#460000
b11 !
b10 !
1)
08
17
05
04
10
0#
0$
1(
#470000
b11 !
0)
18
09
15
14
1#
1$
1:
11
16
13
12
1'
1"
1%
1&
#480000
b1 !
b0 !
1)
08
07
05
04
00
0#
0$
0(
0:
03
02
0%
0&
#490000
b1 !
0)
18
19
15
14
1#
1$
01
06
0'
0"
#500000
b11 !
b10 !
1)
08
17
05
04
10
0#
0$
1(
#510000
b11 !
0)
18
09
15
14
1#
1$
1:
11
16
13
12
1'
1"
1%
1&
#520000
b1 !
b0 !
1)
08
07
05
04
00
0#
0$
0(
0:
03
02
0%
0&
#530000
b1 !
0)
18
19
15
14
1#
1$
01
06
0'
0"
#540000
b11 !
b10 !
1)
08
17
05
04
10
0#
0$
1(
#550000
b11 !
0)
18
09
15
14
1#
1$
1:
11
16
13
12
1'
1"
1%
1&
#560000
b1 !
b0 !
1)
08
07
05
04
00
0#
0$
0(
0:
03
02
0%
0&
#570000
b1 !
0)
18
19
15
14
1#
1$
01
06
0'
0"
#580000
b11 !
b10 !
1)
08
17
05
04
10
0#
0$
1(
#590000
b11 !
0)
18
09
15
14
1#
1$
1:
11
16
13
12
1'
1"
1%
1&
#600000
b1 !
b0 !
1)
08
07
05
04
00
0#
0$
0(
0:
03
02
0%
0&
#610000
b1 !
0)
18
19
15
14
1#
1$
01
06
0'
0"
#620000
b11 !
b10 !
1)
08
17
05
04
10
0#
0$
1(
#630000
b11 !
0)
18
09
15
14
1#
1$
1:
11
16
13
12
1'
1"
1%
1&
#640000
b1 !
b0 !
1)
08
07
05
04
00
0#
0$
0(
0:
03
02
0%
0&
#650000
b1 !
0)
18
19
15
14
1#
1$
01
06
0'
0"
#660000
b11 !
b10 !
1)
08
17
05
04
10
0#
0$
1(
#670000
b11 !
0)
18
09
15
14
1#
1$
1:
11
16
13
12
1'
1"
1%
1&
#680000
b1 !
b0 !
1)
08
07
05
04
00
0#
0$
0(
0:
03
02
0%
0&
#690000
b1 !
0)
18
19
15
14
1#
1$
01
06
0'
0"
#700000
b11 !
b10 !
1)
08
17
05
04
10
0#
0$
1(
#710000
b11 !
0)
18
09
15
14
1#
1$
1:
11
16
13
12
1'
1"
1%
1&
#720000
b1 !
b0 !
1)
08
07
05
04
00
0#
0$
0(
0:
03
02
0%
0&
#730000
b1 !
0)
18
19
15
14
1#
1$
01
06
0'
0"
#740000
b11 !
b10 !
1)
08
17
05
04
10
0#
0$
1(
#750000
b11 !
0)
18
09
15
14
1#
1$
1:
11
16
13
12
1'
1"
1%
1&
#760000
b1 !
b0 !
1)
08
07
05
04
00
0#
0$
0(
0:
03
02
0%
0&
#770000
b1 !
0)
18
19
15
14
1#
1$
01
06
0'
0"
#780000
b11 !
b10 !
1)
08
17
05
04
10
0#
0$
1(
#790000
b11 !
0)
18
09
15
14
1#
1$
1:
11
16
13
12
1'
1"
1%
1&
#800000
b1 !
b0 !
1)
08
07
05
04
00
0#
0$
0(
0:
03
02
0%
0&
#810000
b1 !
0)
18
19
15
14
1#
1$
01
06
0'
0"
#820000
b11 !
b10 !
1)
08
17
05
04
10
0#
0$
1(
#830000
b11 !
0)
18
09
15
14
1#
1$
1:
11
16
13
12
1'
1"
1%
1&
#840000
b1 !
b0 !
1)
08
07
05
04
00
0#
0$
0(
0:
03
02
0%
0&
#850000
b1 !
0)
18
19
15
14
1#
1$
01
06
0'
0"
#860000
b11 !
b10 !
1)
08
17
05
04
10
0#
0$
1(
#870000
b11 !
0)
18
09
15
14
1#
1$
1:
11
16
13
12
1'
1"
1%
1&
#880000
b1 !
b0 !
1)
08
07
05
04
00
0#
0$
0(
0:
03
02
0%
0&
#890000
b1 !
0)
18
19
15
14
1#
1$
01
06
0'
0"
#900000
b11 !
b10 !
1)
08
17
05
04
10
0#
0$
1(
#910000
b11 !
0)
18
09
15
14
1#
1$
1:
11
16
13
12
1'
1"
1%
1&
#920000
b1 !
b0 !
1)
08
07
05
04
00
0#
0$
0(
0:
03
02
0%
0&
#930000
b1 !
0)
18
19
15
14
1#
1$
01
06
0'
0"
#940000
b11 !
b10 !
1)
08
17
05
04
10
0#
0$
1(
#950000
b11 !
0)
18
09
15
14
1#
1$
1:
11
16
13
12
1'
1"
1%
1&
#960000
b1 !
b0 !
1)
08
07
05
04
00
0#
0$
0(
0:
03
02
0%
0&
#970000
b1 !
0)
18
19
15
14
1#
1$
01
06
0'
0"
#980000
b11 !
b10 !
1)
08
17
05
04
10
0#
0$
1(
#990000
b11 !
0)
18
09
15
14
1#
1$
1:
11
16
13
12
1'
1"
1%
1&
