Lab3/simulation/qsim/Lab3_2.msim.vcd
$comment
	File created using the following command:
		vcd file Lab3_2.msim.vcd -direction
$end
$date
	Wed Mar 06 19:02:30 2024
$end
$version
	ModelSim Version 10.1d
$end
$timescale
	1ps
$end
$scope module Lab3_2_vlg_vec_tst $end
$var reg 2 ! switch [1:0] $end
$var wire 1 " sevensegement0 [0] $end
$var wire 1 # sevensegement0 [1] $end
$var wire 1 $ sevensegement0 [2] $end
$var wire 1 % sevensegement0 [3] $end
$var wire 1 & sevensegement0 [4] $end
$var wire 1 ' sevensegement0 [5] $end
$var wire 1 ( sevensegement0 [6] $end
$var wire 1 ) sevensegement1 [0] $end
$var wire 1 * sevensegement1 [1] $end
$var wire 1 + sevensegement1 [2] $end
$var wire 1 , sevensegement1 [3] $end
$var wire 1 - sevensegement1 [4] $end
$var wire 1 . sevensegement1 [5] $end
$var wire 1 / sevensegement1 [6] $end
$var wire 1 0 sevensegement2 [0] $end
$var wire 1 1 sevensegement2 [1] $end
$var wire 1 2 sevensegement2 [2] $end
$var wire 1 3 sevensegement2 [3] $end
$var wire 1 4 sevensegement2 [4] $end
$var wire 1 5 sevensegement2 [5] $end
$var wire 1 6 sevensegement2 [6] $end
$var wire 1 7 sevensegement3 [0] $end
$var wire 1 8 sevensegement3 [1] $end
$var wire 1 9 sevensegement3 [2] $end
$var wire 1 : sevensegement3 [3] $end
$var wire 1 ; sevensegement3 [4] $end
$var wire 1 < sevensegement3 [5] $end
$var wire 1 = sevensegement3 [6] $end
$var wire 1 > sampler $end
$scope module i1 $end
$var wire 1 ? gnd $end
$var wire 1 @ vcc $end
$var wire 1 A unknown $end
$var tri1 1 B devclrn $end
$var tri1 1 C devpor $end
$var tri1 1 D devoe $end
$var wire 1 E sevensegement0[6]~output_o $end
$var wire 1 F sevensegement0[5]~output_o $end
$var wire 1 G sevensegement0[4]~output_o $end
$var wire 1 H sevensegement0[3]~output_o $end
$var wire 1 I sevensegement0[2]~output_o $end
$var wire 1 J sevensegement0[1]~output_o $end
$var wire 1 K sevensegement0[0]~output_o $end
$var wire 1 L sevensegement1[6]~output_o $end
$var wire 1 M sevensegement1[5]~output_o $end
$var wire 1 N sevensegement1[4]~output_o $end
$var wire 1 O sevensegement1[3]~output_o $end
$var wire 1 P sevensegement1[2]~output_o $end
$var wire 1 Q sevensegement1[1]~output_o $end
$var wire 1 R sevensegement1[0]~output_o $end
$var wire 1 S sevensegement2[6]~output_o $end
$var wire 1 T sevensegement2[5]~output_o $end
$var wire 1 U sevensegement2[4]~output_o $end
$var wire 1 V sevensegement2[3]~output_o $end
$var wire 1 W sevensegement2[2]~output_o $end
$var wire 1 X sevensegement2[1]~output_o $end
$var wire 1 Y sevensegement2[0]~output_o $end
$var wire 1 Z sevensegement3[6]~output_o $end
$var wire 1 [ sevensegement3[5]~output_o $end
$var wire 1 \ sevensegement3[4]~output_o $end
$var wire 1 ] sevensegement3[3]~output_o $end
$var wire 1 ^ sevensegement3[2]~output_o $end
$var wire 1 _ sevensegement3[1]~output_o $end
$var wire 1 ` sevensegement3[0]~output_o $end
$var wire 1 a switch[1]~input_o $end
$var wire 1 b switch[0]~input_o $end
$var wire 1 c Mux15~0_combout $end
$var wire 1 d Mux9~0_combout $end
$var wire 1 e Mux10~0_combout $end
$upscope $end
$upscope $end
$enddefinitions $end
#0
$dumpvars
b0 !
1(
1'
1&
1%
1$
1#
1"
1/
1.
1-
1,
1+
1*
1)
16
15
14
13
12
11
10
0=
1<
0;
0:
09
08
17
x>
0?
1@
xA
1B
1C
1D
1E
1F
1G
1H
1I
1J
1K
1L
1M
1N
1O
1P
1Q
1R
1S
1T
1U
1V
1W
1X
1Y
0Z
1[
0\
0]
0^
0_
1`
0a
0b
1c
1d
0e
$end
#10000
b1 !
1b
0>
1e
0d
1_
1^
1]
1\
1Z
0Y
0V
0U
0T
0S
18
19
1:
1;
1=
00
03
04
05
06
#20000
b11 !
b10 !
0b
1a
1>
1d
0c
1Y
1V
1U
1T
1S
0R
0Q
0P
0O
0N
0M
10
13
14
15
16
0)
0*
0+
0,
0-
0.
#30000
b11 !
1b
0>
1c
1R
1Q
1P
1O
1N
1M
1)
1*
1+
1,
1-
1.
#40000
b1 !
b0 !
0b
0a
1>
0e
0_
0^
0]
0\
0Z
08
09
0:
0;
0=
#50000
b1 !
1b
0>
1e
0d
1_
1^
1]
1\
1Z
0Y
0V
0U
0T
0S
18
19
1:
1;
1=
00
03
04
05
06
#60000
b11 !
b10 !
0b
1a
1>
1d
0c
1Y
1V
1U
1T
1S
0R
0Q
0P
0O
0N
0M
10
13
14
15
16
0)
0*
0+
0,
0-
0.
#70000
b11 !
1b
0>
1c
1R
1Q
1P
1O
1N
1M
1)
1*
1+
1,
1-
1.
#80000
b1 !
b0 !
0b
0a
1>
0e
0_
0^
0]
0\
0Z
08
09
0:
0;
0=
#90000
b1 !
1b
0>
1e
0d
1_
1^
1]
1\
1Z
0Y
0V
0U
0T
0S
18
19
1:
1;
1=
00
03
04
05
06
#100000
b11 !
b10 !
0b
1a
1>
1d
0c
1Y
1V
1U
1T
1S
0R
0Q
0P
0O
0N
0M
10
13
14
15
16
0)
0*
0+
0,
0-
0.
#110000
b11 !
1b
0>
1c
1R
1Q
1P
1O
1N
1M
1)
1*
1+
1,
1-
1.
#120000
b1 !
b0 !
0b
0a
1>
0e
0_
0^
0]
0\
0Z
08
09
0:
0;
0=
#130000
b1 !
1b
0>
1e
0d
1_
1^
1]
1\
1Z
0Y
0V
0U
0T
0S
18
19
1:
1;
1=
00
03
04
05
06
#140000
b11 !
b10 !
0b
1a
1>
1d
0c
1Y
1V
1U
1T
1S
0R
0Q
0P
0O
0N
0M
10
13
14
15
16
0)
0*
0+
0,
0-
0.
#150000
b11 !
1b
0>
1c
1R
1Q
1P
1O
1N
1M
1)
1*
1+
1,
1-
1.
#160000
b1 !
b0 !
0b
0a
1>
0e
0_
0^
0]
0\
0Z
08
09
0:
0;
0=
#170000
b1 !
1b
0>
1e
0d
1_
1^
1]
1\
1Z
0Y
0V
0U
0T
0S
18
19
1:
1;
1=
00
03
04
05
06
#180000
b11 !
b10 !
0b
1a
1>
1d
0c
1Y
1V
1U
1T
1S
0R
0Q
0P
0O
0N
0M
10
13
14
15
16
0)
0*
0+
0,
0-
0.
#190000
b11 !
1b
0>
1c
1R
1Q
1P
1O
1N
1M
1)
1*
1+
1,
1-
1.
#200000
b1 !
b0 !
0b
0a
1>
0e
0_
0^
0]
0\
0Z
08
09
0:
0;
0=
#210000
b1 !
1b
0>
1e
0d
1_
1^
1]
1\
1Z
0Y
0V
0U
0T
0S
18
19
1:
1;
1=
00
03
04
05
06
#220000
b11 !
b10 !
0b
1a
1>
1d
0c
1Y
1V
1U
1T
1S
0R
0Q
0P
0O
0N
0M
10
13
14
15
16
0)
0*
0+
0,
0-
0.
#230000
b11 !
1b
0>
1c
1R
1Q
1P
1O
1N
1M
1)
1*
1+
1,
1-
1.
#240000
b1 !
b0 !
0b
0a
1>
0e
0_
0^
0]
0\
0Z
08
09
0:
0;
0=
#250000
b1 !
1b
0>
1e
0d
1_
1^
1]
1\
1Z
0Y
0V
0U
0T
0S
18
19
1:
1;
1=
00
03
04
05
06
#260000
b11 !
b10 !
0b
1a
1>
1d
0c
1Y
1V
1U
1T
1S
0R
0Q
0P
0O
0N
0M
10
13
14
15
16
0)
0*
0+
0,
0-
0.
#270000
b11 !
1b
0>
1c
1R
1Q
1P
1O
1N
1M
1)
1*
1+
1,
1-
1.
#280000
b1 !
b0 !
0b
0a
1>
0e
0_
0^
0]
0\
0Z
08
09
0:
0;
0=
#290000
b1 !
1b
0>
1e
0d
1_
1^
1]
1\
1Z
0Y
0V
0U
0T
0S
18
19
1:
1;
1=
00
03
04
05
06
#300000
b11 !
b10 !
0b
1a
1>
1d
0c
1Y
1V
1U
1T
1S
0R
0Q
0P
0O
0N
0M
10
13
14
15
16
0)
0*
0+
0,
0-
0.
#310000
b11 !
1b
0>
1c
1R
1Q
1P
1O
1N
1M
1)
1*
1+
1,
1-
1.
#320000
b1 !
b0 !
0b
0a
1>
0e
0_
0^
0]
0\
0Z
08
09
0:
0;
0=
#330000
b1 !
1b
0>
1e
0d
1_
1^
1]
1\
1Z
0Y
0V
0U
0T
0S
18
19
1:
1;
1=
00
03
04
05
06
#340000
b11 !
b10 !
0b
1a
1>
1d
0c
1Y
1V
1U
1T
1S
0R
0Q
0P
0O
0N
0M
10
13
14
15
16
0)
0*
0+
0,
0-
0.
#350000
b11 !
1b
0>
1c
1R
1Q
1P
1O
1N
1M
1)
1*
1+
1,
1-
1.
#360000
b1 !
b0 !
0b
0a
1>
0e
0_
0^
0]
0\
0Z
08
09
0:
0;
0=
#370000
b1 !
1b
0>
1e
0d
1_
1^
1]
1\
1Z
0Y
0V
0U
0T
0S
18
19
1:
1;
1=
00
03
04
05
06
#380000
b11 !
b10 !
0b
1a
1>
1d
0c
1Y
1V
1U
1T
1S
0R
0Q
0P
0O
0N
0M
10
13
14
15
16
0)
0*
0+
0,
0-
0.
#390000
b11 !
1b
0>
1c
1R
1Q
1P
1O
1N
1M
1)
1*
1+
1,
1-
1.
#400000
b1 !
b0 !
0b
0a
1>
0e
0_
0^
0]
0\
0Z
08
09
0:
0;
0=
#410000
b1 !
1b
0>
1e
0d
1_
1^
1]
1\
1Z
0Y
0V
0U
0T
0S
18
19
1:
1;
1=
00
03
04
05
06
#420000
b11 !
b10 !
0b
1a
1>
1d
0c
1Y
1V
1U
1T
1S
0R
0Q
0P
0O
0N
0M
10
13
14
15
16
0)
0*
0+
0,
0-
0.
#430000
b11 !
1b
0>
1c
1R
1Q
1P
1O
1N
1M
1)
1*
1+
1,
1-
1.
#440000
b1 !
b0 !
0b
0a
1>
0e
0_
0^
0]
0\
0Z
08
09
0:
0;
0=
#450000
b1 !
1b
0>
1e
0d
1_
1^
1]
1\
1Z
0Y
0V
0U
0T
0S
18
19
1:
1;
1=
00
03
04
05
06
#460000
b11 !
b10 !
0b
1a
1>
1d
0c
1Y
1V
1U
1T
1S
0R
0Q
0P
0O
0N
0M
10
13
14
15
16
0)
0*
0+
0,
0-
0.
#470000
b11 !
1b
0>
1c
1R
1Q
1P
1O
1N
1M
1)
1*
1+
1,
1-
1.
#480000
b1 !
b0 !
0b
0a
1>
0e
0_
0^
0]
0\
0Z
08
09
0:
0;
0=
#490000
b1 !
1b
0>
1e
0d
1_
1^
1]
1\
1Z
0Y
0V
0U
0T
0S
18
19
1:
1;
1=
00
03
04
05
06
#500000
b11 !
b10 !
0b
1a
1>
1d
0c
1Y
1V
1U
1T
1S
0R
0Q
0P
0O
0N
0M
10
13
14
15
16
0)
0*
0+
0,
0-
0.
#510000
b11 !
1b
0>
1c
1R
1Q
1P
1O
1N
1M
1)
1*
1+
1,
1-
1.
#520000
b1 !
b0 !
0b
0a
1>
0e
0_
0^
0]
0\
0Z
08
09
0:
0;
0=
#530000
b1 !
1b
0>
1e
0d
1_
1^
1]
1\
1Z
0Y
0V
0U
0T
0S
18
19
1:
1;
1=
00
03
04
05
06
#540000
b11 !
b10 !
0b
1a
1>
1d
0c
1Y
1V
1U
1T
1S
0R
0Q
0P
0O
0N
0M
10
13
14
15
16
0)
0*
0+
0,
0-
0.
#550000
b11 !
1b
0>
1c
1R
1Q
1P
1O
1N
1M
1)
1*
1+
1,
1-
1.
#560000
b1 !
b0 !
0b
0a
1>
0e
0_
0^
0]
0\
0Z
08
09
0:
0;
0=
#570000
b1 !
1b
0>
1e
0d
1_
1^
1]
1\
1Z
0Y
0V
0U
0T
0S
18
19
1:
1;
1=
00
03
04
05
06
#580000
b11 !
b10 !
0b
1a
1>
1d
0c
1Y
1V
1U
1T
1S
0R
0Q
0P
0O
0N
0M
10
13
14
15
16
0)
0*
0+
0,
0-
0.
#590000
b11 !
1b
0>
1c
1R
1Q
1P
1O
1N
1M
1)
1*
1+
1,
1-
1.
#600000
b1 !
b0 !
0b
0a
1>
0e
0_
0^
0]
0\
0Z
08
09
0:
0;
0=
#610000
b1 !
1b
0>
1e
0d
1_
1^
1]
1\
1Z
0Y
0V
0U
0T
0S
18
19
1:
1;
1=
00
03
04
05
06
#620000
b11 !
b10 !
0b
1a
1>
1d
0c
1Y
1V
1U
1T
1S
0R
0Q
0P
0O
0N
0M
10
13
14
15
16
0)
0*
0+
0,
0-
0.
#630000
b11 !
1b
0>
1c
1R
1Q
1P
1O
1N
1M
1)
1*
1+
1,
1-
1.
#640000
b1 !
b0 !
0b
0a
1>
0e
0_
0^
0]
0\
0Z
08
09
0:
0;
0=
#650000
b1 !
1b
0>
1e
0d
1_
1^
1]
1\
1Z
0Y
0V
0U
0T
0S
18
19
1:
1;
1=
00
03
04
05
06
#660000
b11 !
b10 !
0b
1a
1>
1d
0c
1Y
1V
1U
1T
1S
0R
0Q
0P
0O
0N
0M
10
13
14
15
16
0)
0*
0+
0,
0-
0.
#670000
b11 !
1b
0>
1c
1R
1Q
1P
1O
1N
1M
1)
1*
1+
1,
1-
1.
#680000
b1 !
b0 !
0b
0a
1>
0e
0_
0^
0]
0\
0Z
08
09
0:
0;
0=
#690000
b1 !
1b
0>
1e
0d
1_
1^
1]
1\
1Z
0Y
0V
0U
0T
0S
18
19
1:
1;
1=
00
03
04
05
06
#700000
b11 !
b10 !
0b
1a
1>
1d
0c
1Y
1V
1U
1T
1S
0R
0Q
0P
0O
0N
0M
10
13
14
15
16
0)
0*
0+
0,
0-
0.
#710000
b11 !
1b
0>
1c
1R
1Q
1P
1O
1N
1M
1)
1*
1+
1,
1-
1.
#720000
b1 !
b0 !
0b
0a
1>
0e
0_
0^
0]
0\
0Z
08
09
0:
0;
0=
#730000
b1 !
1b
0>
1e
0d
1_
1^
1]
1\
1Z
0Y
0V
0U
0T
0S
18
19
1:
1;
1=
00
03
04
05
06
#740000
b11 !
b10 !
0b
1a
1>
1d
0c
1Y
1V
1U
1T
1S
0R
0Q
0P
0O
0N
0M
10
13
14
15
16
0)
0*
0+
0,
0-
0.
#750000
b11 !
1b
0>
1c
1R
1Q
1P
1O
1N
1M
1)
1*
1+
1,
1-
1.
#760000
b1 !
b0 !
0b
0a
1>
0e
0_
0^
0]
0\
0Z
08
09
0:
0;
0=
#770000
b1 !
1b
0>
1e
0d
1_
1^
1]
1\
1Z
0Y
0V
0U
0T
0S
18
19
1:
1;
1=
00
03
04
05
06
#780000
b11 !
b10 !
0b
1a
1>
1d
0c
1Y
1V
1U
1T
1S
0R
0Q
0P
0O
0N
0M
10
13
14
15
16
0)
0*
0+
0,
0-
0.
#790000
b11 !
1b
0>
1c
1R
1Q
1P
1O
1N
1M
1)
1*
1+
1,
1-
1.
#800000
b1 !
b0 !
0b
0a
1>
0e
0_
0^
0]
0\
0Z
08
09
0:
0;
0=
#810000
b1 !
1b
0>
1e
0d
1_
1^
1]
1\
1Z
0Y
0V
0U
0T
0S
18
19
1:
1;
1=
00
03
04
05
06
#820000
b11 !
b10 !
0b
1a
1>
1d
0c
1Y
1V
1U
1T
1S
0R
0Q
0P
0O
0N
0M
10
13
14
15
16
0)
0*
0+
0,
0-
0.
#830000
b11 !
1b
0>
1c
1R
1Q
1P
1O
1N
1M
1)
1*
1+
1,
1-
1.
#840000
b1 !
b0 !
0b
0a
1>
0e
0_
0^
0]
0\
0Z
08
09
0:
0;
0=
#850000
b1 !
1b
0>
1e
0d
1_
1^
1]
1\
1Z
0Y
0V
0U
0T
0S
18
19
1:
1;
1=
00
03
04
05
06
#860000
b11 !
b10 !
0b
1a
1>
1d
0c
1Y
1V
1U
1T
1S
0R
0Q
0P
0O
0N
0M
10
13
14
15
16
0)
0*
0+
0,
0-
0.
#870000
b11 !
1b
0>
1c
1R
1Q
1P
1O
1N
1M
1)
1*
1+
1,
1-
1.
#880000
b1 !
b0 !
0b
0a
1>
0e
0_
0^
0]
0\
0Z
08
09
0:
0;
0=
#890000
b1 !
1b
0>
1e
0d
1_
1^
1]
1\
1Z
0Y
0V
0U
0T
0S
18
19
1:
1;
1=
00
03
04
05
06
#900000
b11 !
b10 !
0b
1a
1>
1d
0c
1Y
1V
1U
1T
1S
0R
0Q
0P
0O
0N
0M
10
13
14
15
16
0)
0*
0+
0,
0-
0.
#910000
b11 !
1b
0>
1c
1R
1Q
1P
1O
1N
1M
1)
1*
1+
1,
1-
1.
#920000
b1 !
b0 !
0b
0a
1>
0e
0_
0^
0]
0\
0Z
08
09
0:
0;
0=
#930000
b1 !
1b
0>
1e
0d
1_
1^
1]
1\
1Z
0Y
0V
0U
0T
0S
18
19
1:
1;
1=
00
03
04
05
06
#940000
b11 !
b10 !
0b
1a
1>
1d
0c
1Y
1V
1U
1T
1S
0R
0Q
0P
0O
0N
0M
10
13
14
15
16
0)
0*
0+
0,
0-
0.
#950000
b11 !
1b
0>
1c
1R
1Q
1P
1O
1N
1M
1)
1*
1+
1,
1-
1.
#960000
b1 !
b0 !
0b
0a
1>
0e
0_
0^
0]
0\
0Z
08
09
0:
0;
0=
#970000
b1 !
1b
0>
1e
0d
1_
1^
1]
1\
1Z
0Y
0V
0U
0T
0S
18
19
1:
1;
1=
00
03
04
05
06
#980000
b11 !
b10 !
0b
1a
1>
1d
0c
1Y
1V
1U
1T
1S
0R
0Q
0P
0O
0N
0M
10
13
14
15
16
0)
0*
0+
0,
0-
0.
#990000
b11 !
1b
0>
1c
1R
1Q
1P
1O
1N
1M
1)
1*
1+
1,
1-
1.
