Lab7/simulation/qsim/Lab7_2.msim.vcd
$comment
	File created using the following command:
		vcd file Lab7_2.msim.vcd -direction
$end
$date
	Fri Apr 19 20:32:10 2024
$end
$version
	ModelSim Version 10.1d
$end
$timescale
	1ps
$end
$scope module Lab7_2_vlg_vec_tst $end
$var reg 1 ! CLOck_50_2 $end
$var reg 1 " KEY [1:1] $end
$var wire 1 # HEX2 [0] $end
$var wire 1 $ HEX2 [1] $end
$var wire 1 % HEX2 [2] $end
$var wire 1 & HEX2 [3] $end
$var wire 1 ' HEX2 [4] $end
$var wire 1 ( HEX2 [5] $end
$var wire 1 ) HEX2 [6] $end
$var wire 1 * HEX3 [0] $end
$var wire 1 + HEX3 [1] $end
$var wire 1 , HEX3 [2] $end
$var wire 1 - HEX3 [3] $end
$var wire 1 . HEX3 [4] $end
$var wire 1 / HEX3 [5] $end
$var wire 1 0 HEX3 [6] $end
$var wire 1 1 sampler $end
$scope module i1 $end
$var wire 1 2 gnd $end
$var wire 1 3 vcc $end
$var wire 1 4 unknown $end
$var tri1 1 5 devclrn $end
$var tri1 1 6 devpor $end
$var tri1 1 7 devoe $end
$var wire 1 8 HEX2[6]~output_o $end
$var wire 1 9 HEX2[5]~output_o $end
$var wire 1 : HEX2[4]~output_o $end
$var wire 1 ; HEX2[3]~output_o $end
$var wire 1 < HEX2[2]~output_o $end
$var wire 1 = HEX2[1]~output_o $end
$var wire 1 > HEX2[0]~output_o $end
$var wire 1 ? HEX3[6]~output_o $end
$var wire 1 @ HEX3[5]~output_o $end
$var wire 1 A HEX3[4]~output_o $end
$var wire 1 B HEX3[3]~output_o $end
$var wire 1 C HEX3[2]~output_o $end
$var wire 1 D HEX3[1]~output_o $end
$var wire 1 E HEX3[0]~output_o $end
$var wire 1 F CLOck_50_2~input_o $end
$var wire 1 G myclock|CLK_5hz~0_combout $end
$var wire 1 H myclock|CLK_5hz~feeder_combout $end
$var wire 1 I myclock|CLK_5hz~q $end
$var wire 1 J myclock|CLK_5hz~clkctrl_outclk $end
$var wire 1 K Add0~0_combout $end
$var wire 1 L KEY[1]~input_o $end
$var wire 1 M Add0~1 $end
$var wire 1 N Add0~2_combout $end
$var wire 1 O Add0~3 $end
$var wire 1 P Add0~4_combout $end
$var wire 1 Q Add0~9 $end
$var wire 1 R Add0~11 $end
$var wire 1 S Add0~12_combout $end
$var wire 1 T Equal0~0_combout $end
$var wire 1 U temp~1_combout $end
$var wire 1 V Add0~10_combout $end
$var wire 1 W temp~2_combout $end
$var wire 1 X temp~3_combout $end
$var wire 1 Y Add0~5 $end
$var wire 1 Z Add0~6_combout $end
$var wire 1 [ Add0~7 $end
$var wire 1 \ Add0~8_combout $end
$var wire 1 ] temp~0_combout $end
$var wire 1 ^ Mod0|auto_generated|divider|divider|add_sub_3_result_int[1]~1 $end
$var wire 1 _ Mod0|auto_generated|divider|divider|add_sub_3_result_int[2]~3 $end
$var wire 1 ` Mod0|auto_generated|divider|divider|add_sub_3_result_int[3]~5 $end
$var wire 1 a Mod0|auto_generated|divider|divider|add_sub_3_result_int[4]~6_combout $end
$var wire 1 b Mod0|auto_generated|divider|divider|StageOut[24]~38_combout $end
$var wire 1 c Mod0|auto_generated|divider|divider|add_sub_3_result_int[3]~4_combout $end
$var wire 1 d Mod0|auto_generated|divider|divider|StageOut[24]~39_combout $end
$var wire 1 e Mod0|auto_generated|divider|divider|add_sub_3_result_int[2]~2_combout $end
$var wire 1 f Mod0|auto_generated|divider|divider|StageOut[23]~41_combout $end
$var wire 1 g Mod0|auto_generated|divider|divider|StageOut[23]~40_combout $end
$var wire 1 h Mod0|auto_generated|divider|divider|add_sub_3_result_int[1]~0_combout $end
$var wire 1 i Mod0|auto_generated|divider|divider|StageOut[22]~43_combout $end
$var wire 1 j Mod0|auto_generated|divider|divider|StageOut[22]~42_combout $end
$var wire 1 k Mod0|auto_generated|divider|divider|StageOut[21]~45_combout $end
$var wire 1 l Mod0|auto_generated|divider|divider|StageOut[21]~44_combout $end
$var wire 1 m Mod0|auto_generated|divider|divider|add_sub_4_result_int[1]~1 $end
$var wire 1 n Mod0|auto_generated|divider|divider|add_sub_4_result_int[2]~3 $end
$var wire 1 o Mod0|auto_generated|divider|divider|add_sub_4_result_int[3]~5 $end
$var wire 1 p Mod0|auto_generated|divider|divider|add_sub_4_result_int[4]~7 $end
$var wire 1 q Mod0|auto_generated|divider|divider|add_sub_4_result_int[5]~8_combout $end
$var wire 1 r Mod0|auto_generated|divider|divider|add_sub_4_result_int[4]~6_combout $end
$var wire 1 s Mod0|auto_generated|divider|divider|StageOut[32]~46_combout $end
$var wire 1 t Mod0|auto_generated|divider|divider|StageOut[32]~70_combout $end
$var wire 1 u Mod0|auto_generated|divider|divider|StageOut[31]~71_combout $end
$var wire 1 v Mod0|auto_generated|divider|divider|add_sub_4_result_int[3]~4_combout $end
$var wire 1 w Mod0|auto_generated|divider|divider|StageOut[31]~47_combout $end
$var wire 1 x Mod0|auto_generated|divider|divider|add_sub_4_result_int[2]~2_combout $end
$var wire 1 y Mod0|auto_generated|divider|divider|StageOut[30]~48_combout $end
$var wire 1 z Mod0|auto_generated|divider|divider|StageOut[30]~72_combout $end
$var wire 1 { Mod0|auto_generated|divider|divider|StageOut[29]~49_combout $end
$var wire 1 | Mod0|auto_generated|divider|divider|add_sub_4_result_int[1]~0_combout $end
$var wire 1 } Mod0|auto_generated|divider|divider|StageOut[29]~50_combout $end
$var wire 1 ~ Mod0|auto_generated|divider|divider|StageOut[28]~52_combout $end
$var wire 1 !! Mod0|auto_generated|divider|divider|StageOut[28]~51_combout $end
$var wire 1 "! Mod0|auto_generated|divider|divider|add_sub_5_result_int[1]~1 $end
$var wire 1 #! Mod0|auto_generated|divider|divider|add_sub_5_result_int[2]~3 $end
$var wire 1 $! Mod0|auto_generated|divider|divider|add_sub_5_result_int[3]~5 $end
$var wire 1 %! Mod0|auto_generated|divider|divider|add_sub_5_result_int[4]~7 $end
$var wire 1 &! Mod0|auto_generated|divider|divider|add_sub_5_result_int[5]~9 $end
$var wire 1 '! Mod0|auto_generated|divider|divider|add_sub_5_result_int[6]~10_combout $end
$var wire 1 (! Mod0|auto_generated|divider|divider|StageOut[35]~59_combout $end
$var wire 1 )! Mod0|auto_generated|divider|divider|StageOut[35]~60_combout $end
$var wire 1 *! Mod0|auto_generated|divider|divider|add_sub_6_result_int[1]~0_combout $end
$var wire 1 +! Mod0|auto_generated|divider|divider|StageOut[40]~67_combout $end
$var wire 1 ,! Mod0|auto_generated|divider|divider|add_sub_5_result_int[5]~8_combout $end
$var wire 1 -! Mod0|auto_generated|divider|divider|StageOut[40]~53_combout $end
$var wire 1 .! Mod0|auto_generated|divider|divider|StageOut[39]~68_combout $end
$var wire 1 /! Mod0|auto_generated|divider|divider|add_sub_5_result_int[4]~6_combout $end
$var wire 1 0! Mod0|auto_generated|divider|divider|StageOut[39]~54_combout $end
$var wire 1 1! Mod0|auto_generated|divider|divider|add_sub_5_result_int[3]~4_combout $end
$var wire 1 2! Mod0|auto_generated|divider|divider|StageOut[38]~55_combout $end
$var wire 1 3! Mod0|auto_generated|divider|divider|StageOut[38]~69_combout $end
$var wire 1 4! Mod0|auto_generated|divider|divider|StageOut[37]~73_combout $end
$var wire 1 5! Mod0|auto_generated|divider|divider|add_sub_5_result_int[2]~2_combout $end
$var wire 1 6! Mod0|auto_generated|divider|divider|StageOut[37]~56_combout $end
$var wire 1 7! Mod0|auto_generated|divider|divider|add_sub_5_result_int[1]~0_combout $end
$var wire 1 8! Mod0|auto_generated|divider|divider|StageOut[36]~58_combout $end
$var wire 1 9! Mod0|auto_generated|divider|divider|StageOut[36]~57_combout $end
$var wire 1 :! Mod0|auto_generated|divider|divider|add_sub_6_result_int[1]~1 $end
$var wire 1 ;! Mod0|auto_generated|divider|divider|add_sub_6_result_int[2]~3 $end
$var wire 1 <! Mod0|auto_generated|divider|divider|add_sub_6_result_int[3]~5 $end
$var wire 1 =! Mod0|auto_generated|divider|divider|add_sub_6_result_int[4]~7 $end
$var wire 1 >! Mod0|auto_generated|divider|divider|add_sub_6_result_int[5]~9 $end
$var wire 1 ?! Mod0|auto_generated|divider|divider|add_sub_6_result_int[6]~11 $end
$var wire 1 @! Mod0|auto_generated|divider|divider|add_sub_6_result_int[7]~12_combout $end
$var wire 1 A! Mod0|auto_generated|divider|divider|StageOut[43]~65_combout $end
$var wire 1 B! Mod0|auto_generated|divider|divider|StageOut[47]~62_combout $end
$var wire 1 C! Mod0|auto_generated|divider|divider|StageOut[48]~61_combout $end
$var wire 1 D! Mod0|auto_generated|divider|divider|StageOut[46]~63_combout $end
$var wire 1 E! digit1display|Equal0~1_combout $end
$var wire 1 F! Mod0|auto_generated|divider|divider|add_sub_6_result_int[3]~4_combout $end
$var wire 1 G! Mod0|auto_generated|divider|divider|StageOut[45]~64_combout $end
$var wire 1 H! Mod0|auto_generated|divider|divider|add_sub_6_result_int[4]~6_combout $end
$var wire 1 I! Mod0|auto_generated|divider|divider|add_sub_6_result_int[5]~8_combout $end
$var wire 1 J! Mod0|auto_generated|divider|divider|add_sub_6_result_int[6]~10_combout $end
$var wire 1 K! digit1display|Equal0~0_combout $end
$var wire 1 L! digit1display|Equal1~2_combout $end
$var wire 1 M! Mod0|auto_generated|divider|divider|add_sub_6_result_int[2]~2_combout $end
$var wire 1 N! Mod0|auto_generated|divider|divider|StageOut[44]~66_combout $end
$var wire 1 O! digit1display|Equal10~0_combout $end
$var wire 1 P! digit1display|Equal10~1_combout $end
$var wire 1 Q! digit1display|WideOr3~0_combout $end
$var wire 1 R! digit1display|WideNor0~1_combout $end
$var wire 1 S! digit1display|WideNor0~2_combout $end
$var wire 1 T! digit1display|Equal0~2_combout $end
$var wire 1 U! digit1display|WideOr2~0_combout $end
$var wire 1 V! digit1display|WideNor0~0_combout $end
$var wire 1 W! digit1display|WideOr2~1_combout $end
$var wire 1 X! digit1display|WideOr5~combout $end
$var wire 1 Y! digit1display|Equal1~4_combout $end
$var wire 1 Z! digit1display|Equal0~3_combout $end
$var wire 1 [! digit1display|WideOr4~combout $end
$var wire 1 \! digit1display|WideOr3~combout $end
$var wire 1 ]! digit1display|WideOr2~2_combout $end
$var wire 1 ^! digit1display|WideOr2~3_combout $end
$var wire 1 _! digit1display|Equal1~3_combout $end
$var wire 1 `! digit1display|WideOr1~0_combout $end
$var wire 1 a! digit1display|WideOr1~combout $end
$var wire 1 b! digit1display|WideOr0~0_combout $end
$var wire 1 c! digit1display|WideOr0~combout $end
$var wire 1 d! Div0|auto_generated|divider|divider|add_sub_3_result_int[1]~1 $end
$var wire 1 e! Div0|auto_generated|divider|divider|add_sub_3_result_int[2]~3 $end
$var wire 1 f! Div0|auto_generated|divider|divider|add_sub_3_result_int[3]~5 $end
$var wire 1 g! Div0|auto_generated|divider|divider|add_sub_3_result_int[4]~6_combout $end
$var wire 1 h! Div0|auto_generated|divider|divider|StageOut[18]~26_combout $end
$var wire 1 i! Div0|auto_generated|divider|divider|add_sub_3_result_int[3]~4_combout $end
$var wire 1 j! Div0|auto_generated|divider|divider|StageOut[18]~27_combout $end
$var wire 1 k! Div0|auto_generated|divider|divider|add_sub_3_result_int[2]~2_combout $end
$var wire 1 l! Div0|auto_generated|divider|divider|StageOut[17]~29_combout $end
$var wire 1 m! Div0|auto_generated|divider|divider|StageOut[17]~28_combout $end
$var wire 1 n! Div0|auto_generated|divider|divider|StageOut[16]~30_combout $end
$var wire 1 o! Div0|auto_generated|divider|divider|add_sub_3_result_int[1]~0_combout $end
$var wire 1 p! Div0|auto_generated|divider|divider|StageOut[16]~31_combout $end
$var wire 1 q! Div0|auto_generated|divider|divider|StageOut[15]~33_combout $end
$var wire 1 r! Div0|auto_generated|divider|divider|StageOut[15]~32_combout $end
$var wire 1 s! Div0|auto_generated|divider|divider|add_sub_4_result_int[1]~1 $end
$var wire 1 t! Div0|auto_generated|divider|divider|add_sub_4_result_int[2]~3 $end
$var wire 1 u! Div0|auto_generated|divider|divider|add_sub_4_result_int[3]~5 $end
$var wire 1 v! Div0|auto_generated|divider|divider|add_sub_4_result_int[4]~7_cout $end
$var wire 1 w! Div0|auto_generated|divider|divider|add_sub_4_result_int[5]~8_combout $end
$var wire 1 x! Div0|auto_generated|divider|divider|add_sub_4_result_int[3]~4_combout $end
$var wire 1 y! Div0|auto_generated|divider|divider|StageOut[23]~34_combout $end
$var wire 1 z! Div0|auto_generated|divider|divider|StageOut[23]~47_combout $end
$var wire 1 {! Div0|auto_generated|divider|divider|add_sub_4_result_int[2]~2_combout $end
$var wire 1 |! Div0|auto_generated|divider|divider|StageOut[22]~35_combout $end
$var wire 1 }! Div0|auto_generated|divider|divider|StageOut[22]~48_combout $end
$var wire 1 ~! Div0|auto_generated|divider|divider|StageOut[21]~36_combout $end
$var wire 1 !" Div0|auto_generated|divider|divider|add_sub_4_result_int[1]~0_combout $end
$var wire 1 "" Div0|auto_generated|divider|divider|StageOut[21]~37_combout $end
$var wire 1 #" Div0|auto_generated|divider|divider|StageOut[20]~38_combout $end
$var wire 1 $" Div0|auto_generated|divider|divider|StageOut[20]~39_combout $end
$var wire 1 %" Div0|auto_generated|divider|divider|add_sub_5_result_int[1]~1 $end
$var wire 1 &" Div0|auto_generated|divider|divider|add_sub_5_result_int[2]~3 $end
$var wire 1 '" Div0|auto_generated|divider|divider|add_sub_5_result_int[3]~5 $end
$var wire 1 (" Div0|auto_generated|divider|divider|add_sub_5_result_int[4]~7_cout $end
$var wire 1 )" Div0|auto_generated|divider|divider|add_sub_5_result_int[5]~8_combout $end
$var wire 1 *" Div0|auto_generated|divider|divider|StageOut[28]~46_combout $end
$var wire 1 +" Div0|auto_generated|divider|divider|add_sub_5_result_int[3]~4_combout $end
$var wire 1 ," Div0|auto_generated|divider|divider|StageOut[28]~40_combout $end
$var wire 1 -" Div0|auto_generated|divider|divider|StageOut[27]~49_combout $end
$var wire 1 ." Div0|auto_generated|divider|divider|add_sub_5_result_int[2]~2_combout $end
$var wire 1 /" Div0|auto_generated|divider|divider|StageOut[27]~41_combout $end
$var wire 1 0" Div0|auto_generated|divider|divider|StageOut[26]~42_combout $end
$var wire 1 1" Div0|auto_generated|divider|divider|add_sub_5_result_int[1]~0_combout $end
$var wire 1 2" Div0|auto_generated|divider|divider|StageOut[26]~43_combout $end
$var wire 1 3" Div0|auto_generated|divider|divider|StageOut[25]~44_combout $end
$var wire 1 4" Div0|auto_generated|divider|divider|StageOut[25]~45_combout $end
$var wire 1 5" Div0|auto_generated|divider|divider|add_sub_6_result_int[1]~1_cout $end
$var wire 1 6" Div0|auto_generated|divider|divider|add_sub_6_result_int[2]~3_cout $end
$var wire 1 7" Div0|auto_generated|divider|divider|add_sub_6_result_int[3]~5_cout $end
$var wire 1 8" Div0|auto_generated|divider|divider|add_sub_6_result_int[4]~7_cout $end
$var wire 1 9" Div0|auto_generated|divider|divider|add_sub_6_result_int[5]~8_combout $end
$var wire 1 :" digit2display|WideOr5~combout $end
$var wire 1 ;" digit2display|WideOr4~combout $end
$var wire 1 <" digit2display|WideOr3~0_combout $end
$var wire 1 =" digit2display|WideOr2~0_combout $end
$var wire 1 >" digit2display|WideOr1~0_combout $end
$var wire 1 ?" digit2display|WideOr0~combout $end
$var wire 1 @" digit1display|HEX [0] $end
$var wire 1 A" digit1display|HEX [1] $end
$var wire 1 B" digit1display|HEX [2] $end
$var wire 1 C" digit1display|HEX [3] $end
$var wire 1 D" digit1display|HEX [4] $end
$var wire 1 E" digit1display|HEX [5] $end
$var wire 1 F" digit1display|HEX [6] $end
$var wire 1 G" digit2display|HEX [0] $end
$var wire 1 H" digit2display|HEX [1] $end
$var wire 1 I" digit2display|HEX [2] $end
$var wire 1 J" digit2display|HEX [3] $end
$var wire 1 K" digit2display|HEX [4] $end
$var wire 1 L" digit2display|HEX [5] $end
$var wire 1 M" digit2display|HEX [6] $end
$var wire 1 N" temp [6] $end
$var wire 1 O" temp [5] $end
$var wire 1 P" temp [4] $end
$var wire 1 Q" temp [3] $end
$var wire 1 R" temp [2] $end
$var wire 1 S" temp [1] $end
$var wire 1 T" temp [0] $end
$upscope $end
$upscope $end
$enddefinitions $end
#0
$dumpvars
0!
b0 "
1)
0(
0'
0&
0%
0$
0#
10
0/
0.
0-
0,
0+
0*
x1
02
13
x4
15
16
17
18
09
0:
0;
0<
0=
0>
1?
0@
0A
0B
0C
0D
0E
0F
1G
1H
0I
0J
1K
0L
0M
0N
1O
0P
0Q
1R
0S
0T
0U
0V
1W
0X
0Y
0Z
1[
0\
0]
0^
1_
0`
1a
0b
0c
0d
1e
0f
0g
1h
0i
0j
0k
0l
0m
1n
0o
1p
1q
1r
0s
0t
0u
0v
0w
1x
0y
0z
0{
1|
0}
0~
0!!
0"!
1#!
0$!
1%!
0&!
1'!
0(!
0)!
1*!
0+!
1,!
0-!
0.!
1/!
00!
01!
02!
03!
04!
15!
06!
17!
08!
09!
0:!
1;!
0<!
1=!
0>!
1?!
1@!
0A!
0B!
0C!
0D!
1E!
0F!
0G!
1H!
1I!
1J!
1K!
1L!
1M!
0N!
0O!
0P!
0Q!
0R!
0S!
1T!
1U!
0V!
1W!
1X!
0Y!
0Z!
0[!
1\!
1]!
0^!
0_!
0`!
0a!
1b!
0c!
0d!
1e!
0f!
1g!
0h!
0i!
0j!
1k!
0l!
0m!
0n!
1o!
0p!
0q!
0r!
0s!
1t!
0u!
1v!
1w!
0x!
0y!
0z!
1{!
0|!
0}!
0~!
1!"
0""
0#"
0$"
0%"
1&"
0'"
1("
1)"
0*"
0+"
0,"
0-"
1."
0/"
00"
11"
02"
03"
04"
05"
16"
07"
18"
19"
1:"
0;"
1<"
0="
0>"
0?"
zF"
zE"
zD"
zC"
0B"
zA"
z@"
zM"
zL"
zK"
zJ"
0I"
zH"
zG"
0T"
0S"
0R"
0Q"
0P"
0O"
0N"
$end
#5000
1!
1F
01
1I
1J
0G
0H
#10000
b1 "
0!
1L
0F
11
#15000
1!
1F
01
0I
0J
1G
1H
#20000
0!
0F
11
#25000
1!
1F
01
1I
1J
0G
0H
1T"
1Z!
1V!
0U!
0L!
1M
0K
0b!
0W!
0\!
1Q!
1N
0X!
0]!
1:
08
1'
0)
1c!
1[!
1X!
1>
19
18
1#
1(
1)
1^!
1;
1&
#30000
0!
0F
11
#35000
1!
1F
01
0I
0J
1G
1H
#40000
0!
0F
11
#45000
1!
1F
01
1I
1J
0G
0H
1S"
0T"
13"
1Y!
1A!
1(!
0O
0N
0Z!
0V!
1U!
1L!
0M
1K
15"
1b!
1_!
1\!
0Q!
1:!
0*!
1P
1O
1N
1a!
1B"
06"
1W!
0;!
0M!
1X
0P
0:
1=
1<
0'
1$
1%
0c!
0a!
1]!
1F!
0X
0>
0=
0#
0$
0X!
08
0)
0^!
0;
0&
#50000
0!
0F
11
#55000
1!
1F
01
0I
0J
1G
1H
#60000
0!
0F
11
#65000
1!
1F
01
1I
1J
0G
0H
1T"
1Z!
1R!
0L!
1M
0K
1S!
0_!
0\!
1Q!
0O
0N
1P
1:
1'
0B"
1X
1T
0<
0%
0W
#70000
0!
0F
11
#75000
1!
1F
01
0I
0J
1G
1H
#80000
0!
0F
11
#85000
1!
1F
01
1I
1J
0G
0H
1R"
0S"
0T"
10"
1#"
19!
1!!
1Y
0P
03"
0Y!
0A!
0(!
1O
1N
0Z!
0R!
1L!
0M
1K
1%"
01"
1N!
1M!
1"!
07!
1Z
0X
0T
05"
1\!
0Q!
0:!
1*!
0Y
1P
0S!
0N
0[!
1X!
0&"
0."
0b!
0]!
0\!
1V!
1Q!
0#!
05!
1W
0M!
0Z
1X
0:
09
18
0'
0(
1)
0X!
1+"
11!
1:
08
1'
0)
1c!
1^!
1>
1;
1#
1&
#90000
0!
0F
11
#95000
1!
1F
01
0I
0J
1G
1H
#100000
0!
0F
11
#105000
1!
1F
01
1I
1J
0G
0H
1T"
1Z!
0V!
1R!
0L!
1M
0K
1b!
1`!
0W!
1S!
1]!
1N
1T
1a!
1B"
0]!
1W!
0T
0W
1=
1<
1$
1%
0c!
1[!
1X!
0B"
0^!
1]!
1W
0>
19
18
0<
0;
0#
1(
1)
0%
0&
1^!
0[!
0X!
1;
09
08
1&
0(
0)
0^!
0;
0&
#110000
0!
0F
11
#115000
1!
1F
01
0I
0J
1G
1H
#120000
0!
0F
11
#125000
1!
1F
01
1I
1J
0G
0H
1S"
0T"
13"
1A!
1(!
0O
0N
0Z!
1V!
0R!
1L!
0M
1K
15"
1\!
0V!
0Q!
1:!
0*!
1Y
0P
0S!
1O
1N
1M!
1Z
0X
0Y
1P
0:
0'
0Z
1X
#130000
0!
0F
11
#135000
1!
1F
01
0I
0J
1G
1H
#140000
0!
0F
11
#145000
1!
1F
01
1I
1J
0G
0H
1T"
1Z!
1V!
0U!
0L!
1M
0K
0`!
0W!
0\!
1Q!
0O
0N
0]!
1Y
0P
1T
1:
1'
0a!
1[!
1X!
1Z
0X
0T
0W
0=
19
18
0$
1(
1)
1^!
1W
1;
1&
#150000
0!
0F
11
#155000
1!
1F
01
0I
0J
1G
1H
#160000
0!
0F
11
#165000
1!
1F
01
1I
1J
0G
0H
1Q"
0R"
0S"
0T"
1-"
1~!
1r!
14!
1{
1l
0[
0Z
00"
0#"
09!
0!!
0Y
1P
03"
0A!
0(!
1O
1N
0Z!
0V!
1U!
1L!
0M
1K
17"
1."
1s!
0!"
1G!
1<!
0F!
15!
1m
0|
1\
0%"
11"
0N!
0M!
0"!
17!
1[
1Z
1X
05"
0b!
1V!
0:!
1*!
0P
0N
1c!
1a!
1B"
08"
0t!
0{!
0T!
1R!
1O!
0L!
0=!
0H!
0n
0x
0."
1b!
1\!
0V!
0Q!
05!
0\
16"
1W!
1;!
1M!
0X
1>
1=
1<
1#
1$
1%
0a!
0B"
09"
1x!
1S!
1P!
1]!
0\!
1Q!
1>!
0I!
1v
07"
0<!
1F!
0:
0=
0<
0'
0$
0%
0[!
0X!
0c!
0<"
1\!
0?!
0J!
18"
1=!
1H!
1:
09
08
0>
1'
0(
0)
0#
1?"
1="
1;"
0^!
0@!
19"
0>!
1I!
1A
0:
1E
1B
1@
0;
1.
0'
1*
1-
1/
0&
1Y!
1N!
0K!
1A!
1<"
1?!
1J!
0?"
0="
0;"
0Y!
0R!
0Q!
0O!
0S!
1@!
0A
0E
0B
0@
0.
0*
0-
0/
1^!
0P!
0N!
1K!
0A!
1;
1&
0^!
0\!
1Q!
1R!
1O!
0;
0&
0W!
1S!
1P!
1:
1'
1c!
1a!
1B"
0]!
1W!
1\!
1>
1=
1<
1#
1$
1%
1[!
1X!
0c!
0a!
0B"
1]!
0:
19
18
0>
0=
0<
0'
1(
1)
0#
0$
0%
1^!
0[!
0X!
1;
09
08
1&
0(
0)
0^!
0;
0&
#170000
0!
0F
11
#175000
1!
1F
01
0I
0J
1G
1H
#180000
0!
0F
11
#185000
1!
1F
01
1I
1J
0G
0H
1T"
0P!
1M
0K
1^!
0\!
1N
1;
1&
1:
1'
#190000
0!
0F
11
#195000
1!
1F
01
0I
0J
1G
1H
#200000
0!
0F
11
#205000
1!
1F
01
1I
1J
0G
0H
1S"
0T"
13"
1Y!
1A!
1(!
0O
0N
1P!
0M
1K
0^!
15"
1\!
0R!
0Q!
1:!
0*!
1P
1O
1N
0;
0&
1^!
06"
0S!
0;!
0M!
1X
0P
0:
1;
0'
1&
17"
1<!
0F!
0X
08"
0=!
0H!
09"
1>!
0I!
0<"
0?!
0J!
1?"
1="
1;"
0@!
1A
1E
1B
1@
1.
1*
1-
1/
0Y!
0G!
0A!
1T!
0O!
1L!
1Q!
0^!
0P!
0Q!
0W!
0;
0&
1X!
1c!
1a!
1B"
1W!
0]!
18
1>
1=
1<
1)
1#
1$
1%
0c!
0a!
0B"
1[!
1]!
0>
0=
0<
19
0#
0$
0%
1(
0[!
1^!
09
1;
0(
1&
0^!
0;
0&
#210000
0!
0F
11
#215000
1!
1F
01
0I
0J
1G
1H
#220000
0!
0F
11
#225000
1!
1F
01
1I
1J
0G
0H
1T"
1Z!
1V!
0U!
0L!
1M
0K
0b!
0W!
0\!
1Q!
0O
0N
0X!
0]!
1P
1:
08
1'
0)
1c!
1[!
1X!
1X
1>
19
18
1#
1(
1)
1^!
1;
1&
#230000
0!
0F
11
#235000
1!
1F
01
0I
0J
1G
1H
#240000
0!
0F
11
#245000
1!
1F
01
1I
1J
0G
0H
1R"
0S"
0T"
10"
1#"
19!
1!!
1Y
0P
03"
0(!
1O
1N
0Z!
0V!
1U!
1L!
0M
1K
1%"
01"
1M!
1"!
07!
0[
0Z
0X
05"
0:!
1*!
0Y
1P
1b!
1\!
0Q!
0N
1a!
1B"
1."
1N!
15!
1\
0M!
1Y!
1A!
1[
1Z
1X
1W!
0:
1=
1<
0'
1$
1%
0c!
0a!
0B"
1`!
1]!
0Y!
0N!
0\
0>
0=
0<
0#
0$
0%
0X!
0`!
1_!
1Y!
08
0)
1a!
0^!
0[!
1=
0;
09
1$
0&
0(
0a!
1B"
1[!
0=
1<
19
0$
1%
1(
#250000
0!
0F
11
#255000
1!
1F
01
0I
0J
1G
1H
#260000
0!
0F
11
#265000
1!
1F
01
1I
1J
0G
0H
1T"
1Z!
1R!
0L!
1M
0K
1S!
0_!
0\!
1Q!
1N
1:
1'
0B"
0<
0%
#270000
0!
0F
11
#275000
1!
1F
01
0I
0J
1G
1H
#280000
0!
0F
11
#285000
1!
1F
01
1I
1J
0G
0H
1S"
0T"
13"
1(!
0O
0N
0Z!
0R!
1L!
0M
1K
15"
1:!
0*!
1Y
0P
0S!
1_!
1\!
0Q!
1O
1N
1M!
0Y!
0A!
0[
0Z
0X
0Y
1P
0:
0'
1B"
1N!
0_!
1\
1[
1Z
1X
1<
1%
0[!
1X!
0b!
0]!
0\!
1V!
1Q!
0\
09
18
0(
1)
0X!
0B"
1:
08
0<
1'
0)
0%
1c!
1^!
1>
1;
1#
1&
#290000
0!
0F
11
#295000
1!
1F
01
0I
0J
1G
1H
#300000
0!
0F
11
#305000
1!
1F
01
1I
1J
0G
0H
1T"
1Z!
0V!
1R!
0L!
1M
0K
1b!
1`!
0W!
1S!
1]!
0O
0N
1a!
1B"
0]!
1W!
1Y
0P
1=
1<
1$
1%
0c!
1[!
1X!
0B"
0^!
1]!
0[
0Z
0X
0>
19
18
0<
0;
0#
1(
1)
0%
0&
1^!
0[!
0X!
1\
1;
09
08
1&
0(
0)
0^!
0;
0&
#310000
0!
0F
11
#315000
1!
1F
01
0I
0J
1G
1H
#320000
0!
0F
11
#325000
1!
1F
01
1I
1J
0G
0H
0Q"
0R"
1P"
0S"
0T"
0-"
0~!
0r!
04!
0{
0l
1[
1Z
00"
0#"
09!
0!!
0Y
1P
1}!
1n!
1d!
0o!
1z
1j
1^
0h
1Q
0\
03"
0(!
1O
1N
0Z!
1V!
0R!
1L!
0M
1K
07"
0."
0s!
1!"
0<!
1F!
05!
0m
1|
0Q
1\
0%"
11"
0M!
0"!
17!
0Z
1X
1*"
1'"
0+"
1{!
0e!
0k!
1D!
13!
1$!
01!
1x
0_
0e
1V
05"
0:!
1*!
0P
0b!
0`!
0S!
0]!
0N
0{!
1G!
0x
0V
1U
1&"
1."
0N!
1#!
15!
0("
1i!
0%!
0/!
1c
0X
16"
1;!
1M!
1A!
1c!
0a!
1^!
0T!
1O!
0L!
0U
0'"
1+"
1b!
1_!
1]!
1\!
1Y!
0V!
0Q!
0$!
11!
0)"
1&!
0,!
0F!
1N!
1>
0=
1;
1#
0$
1&
1P!
0_!
0\!
1Q!
1("
1,"
1%!
1/!
12"
1/"
0*"
0'!
0G!
0Y!
0O!
0:
0'
0c!
1B"
0?"
0="
0:"
1\!
0Q!
0W!
1)"
0&!
1,!
1B!
10!
06"
18!
16!
03!
12!
1T!
1L!
0P!
1:
0>
1<
0E
0B
0?
1'
0#
1%
0*
0-
00
1c!
1a!
0^!
1W!
0]!
02"
0/"
0,"
1*"
1'!
1C!
1-!
1I!
17"
0;!
0M!
1F!
1`!
0:
1>
1=
0;
0'
1#
1$
0&
0c!
0a!
0B"
1[!
1X!
1?"
1="
1:"
1]!
16"
07"
0C!
0B!
08!
06!
13!
02!
00!
0-!
1J!
0K!
1<!
0F!
0N!
1G!
0>
0=
0<
19
18
1E
1B
1?
0#
0$
0%
1(
1)
1*
1-
10
0[!
0X!
1^!
1a!
1;!
1M!
0G!
0<!
1F!
1H!
0I!
0J!
0T!
0L!
0`!
1_!
1Y!
09
08
1;
1=
0(
0)
1&
1$
0^!
0F!
1N!
0H!
1G!
0_!
0\!
1Q!
0;
0&
0a!
1B"
0G!
0Y!
1K!
0W!
1:
0=
1<
1'
0$
1%
1c!
1a!
1T!
1L!
0]!
1>
1=
1#
1$
1[!
1X!
1`!
1\!
0Q!
19
18
1(
1)
1^!
1W!
0:
1;
0'
1&
0c!
0B"
1]!
0>
0<
0#
0%
0[!
0X!
09
08
0(
0)
0^!
0;
0&
#330000
0!
0F
11
#335000
1!
1F
01
0I
0J
1G
1H
#340000
0!
0F
11
#345000
1!
1F
01
1I
1J
0G
0H
1T"
1Z!
1V!
0U!
0L!
1M
0K
0`!
0W!
0\!
1Q!
1N
0]!
1:
1'
0a!
1[!
1X!
0=
19
18
0$
1(
1)
1^!
1;
1&
#350000
0!
0F
11
#355000
1!
1F
01
0I
0J
1G
1H
#360000
0!
0F
11
