Lab8/simulation/qsim/Lab8_2.msim.vcd
$comment
	File created using the following command:
		vcd file Lab8_2.msim.vcd -direction
$end
$date
	Sat Apr 27 16:09:06 2024
$end
$version
	ModelSim Version 10.1d
$end
$timescale
	1ps
$end
$scope module Lab8_2_vlg_vec_tst $end
$var reg 1 ! CLOCK_50 $end
$var reg 1 " KEY [2:2] $end
$var wire 1 # GPIO_0 [21] $end
$var wire 1 $ GPIO_0 [20] $end
$var wire 1 % GPIO_0 [19] $end
$var wire 1 & GPIO_0 [18] $end
$var wire 1 ' GPIO_0 [17] $end
$var wire 1 ( GPIO_0 [16] $end
$var wire 1 ) GPIO_0 [15] $end
$var wire 1 * GPIO_0 [14] $end
$var wire 1 + GPIO_0 [13] $end
$var wire 1 , GPIO_0 [12] $end
$var wire 1 - GPIO_0 [11] $end
$var wire 1 . GPIO_0 [10] $end
$var wire 1 / GPIO_0 [9] $end
$var wire 1 0 GPIO_1 [21] $end
$var wire 1 1 GPIO_1 [20] $end
$var wire 1 2 GPIO_1 [19] $end
$var wire 1 3 GPIO_1 [18] $end
$var wire 1 4 GPIO_1 [17] $end
$var wire 1 5 GPIO_1 [16] $end
$var wire 1 6 GPIO_1 [15] $end
$var wire 1 7 GPIO_1 [14] $end
$var wire 1 8 GPIO_1 [13] $end
$var wire 1 9 GPIO_1 [12] $end
$var wire 1 : GPIO_1 [11] $end
$var wire 1 ; GPIO_1 [10] $end
$var wire 1 < GPIO_1 [9] $end
$var wire 1 = sampler $end
$scope module i1 $end
$var wire 1 > gnd $end
$var wire 1 ? vcc $end
$var wire 1 @ unknown $end
$var tri1 1 A devclrn $end
$var tri1 1 B devpor $end
$var tri1 1 C devoe $end
$var wire 1 D GPIO_0[9]~output_o $end
$var wire 1 E GPIO_0[10]~output_o $end
$var wire 1 F GPIO_0[11]~output_o $end
$var wire 1 G GPIO_0[12]~output_o $end
$var wire 1 H GPIO_0[13]~output_o $end
$var wire 1 I GPIO_0[14]~output_o $end
$var wire 1 J GPIO_0[15]~output_o $end
$var wire 1 K GPIO_0[16]~output_o $end
$var wire 1 L GPIO_0[17]~output_o $end
$var wire 1 M GPIO_0[18]~output_o $end
$var wire 1 N GPIO_0[19]~output_o $end
$var wire 1 O GPIO_0[20]~output_o $end
$var wire 1 P GPIO_0[21]~output_o $end
$var wire 1 Q GPIO_1[9]~output_o $end
$var wire 1 R GPIO_1[10]~output_o $end
$var wire 1 S GPIO_1[11]~output_o $end
$var wire 1 T GPIO_1[12]~output_o $end
$var wire 1 U GPIO_1[13]~output_o $end
$var wire 1 V GPIO_1[14]~output_o $end
$var wire 1 W GPIO_1[15]~output_o $end
$var wire 1 X GPIO_1[16]~output_o $end
$var wire 1 Y GPIO_1[17]~output_o $end
$var wire 1 Z GPIO_1[18]~output_o $end
$var wire 1 [ GPIO_1[19]~output_o $end
$var wire 1 \ GPIO_1[20]~output_o $end
$var wire 1 ] GPIO_1[21]~output_o $end
$var wire 1 ^ CLOCK_50~input_o $end
$var wire 1 _ CLOCK_50~inputclkctrl_outclk $end
$var wire 1 ` clkgen|CLK_1Khz~0_combout $end
$var wire 1 a clkgen|CLK_1Khz~feeder_combout $end
$var wire 1 b clkgen|CLK_1Khz~q $end
$var wire 1 c clkgen|CLK_1Khz~clkctrl_outclk $end
$var wire 1 d SCANLINE[0]~2_combout $end
$var wire 1 e SCANLINE[1]~0_combout $end
$var wire 1 f SCANLINE[2]~1_combout $end
$var wire 1 g Mux0~0_combout $end
$var wire 1 h clkgen|count_2hz[0]~25_combout $end
$var wire 1 i clkgen|count_2hz[0]~26 $end
$var wire 1 j clkgen|count_2hz[1]~27_combout $end
$var wire 1 k clkgen|count_2hz[1]~28 $end
$var wire 1 l clkgen|count_2hz[2]~29_combout $end
$var wire 1 m clkgen|count_2hz[2]~30 $end
$var wire 1 n clkgen|count_2hz[3]~31_combout $end
$var wire 1 o clkgen|count_2hz[3]~32 $end
$var wire 1 p clkgen|count_2hz[4]~33_combout $end
$var wire 1 q clkgen|count_2hz[4]~34 $end
$var wire 1 r clkgen|count_2hz[5]~35_combout $end
$var wire 1 s clkgen|count_2hz[5]~36 $end
$var wire 1 t clkgen|count_2hz[6]~37_combout $end
$var wire 1 u clkgen|count_2hz[6]~38 $end
$var wire 1 v clkgen|count_2hz[7]~39_combout $end
$var wire 1 w clkgen|count_2hz[7]~40 $end
$var wire 1 x clkgen|count_2hz[8]~41_combout $end
$var wire 1 y clkgen|count_2hz[8]~42 $end
$var wire 1 z clkgen|count_2hz[9]~43_combout $end
$var wire 1 { clkgen|count_2hz[9]~44 $end
$var wire 1 | clkgen|count_2hz[10]~45_combout $end
$var wire 1 } clkgen|count_2hz[10]~46 $end
$var wire 1 ~ clkgen|count_2hz[11]~47_combout $end
$var wire 1 !! clkgen|count_2hz[11]~48 $end
$var wire 1 "! clkgen|count_2hz[12]~49_combout $end
$var wire 1 #! clkgen|count_2hz[12]~50 $end
$var wire 1 $! clkgen|count_2hz[13]~51_combout $end
$var wire 1 %! clkgen|count_2hz[13]~52 $end
$var wire 1 &! clkgen|count_2hz[14]~53_combout $end
$var wire 1 '! clkgen|count_2hz[14]~54 $end
$var wire 1 (! clkgen|count_2hz[15]~55_combout $end
$var wire 1 )! clkgen|count_2hz[15]~56 $end
$var wire 1 *! clkgen|count_2hz[16]~57_combout $end
$var wire 1 +! clkgen|count_2hz[16]~58 $end
$var wire 1 ,! clkgen|count_2hz[17]~59_combout $end
$var wire 1 -! clkgen|count_2hz[17]~60 $end
$var wire 1 .! clkgen|count_2hz[18]~61_combout $end
$var wire 1 /! clkgen|count_2hz[18]~62 $end
$var wire 1 0! clkgen|count_2hz[19]~63_combout $end
$var wire 1 1! clkgen|LessThan1~5_combout $end
$var wire 1 2! clkgen|count_2hz[19]~64 $end
$var wire 1 3! clkgen|count_2hz[20]~65_combout $end
$var wire 1 4! clkgen|count_2hz[20]~66 $end
$var wire 1 5! clkgen|count_2hz[21]~67_combout $end
$var wire 1 6! clkgen|count_2hz[21]~68 $end
$var wire 1 7! clkgen|count_2hz[22]~69_combout $end
$var wire 1 8! clkgen|count_2hz[22]~70 $end
$var wire 1 9! clkgen|count_2hz[23]~71_combout $end
$var wire 1 :! clkgen|count_2hz[23]~72 $end
$var wire 1 ;! clkgen|count_2hz[24]~73_combout $end
$var wire 1 <! clkgen|LessThan1~6_combout $end
$var wire 1 =! clkgen|LessThan1~2_combout $end
$var wire 1 >! clkgen|LessThan1~1_combout $end
$var wire 1 ?! clkgen|LessThan1~0_combout $end
$var wire 1 @! clkgen|LessThan1~3_combout $end
$var wire 1 A! clkgen|LessThan1~4_combout $end
$var wire 1 B! clkgen|LessThan1~7_combout $end
$var wire 1 C! clkgen|CLK_2hz~0_combout $end
$var wire 1 D! clkgen|CLK_2hz~feeder_combout $end
$var wire 1 E! clkgen|CLK_2hz~q $end
$var wire 1 F! clkgen|CLK_2hz~clkctrl_outclk $end
$var wire 1 G! KEY[2]~input_o $end
$var wire 1 H! sor~0_combout $end
$var wire 1 I! sor~q $end
$var wire 1 J! number[0]~2_combout $end
$var wire 1 K! number[1]~1_combout $end
$var wire 1 L! number[2]~0_combout $end
$var wire 1 M! Mux21~0_combout $end
$var wire 1 N! Mux17~0_combout $end
$var wire 1 O! Mux21~1_combout $end
$var wire 1 P! Mux21~2_combout $end
$var wire 1 Q! Mux0~9_combout $end
$var wire 1 R! Mux23~0_combout $end
$var wire 1 S! Mux23~1_combout $end
$var wire 1 T! Mux12~0_combout $end
$var wire 1 U! Mux0~1_combout $end
$var wire 1 V! Mux0~2_combout $end
$var wire 1 W! Mux23~2_combout $end
$var wire 1 X! Mux0~3_combout $end
$var wire 1 Y! Mux23~3_combout $end
$var wire 1 Z! Mux0~4_combout $end
$var wire 1 [! Mux24~3_combout $end
$var wire 1 \! Mux24~4_combout $end
$var wire 1 ]! Mux24~7_combout $end
$var wire 1 ^! Mux11~0_combout $end
$var wire 1 _! Mux0~6_combout $end
$var wire 1 `! Mux19~0_combout $end
$var wire 1 a! Mux25~0_combout $end
$var wire 1 b! Mux22~0_combout $end
$var wire 1 c! Mux0~5_combout $end
$var wire 1 d! Mux20~2_combout $end
$var wire 1 e! Mux20~0_combout $end
$var wire 1 f! Mux20~1_combout $end
$var wire 1 g! Mux20~3_combout $end
$var wire 1 h! Mux19~1_combout $end
$var wire 1 i! Mux0~7_combout $end
$var wire 1 j! Mux0~8_combout $end
$var wire 1 k! number [2] $end
$var wire 1 l! number [1] $end
$var wire 1 m! number [0] $end
$var wire 1 n! SCANLINE [2] $end
$var wire 1 o! SCANLINE [1] $end
$var wire 1 p! SCANLINE [0] $end
$var wire 1 q! clkgen|count_2hz [24] $end
$var wire 1 r! clkgen|count_2hz [23] $end
$var wire 1 s! clkgen|count_2hz [22] $end
$var wire 1 t! clkgen|count_2hz [21] $end
$var wire 1 u! clkgen|count_2hz [20] $end
$var wire 1 v! clkgen|count_2hz [19] $end
$var wire 1 w! clkgen|count_2hz [18] $end
$var wire 1 x! clkgen|count_2hz [17] $end
$var wire 1 y! clkgen|count_2hz [16] $end
$var wire 1 z! clkgen|count_2hz [15] $end
$var wire 1 {! clkgen|count_2hz [14] $end
$var wire 1 |! clkgen|count_2hz [13] $end
$var wire 1 }! clkgen|count_2hz [12] $end
$var wire 1 ~! clkgen|count_2hz [11] $end
$var wire 1 !" clkgen|count_2hz [10] $end
$var wire 1 "" clkgen|count_2hz [9] $end
$var wire 1 #" clkgen|count_2hz [8] $end
$var wire 1 $" clkgen|count_2hz [7] $end
$var wire 1 %" clkgen|count_2hz [6] $end
$var wire 1 &" clkgen|count_2hz [5] $end
$var wire 1 '" clkgen|count_2hz [4] $end
$var wire 1 (" clkgen|count_2hz [3] $end
$var wire 1 )" clkgen|count_2hz [2] $end
$var wire 1 *" clkgen|count_2hz [1] $end
$var wire 1 +" clkgen|count_2hz [0] $end
$upscope $end
$upscope $end
$enddefinitions $end
#0
$dumpvars
0!
b1 "
0'"
0&"
0%"
0$"
0#"
0""
0!"
0~!
0}!
0|!
0{!
0z!
0y!
0x!
0w!
0v!
0u!
0t!
0s!
0r!
0q!
0/
0.
1-
0,
0+
1*
0)
0(
1'
0&
0%
0$
0#
1<
0;
1:
09
18
17
16
05
04
03
12
01
10
x=
0>
1?
x@
1A
1B
1C
0D
0E
1F
0G
0H
1I
0J
0K
1L
0M
0N
0O
0P
1Q
0R
1S
0T
1U
1V
1W
0X
0Y
0Z
1[
0\
1]
0^
0_
1`
1a
0b
0c
1d
0e
0f
1g
1h
0i
0j
1k
0l
0m
0n
1o
0p
0q
0r
1s
0t
0u
0v
1w
0x
0y
0z
1{
0|
0}
0~
1!!
0"!
0#!
0$!
1%!
0&!
0'!
0(!
1)!
0*!
0+!
0,!
1-!
0.!
0/!
00!
11!
12!
03!
04!
05!
16!
07!
08!
09!
1:!
0;!
1<!
1=!
1>!
1?!
1@!
1A!
1B!
0C!
0D!
0E!
0F!
1G!
1H!
0I!
1J!
0K!
0L!
1M!
0N!
1O!
0P!
0Q!
0R!
0S!
1T!
0U!
0V!
0W!
0X!
0Y!
0Z!
0[!
0\!
0]!
0^!
0_!
0`!
0a!
1b!
0c!
0d!
0e!
0f!
1g!
0h!
0i!
0j!
0m!
0l!
0k!
0p!
0o!
0n!
0+"
0*"
0)"
0("
$end
#2500
1!
1^
1_
0=
1+"
1b
1c
1i
0h
0`
1j
0a
1p!
1Z!
0g
1e
0d
0b!
0L
1D
0U
0'
1/
08
#5000
0!
0^
0_
1=
#7500
1!
1^
1_
0=
1*"
0+"
0b
0c
0k
0j
0i
1h
1`
1l
1k
1j
1a
0l
#10000
0!
0^
0_
1=
#12500
1!
1^
1_
0=
1+"
1b
1c
1i
0h
0`
0k
0j
0a
1l
1o!
0p!
0Z!
1X!
0M!
1d
0g!
1b!
1L
0Q
0W
1U
1'
0<
06
18
#15000
0!
0^
0_
1=
#17500
1!
1^
1_
0=
1)"
0*"
0+"
0b
0c
1m
0l
1k
1j
0i
1h
1`
1n
0m
1l
0j
1a
0n
#20000
0!
0^
0_
1=
#22500
1!
1^
1_
0=
1+"
1b
1c
1i
0h
0`
1j
0a
1p!
0X!
1U!
1f
0e
0d
1Q
0I
1<
0*
#25000
0!
0^
0_
1=
#27500
1!
1^
1_
0=
1*"
0+"
0b
0c
0k
0j
0i
1h
1`
1m
0l
1k
1j
1a
1n
0m
1l
0n
#30000
0!
0^
0_
1=
#32500
1!
1^
1_
0=
1+"
1b
1c
1i
0h
0`
0k
0j
0a
1m
0l
1n
1n!
0o!
0p!
1j!
1_!
0U!
1M!
1d
0]
1I
00
1*
#35000
0!
0^
0_
1=
#37500
1!
1^
1_
0=
1("
0)"
0*"
0+"
0b
0c
0o
0n
0m
1l
1k
1j
0i
1h
1`
1p
1o
1n
0l
0j
1a
0p
#40000
0!
0^
0_
1=
#42500
1!
1^
1_
0=
1+"
1b
1c
0?!
1i
0h
0`
0A!
1j
0a
0B!
1C!
1D!
1p!
0j!
1V!
1e
0d
0O!
1]
0S
0F
10
0:
0-
#45000
0!
0^
0_
1=
#47500
1!
1^
1_
0=
1E!
0("
0+"
0b
1F!
0c
0C!
1?!
0n
0i
1h
1`
0D!
1A!
0j
1a
1B!
1C!
1D!
1m!
0T!
1S!
0M!
1K!
0J!
1W!
0b!
1O!
0U
1F
08
1-
1Y!
1H
1+
#50000
0!
0^
0_
1=
#52500
1!
1^
1_
0=
1+"
1b
1c
1i
0h
0`
1j
0a
1o!
0p!
1i!
0_!
0V!
1Q!
1M!
1d!
1d
0W!
1R!
0[
1S
02
1:
#55000
0!
0^
0_
1=
#57500
1!
1^
1_
0=
1*"
0+"
0b
0c
0k
0j
0i
1h
1`
1l
1k
1j
1a
0l
#60000
0!
0^
0_
1=
#62500
1!
1^
1_
0=
1+"
1b
1c
1i
0h
0`
0k
0j
0a
1l
1p!
0i!
0d!
1c!
0f
0e
0d
0O!
1f!
1[
0V
0F
12
07
0-
1g!
1W
16
#65000
0!
0^
0_
1=
#67500
1!
1^
1_
0=
1)"
0*"
0+"
0b
0c
1m
0l
1k
1j
0i
1h
1`
1n
0m
1l
0j
1a
0n
#70000
0!
0^
0_
1=
#72500
1!
1^
1_
0=
1+"
1b
1c
1i
0h
0`
1j
0a
0n!
0o!
0p!
0c!
0Q!
1g
0M!
1d!
1d
1b!
1O!
0f!
0R!
1V
0D
1U
1F
17
0/
18
1-
0Y!
0H
0+
#75000
0!
0^
0_
1=
#77500
1!
1^
1_
0=
1*"
0+"
0b
0c
0k
0j
0i
1h
1`
1m
0l
1k
1j
1a
1n
0m
1l
0n
#80000
0!
0^
0_
1=
#82500
1!
1^
1_
0=
1+"
1b
1c
1i
0h
0`
0k
0j
0a
1m
0l
1n
1p!
0d!
1Z!
0g
1e
0d
0b!
0L
1D
0U
0'
1/
08
#85000
0!
0^
0_
1=
#87500
1!
1^
1_
0=
1("
0)"
0*"
0+"
0b
0c
0o
0n
0m
1l
1k
1j
0i
1h
1`
1p
1o
1n
0l
0j
1a
0p
#90000
0!
0^
0_
1=
#92500
1!
1^
1_
0=
1+"
1b
1c
0?!
1i
0h
0`
0A!
1j
0a
0B!
0C!
0D!
1o!
0p!
0Z!
1X!
1M!
1d!
1d
0g!
1b!
1L
0Q
0W
1U
1'
0<
06
18
#95000
0!
0^
0_
1=
#97500
1!
1^
1_
0=
0E!
0("
0+"
0b
0F!
0c
1C!
1?!
0n
0i
1h
1`
1D!
1A!
0j
1a
1B!
0C!
0D!
#100000
0!
0^
0_
1=
#102500
1!
1^
1_
0=
1+"
1b
1c
1i
0h
0`
1j
0a
1p!
0d!
0X!
1U!
1f
0e
0d
1W!
1Q
0I
1<
0*
1Y!
1H
1+
#105000
0!
0^
0_
1=
#107500
1!
1^
1_
0=
1*"
0+"
0b
0c
0k
0j
0i
1h
1`
1l
1k
1j
1a
0l
#110000
0!
0^
0_
1=
#112500
1!
1^
1_
0=
1+"
1b
1c
1i
0h
0`
0k
0j
0a
1l
1n!
0o!
0p!
1j!
1_!
0U!
0M!
1d!
1d
0W!
0]
1I
00
1*
1g!
1W
16
0Y!
0H
0+
#115000
0!
0^
0_
1=
#117500
1!
1^
1_
0=
1)"
0*"
0+"
0b
0c
1m
0l
1k
1j
0i
1h
1`
1n
0m
1l
0j
1a
0n
#120000
0!
0^
0_
1=
#122500
1!
1^
1_
0=
1+"
1b
1c
1i
0h
0`
1j
0a
1p!
0j!
0d!
1V!
1e
0d
0b!
1W!
1]
0S
0U
10
0:
08
0g!
0W
06
1Y!
1H
1+
#125000
0!
0^
0_
1=
#127500
1!
1^
1_
0=
1*"
0+"
0b
0c
0k
0j
0i
1h
1`
1m
0l
1k
1j
1a
1n
0m
1l
0n
#130000
0!
0^
0_
1=
#132500
1!
1^
1_
0=
1+"
1b
1c
1i
0h
0`
0k
0j
0a
1m
0l
1n
1o!
0p!
1i!
0_!
0V!
1Q!
1M!
1d!
1d
0W!
1R!
0[
1S
02
1:
#135000
0!
0^
0_
1=
#137500
1!
1^
1_
0=
1("
0)"
0*"
0+"
0b
0c
0o
0n
0m
1l
1k
1j
0i
1h
1`
1p
1o
1n
0l
0j
1a
0p
#140000
0!
0^
0_
1=
#142500
1!
1^
1_
0=
1+"
1b
1c
0?!
1i
0h
0`
0A!
1j
0a
0B!
1C!
1D!
1p!
0i!
0d!
1c!
0f
0e
0d
0O!
1f!
1[
0V
0F
12
07
0-
1g!
1W
16
#145000
0!
0^
0_
1=
#147500
1!
1^
1_
0=
1E!
0("
0+"
0b
1F!
0c
0C!
1?!
0n
0i
1h
1`
0D!
1A!
0j
1a
1B!
1C!
1D!
1l!
0m!
1\!
1[!
0S!
1N!
1J!
0R!
1]!
1N
1%
0Y!
0H
0+
#150000
0!
0^
0_
1=
#152500
1!
1^
1_
0=
1+"
1b
1c
1i
0h
0`
1j
0a
0n!
0o!
0p!
0c!
0Q!
1g
0M!
0\!
0[!
1R!
1d
1b!
0]!
1O!
0f!
0R!
1V
0D
1U
0N
1F
17
0/
18
0%
1-
1Y!
1H
1+
0Y!
0H
0+
#155000
0!
0^
0_
1=
#157500
1!
1^
1_
0=
1*"
0+"
0b
0c
0k
0j
0i
1h
1`
1l
1k
1j
1a
0l
#160000
0!
0^
0_
1=
#162500
1!
1^
1_
0=
1+"
1b
1c
1i
0h
0`
0k
0j
0a
1l
1p!
1e!
1\!
1[!
1Z!
0g
1e
0d
0b!
1f!
0L
1D
0U
0'
1/
08
#165000
0!
0^
0_
1=
#167500
1!
1^
1_
0=
1)"
0*"
0+"
0b
0c
1m
0l
1k
1j
0i
1h
1`
1n
0m
1l
0j
1a
0n
#170000
0!
0^
0_
1=
#172500
1!
1^
1_
0=
1+"
1b
1c
1i
0h
0`
1j
0a
1o!
0p!
0e!
0Z!
1X!
1M!
0\!
0[!
1d
1b!
1]!
0f!
1L
0Q
1U
1N
1'
0<
18
1%
1Y!
0]!
1H
0N
1+
0%
0g!
0W
06
#175000
0!
0^
0_
1=
#177500
1!
1^
1_
0=
1*"
0+"
0b
0c
0k
0j
0i
1h
1`
1m
0l
1k
1j
1a
1n
0m
1l
0n
#180000
0!
0^
0_
1=
#182500
1!
1^
1_
0=
1+"
1b
1c
1i
0h
0`
0k
0j
0a
1m
0l
1n
1p!
1e!
1\!
1[!
0X!
1U!
1f
0e
0d
1f!
1Q
0I
1<
0*
1]!
0Y!
1N
0H
1%
0+
1g!
1W
16
#185000
0!
0^
0_
1=
#187500
1!
1^
1_
0=
1("
0)"
0*"
0+"
0b
0c
0o
0n
0m
1l
1k
1j
0i
1h
1`
1p
1o
1n
0l
0j
1a
0p
#190000
0!
0^
0_
1=
#192500
1!
1^
1_
0=
1+"
1b
1c
0?!
1i
0h
0`
0A!
1j
0a
0B!
0C!
0D!
1n!
0o!
0p!
1j!
0e!
1_!
0U!
0M!
0\!
0[!
1d
0]!
0O!
0f!
0]
1I
0N
0F
00
1*
0%
0-
0g!
0W
06
#195000
0!
0^
0_
1=
#197500
1!
1^
1_
0=
0E!
0("
0+"
0b
0F!
0c
1C!
1?!
0n
0i
1h
1`
1D!
1A!
0j
1a
1B!
0C!
0D!
#200000
0!
0^
0_
1=
#202500
1!
1^
1_
0=
1+"
1b
1c
1i
0h
0`
1j
0a
1p!
0j!
1\!
1[!
1V!
1e
0d
0b!
1O!
1W!
1]
0S
0U
1F
10
0:
08
1-
1Y!
1H
1+
#205000
0!
0^
0_
1=
#207500
1!
1^
1_
0=
1*"
0+"
0b
0c
0k
0j
0i
1h
1`
1l
1k
1j
1a
0l
#210000
0!
0^
0_
1=
#212500
1!
1^
1_
0=
1+"
1b
1c
1i
0h
0`
0k
0j
0a
1l
1o!
0p!
1i!
1e!
0_!
0V!
1Q!
1M!
0\!
0[!
1d
1]!
0O!
1f!
0W!
1R!
0[
1S
1N
0F
02
1:
1%
0-
0]!
0N
0%
1g!
1W
16
#215000
0!
0^
0_
1=
#217500
1!
1^
1_
0=
1)"
0*"
0+"
0b
0c
1m
0l
1k
1j
0i
1h
1`
1n
0m
1l
0j
1a
0n
#220000
0!
0^
0_
1=
#222500
1!
1^
1_
0=
1+"
1b
1c
1i
0h
0`
1j
0a
1p!
0i!
0e!
1c!
1\!
1[!
0R!
0f
0e
0d
1[
0V
12
07
1]!
0Y!
1N
0H
1%
0+
#225000
0!
0^
0_
1=
#227500
1!
1^
1_
0=
1*"
0+"
0b
0c
0k
0j
0i
1h
1`
1m
0l
1k
1j
1a
1n
0m
1l
0n
#230000
0!
0^
0_
1=
#232500
1!
1^
1_
0=
1+"
1b
1c
1i
0h
0`
0k
0j
0a
1m
0l
1n
0n!
0o!
0p!
0c!
0Q!
1g
0M!
0\!
0[!
1R!
1d
1b!
0]!
1O!
0f!
0R!
1V
0D
1U
0N
1F
17
0/
18
0%
1-
1Y!
1H
1+
0Y!
0H
0+
#235000
0!
0^
0_
1=
#237500
1!
1^
1_
0=
1("
0)"
0*"
0+"
0b
0c
0o
0n
0m
1l
1k
1j
0i
1h
1`
1p
1o
1n
0l
0j
1a
0p
#240000
0!
0^
0_
1=
#242500
1!
1^
1_
0=
1+"
1b
1c
0?!
1i
0h
0`
0A!
1j
0a
0B!
1C!
1D!
1p!
1e!
1\!
1[!
1Z!
0g
1e
0d
0b!
1f!
0L
1D
0U
0'
1/
08
#245000
0!
0^
0_
1=
#247500
1!
1^
1_
0=
1E!
0("
0+"
0b
1F!
0c
0C!
1?!
0n
0i
1h
1`
0D!
1A!
0j
1a
1B!
1C!
1D!
1m!
1L!
0K!
0J!
#250000
0!
0^
0_
1=
#252500
1!
1^
1_
0=
1+"
1b
1c
1i
0h
0`
1j
0a
1o!
0p!
0e!
0Z!
1X!
1M!
1^!
0[!
1P!
1d
1b!
1]!
0f!
1L
0Q
1U
1N
1'
0<
18
1%
1Y!
0]!
1H
0N
1+
0%
0g!
0W
06
#255000
0!
0^
0_
1=
#257500
1!
1^
1_
0=
1*"
0+"
0b
0c
0k
0j
0i
1h
1`
1l
1k
1j
1a
0l
#260000
0!
0^
0_
1=
#262500
1!
1^
1_
0=
1+"
1b
1c
1i
0h
0`
0k
0j
0a
1l
1p!
1e!
0^!
1[!
0X!
1U!
0P!
1f
0e
0d
1f!
1Q
0I
1<
0*
1]!
0Y!
1N
0H
1%
0+
1g!
1W
16
#265000
0!
0^
0_
1=
#267500
1!
1^
1_
0=
1)"
0*"
0+"
0b
0c
1m
0l
1k
1j
0i
1h
1`
1n
0m
1l
0j
1a
0n
#270000
0!
0^
0_
1=
#272500
1!
1^
1_
0=
1+"
1b
1c
1i
0h
0`
1j
0a
1n!
0o!
0p!
1j!
0e!
1_!
0U!
0M!
1^!
0[!
1P!
1d
0]!
0O!
0f!
0]
1I
0N
0F
00
1*
0%
0-
1h!
1a!
1Y
1P
14
1#
0g!
0W
06
#275000
0!
0^
0_
1=
#277500
1!
1^
1_
0=
1*"
0+"
0b
0c
0k
0j
0i
1h
1`
1m
0l
1k
1j
1a
1n
0m
1l
0n
#280000
b0 "
0!
0G!
0^
0_
1=
#282500
1!
1^
1_
0=
1+"
1b
1c
1i
0h
0`
0k
0j
0a
1m
0l
1n
1p!
0j!
0^!
1[!
1V!
0P!
1e
0d
0b!
1O!
1W!
1]
0S
0U
1F
10
0:
08
1-
0a!
0h!
0P
0Y
0#
04
1Y!
1H
1+
#285000
0!
0^
0_
1=
#287500
1!
1^
1_
0=
1("
0)"
0*"
0+"
0b
0c
0o
0n
0m
1l
1k
1j
0i
1h
1`
1p
1o
1n
0l
0j
1a
0p
#290000
b1 "
0!
1G!
0^
0_
1=
1I!
0L!
1K!
1J!
0H!
#292500
1!
1^
1_
0=
1+"
1b
1c
0?!
1i
0h
0`
0A!
1j
0a
0B!
0C!
0D!
1o!
0p!
1i!
1e!
0_!
0V!
1Q!
1M!
1^!
0[!
1P!
1d
1]!
0O!
1f!
0W!
0[
1S
1N
0F
02
1:
1%
0-
1g!
0Y!
1W
0H
16
0+
#295000
0!
0^
0_
1=
#297500
1!
1^
1_
0=
0E!
0("
0+"
0b
0F!
0c
1C!
1?!
0n
0i
1h
1`
1D!
1A!
0j
1a
1B!
0C!
0D!
#300000
0!
0^
0_
1=
#302500
1!
1^
1_
0=
1+"
1b
1c
1i
0h
0`
1j
0a
1p!
0i!
0e!
1c!
0^!
1[!
0P!
0f
0e
0d
1[
0V
12
07
#305000
0!
0^
0_
1=
#307500
1!
1^
1_
0=
1*"
0+"
0b
0c
0k
0j
0i
1h
1`
1l
1k
1j
1a
0l
#310000
0!
0^
0_
1=
#312500
1!
1^
1_
0=
1+"
1b
1c
1i
0h
0`
0k
0j
0a
1l
0n!
0o!
0p!
0c!
0Q!
1g
0M!
1^!
0[!
1R!
1P!
1d
1b!
0]!
1O!
0f!
0R!
1V
0D
1U
0N
1F
17
0/
18
0%
1-
1Y!
1H
1+
0Y!
0H
0+
#315000
0!
0^
0_
1=
#317500
1!
1^
1_
0=
1)"
0*"
0+"
0b
0c
1m
0l
1k
1j
0i
1h
1`
1n
0m
1l
0j
1a
0n
#320000
0!
0^
0_
1=
#322500
1!
1^
1_
0=
1+"
1b
1c
1i
0h
0`
1j
0a
1p!
1e!
0^!
1[!
1Z!
0P!
0g
1e
0d
0b!
1f!
0L
1D
0U
0'
1/
08
#325000
0!
0^
0_
1=
#327500
1!
1^
1_
0=
1*"
0+"
0b
0c
0k
0j
0i
1h
1`
1m
0l
1k
1j
1a
1n
0m
1l
0n
#330000
0!
0^
0_
1=
#332500
1!
1^
1_
0=
1+"
1b
1c
1i
0h
0`
0k
0j
0a
1m
0l
1n
1o!
0p!
0e!
0Z!
1X!
1M!
1^!
0[!
1P!
1d
1b!
1]!
0f!
1L
0Q
1U
1N
1'
0<
18
1%
1Y!
0]!
1H
0N
1+
0%
0g!
0W
06
#335000
0!
0^
0_
1=
#337500
1!
1^
1_
0=
1("
0)"
0*"
0+"
0b
0c
0o
0n
0m
1l
1k
1j
0i
1h
1`
1p
1o
1n
0l
0j
1a
0p
#340000
0!
0^
0_
1=
#342500
1!
1^
1_
0=
1+"
1b
1c
0?!
1i
0h
0`
0A!
1j
0a
0B!
1C!
1D!
1p!
1e!
0^!
1[!
0X!
1U!
0P!
1f
0e
0d
1f!
1Q
0I
1<
0*
1]!
0Y!
1N
0H
1%
0+
1g!
1W
16
#345000
0!
0^
0_
1=
#347500
1!
1^
1_
0=
1E!
0("
0+"
0b
1F!
0c
0C!
1?!
0n
0i
1h
1`
0D!
1A!
0j
1a
1B!
1C!
1D!
#350000
0!
0^
0_
1=
#352500
1!
1^
1_
0=
1+"
1b
1c
1i
0h
0`
1j
0a
1n!
0o!
0p!
1j!
0e!
1_!
0U!
0M!
1^!
0[!
1P!
1d
0]!
0O!
0f!
0]
1I
0N
0F
00
1*
0%
0-
1h!
1a!
1Y
1P
14
1#
0g!
0W
06
#355000
0!
0^
0_
1=
#357500
1!
1^
1_
0=
1*"
0+"
0b
0c
0k
0j
0i
1h
1`
1l
1k
1j
1a
0l
#360000
0!
0^
0_
1=
#362500
1!
1^
1_
0=
1+"
1b
1c
1i
0h
0`
0k
0j
0a
1l
1p!
0j!
0^!
1[!
1V!
0P!
1e
0d
0b!
1O!
1W!
1]
0S
0U
1F
10
0:
08
1-
0a!
0h!
0P
0Y
0#
04
1Y!
1H
1+
#365000
0!
0^
0_
1=
#367500
1!
1^
1_
0=
1)"
0*"
0+"
0b
0c
1m
0l
1k
1j
0i
1h
1`
1n
0m
1l
0j
1a
0n
#370000
0!
0^
0_
1=
#372500
1!
1^
1_
0=
1+"
1b
1c
1i
0h
0`
1j
0a
1o!
0p!
1i!
1e!
0_!
0V!
1Q!
1M!
1^!
0[!
1P!
1d
1]!
0O!
1f!
0W!
0[
1S
1N
0F
02
1:
1%
0-
1g!
0Y!
1W
0H
16
0+
#375000
0!
0^
0_
1=
#377500
1!
1^
1_
0=
1*"
0+"
0b
0c
0k
0j
0i
1h
1`
1m
0l
1k
1j
1a
1n
0m
1l
0n
#380000
0!
0^
0_
1=
#382500
1!
1^
1_
0=
1+"
1b
1c
1i
0h
0`
0k
0j
0a
1m
0l
1n
1p!
0i!
0e!
1c!
0^!
1[!
0P!
0f
0e
0d
1[
0V
12
07
#385000
0!
0^
0_
1=
#387500
1!
1^
1_
0=
1("
0)"
0*"
0+"
0b
0c
0o
0n
0m
1l
1k
1j
0i
1h
1`
1p
1o
1n
0l
0j
1a
0p
#390000
0!
0^
0_
1=
