Lab1/simulation/qsim/Lab1_2.msim.vcd
$comment
	File created using the following command:
		vcd file Lab1_2.msim.vcd -direction
$end
$date
	Wed Feb 21 19:58:29 2024
$end
$version
	ModelSim Version 10.1d
$end
$timescale
	1ps
$end
$scope module Lab1_2_vlg_vec_tst $end
$var reg 1 ! A1 $end
$var reg 1 " A2 $end
$var reg 1 # A3 $end
$var reg 1 $ A4 $end
$var reg 1 % B1 $end
$var reg 1 & B2 $end
$var reg 1 ' B3 $end
$var reg 1 ( B4 $end
$var reg 1 ) M $end
$var wire 1 * carry $end
$var wire 1 + S1 $end
$var wire 1 , S2 $end
$var wire 1 - S3 $end
$var wire 1 . S4 $end
$var wire 1 / sampler $end
$scope module i1 $end
$var wire 1 0 gnd $end
$var wire 1 1 vcc $end
$var wire 1 2 unknown $end
$var tri1 1 3 devclrn $end
$var tri1 1 4 devpor $end
$var tri1 1 5 devoe $end
$var wire 1 6 S1~output_o $end
$var wire 1 7 S2~output_o $end
$var wire 1 8 S3~output_o $end
$var wire 1 9 S4~output_o $end
$var wire 1 : carry~output_o $end
$var wire 1 ; B1~input_o $end
$var wire 1 < A1~input_o $end
$var wire 1 = inst|inst|1~0_combout $end
$var wire 1 > B2~input_o $end
$var wire 1 ? A2~input_o $end
$var wire 1 @ M~input_o $end
$var wire 1 A inst|inst5~0_combout $end
$var wire 1 B inst1|inst|1~combout $end
$var wire 1 C A3~input_o $end
$var wire 1 D B3~input_o $end
$var wire 1 E inst1|inst5~0_combout $end
$var wire 1 F inst2|inst|1~0_combout $end
$var wire 1 G B4~input_o $end
$var wire 1 H A4~input_o $end
$var wire 1 I inst2|inst5~0_combout $end
$var wire 1 J inst3|inst|1~0_combout $end
$var wire 1 K inst3|inst5~0_combout $end
$upscope $end
$upscope $end
$enddefinitions $end
#0
$dumpvars
0!
0"
0#
0$
0%
0&
0'
0(
0)
0*
0+
0,
0-
0.
x/
00
11
x2
13
14
15
06
07
08
09
0:
0;
0<
0=
0>
0?
0@
0A
0B
0C
0D
0E
0F
0G
0H
0I
0J
0K
$end
#5000
1!
1<
0/
1=
16
1+
#10000
1%
0!
1;
0<
1/
#15000
1"
1!
1?
1<
0/
1A
1B
0=
1E
17
06
1,
0+
0B
07
0,
1F
18
1-
#20000
1&
0%
0!
1>
0;
0<
1/
0A
1B
17
1,
0B
07
0,
#25000
1!
1<
0/
1=
16
1+
#30000
0"
1%
0!
0?
1;
0<
1/
0E
1B
17
1,
0F
08
0-
#35000
1!
1<
0/
1A
0=
1E
06
0+
0B
07
0,
1F
18
1-
#40000
0&
0%
0!
0>
0;
0<
1/
0E
0A
1B
17
1,
0F
0B
08
07
0-
0,
#45000
1"
1!
1?
1<
0/
1B
1=
17
16
1,
1+
#50000
1%
0!
1;
0<
1/
#55000
1!
1<
0/
1A
0=
1E
06
0+
0B
07
0,
1F
18
1-
#60000
1&
0"
0%
0!
1>
0?
0;
0<
1/
0A
0E
1B
17
1,
0F
08
0-
#65000
1!
1<
0/
1=
16
1+
#70000
1%
0!
1;
0<
1/
#75000
1"
1!
1?
1<
0/
1E
1A
0B
0=
07
06
0,
0+
1F
1B
18
17
1-
1,
#80000
0&
0%
0!
0>
0;
0<
1/
0A
0B
0E
07
0,
1B
17
1,
0F
08
0-
#85000
1!
1<
0/
1=
16
1+
#90000
0"
1%
0!
0?
1;
0<
1/
0B
07
0,
#95000
1!
1<
0/
1A
0=
06
0+
1B
17
1,
#100000
1&
0%
0!
1>
0;
0<
1/
1E
0A
0B
0E
07
0,
1F
1B
18
17
1-
1,
0F
08
0-
#105000
1"
1!
1?
1<
0/
1E
0B
1=
07
16
0,
1+
1F
18
1-
#110000
1%
0!
1;
0<
1/
#115000
1!
1<
0/
1A
0=
06
0+
1B
17
1,
#120000
0&
0"
0%
0!
0>
0?
0;
0<
1/
0E
0A
0F
0B
08
07
0-
0,
#125000
1!
1<
0/
1=
16
1+
#130000
1%
0!
1;
0<
1/
#135000
1"
1!
1?
1<
0/
1A
1B
0=
1E
17
06
1,
0+
0B
07
0,
1F
18
1-
#140000
1&
0%
0!
1>
0;
0<
1/
0A
1B
17
1,
0B
07
0,
#145000
1!
1<
0/
1=
16
1+
#150000
0"
1%
0!
0?
1;
0<
1/
0E
1B
17
1,
0F
08
0-
#155000
1!
1<
0/
1A
0=
1E
06
0+
0B
07
0,
1F
18
1-
#160000
0&
0%
0!
0>
0;
0<
1/
0E
0A
1B
17
1,
0F
0B
08
07
0-
0,
#165000
1"
1!
1?
1<
0/
1B
1=
17
16
1,
1+
#170000
1%
0!
1;
0<
1/
#175000
1!
1<
0/
1A
0=
1E
06
0+
0B
07
0,
1F
18
1-
#180000
1&
0"
0%
0!
1>
0?
0;
0<
1/
0A
0E
1B
17
1,
0F
08
0-
#185000
1!
1<
0/
1=
16
1+
#190000
1%
0!
1;
0<
1/
#195000
1"
1!
1?
1<
0/
1E
1A
0B
0=
07
06
0,
0+
1F
1B
18
17
1-
1,
#200000
0&
0%
0!
0>
0;
0<
1/
0A
0B
0E
07
0,
1B
17
1,
0F
08
0-
#205000
1!
1<
0/
1=
16
1+
#210000
0"
1%
0!
0?
1;
0<
1/
0B
07
0,
#215000
1!
1<
0/
1A
0=
06
0+
1B
17
1,
#220000
1&
0%
0!
1>
0;
0<
1/
1E
0A
0B
0E
07
0,
1F
1B
18
17
1-
1,
0F
08
0-
#225000
1"
1!
1?
1<
0/
1E
0B
1=
07
16
0,
1+
1F
18
1-
#230000
1%
0!
1;
0<
1/
#235000
1!
1<
0/
1A
0=
06
0+
1B
17
1,
#240000
0&
0"
0%
0!
0>
0?
0;
0<
1/
0E
0A
0F
0B
08
07
0-
0,
#245000
1!
1<
0/
1=
16
1+
#250000
1%
0!
1;
0<
1/
#255000
1"
1!
1?
1<
0/
1A
1B
0=
1E
17
06
1,
0+
0B
07
0,
1F
18
1-
#260000
1&
0%
0!
1>
0;
0<
1/
0A
1B
17
1,
0B
07
0,
#265000
1!
1<
0/
1=
16
1+
#270000
0"
1%
0!
0?
1;
0<
1/
0E
1B
17
1,
0F
08
0-
#275000
1!
1<
0/
1A
0=
1E
06
0+
0B
07
0,
1F
18
1-
#280000
0&
0%
0!
0>
0;
0<
1/
0E
0A
1B
17
1,
0F
0B
08
07
0-
0,
#285000
1"
1!
1?
1<
0/
1B
1=
17
16
1,
1+
#290000
1%
0!
1;
0<
1/
#295000
1!
1<
0/
1A
0=
1E
06
0+
0B
07
0,
1F
18
1-
#300000
1&
0"
0%
0!
1>
0?
0;
0<
1/
0A
0E
1B
17
1,
0F
08
0-
#305000
1!
1<
0/
1=
16
1+
#310000
1%
0!
1;
0<
1/
#315000
1"
1!
1?
1<
0/
1E
1A
0B
0=
07
06
0,
0+
1F
1B
18
17
1-
1,
#320000
0&
0%
0!
0>
0;
0<
1/
0A
0B
0E
07
0,
1B
17
1,
0F
08
0-
#325000
1!
1<
0/
1=
16
1+
#330000
0"
1%
0!
0?
1;
0<
1/
0B
07
0,
#335000
1!
1<
0/
1A
0=
06
0+
1B
17
1,
#340000
1&
0%
0!
1>
0;
0<
1/
1E
0A
0B
0E
07
0,
1F
1B
18
17
1-
1,
0F
08
0-
#345000
1"
1!
1?
1<
0/
1E
0B
1=
07
16
0,
1+
1F
18
1-
#350000
1%
0!
1;
0<
1/
#355000
1!
1<
0/
1A
0=
06
0+
1B
17
1,
#360000
0&
0"
0%
0!
0>
0?
0;
0<
1/
0E
0A
0F
0B
08
07
0-
0,
#365000
1!
1<
0/
1=
16
1+
#370000
1%
0!
1;
0<
1/
#375000
1"
1!
1?
1<
0/
1A
1B
0=
1E
17
06
1,
0+
0B
07
0,
1F
18
1-
#380000
1&
0%
0!
1>
0;
0<
1/
0A
1B
17
1,
0B
07
0,
#385000
1!
1<
0/
1=
16
1+
#390000
0"
1%
0!
0?
1;
0<
1/
0E
1B
17
1,
0F
08
0-
#395000
1!
1<
0/
1A
0=
1E
06
0+
0B
07
0,
1F
18
1-
#400000
0&
0%
0!
0>
0;
0<
1/
0E
0A
1B
17
1,
0F
0B
08
07
0-
0,
#405000
1"
1!
1?
1<
0/
1B
1=
17
16
1,
1+
#410000
1%
0!
1;
0<
1/
#415000
1!
1<
0/
1A
0=
1E
06
0+
0B
07
0,
1F
18
1-
#420000
1&
0"
0%
0!
1>
0?
0;
0<
1/
0A
0E
1B
17
1,
0F
08
0-
#425000
1!
1<
0/
1=
16
1+
#430000
1%
0!
1;
0<
1/
#435000
1"
1!
1?
1<
0/
1E
1A
0B
0=
07
06
0,
0+
1F
1B
18
17
1-
1,
#440000
0&
0%
0!
0>
0;
0<
1/
0A
0B
0E
07
0,
1B
17
1,
0F
08
0-
#445000
1!
1<
0/
1=
16
1+
#450000
0"
1%
0!
0?
1;
0<
1/
0B
07
0,
#455000
1!
1<
0/
1A
0=
06
0+
1B
17
1,
#460000
1&
0%
0!
1>
0;
0<
1/
1E
0A
0B
0E
07
0,
1F
1B
18
17
1-
1,
0F
08
0-
#465000
1"
1!
1?
1<
0/
1E
0B
1=
07
16
0,
1+
1F
18
1-
#470000
1%
0!
1;
0<
1/
#475000
1!
1<
0/
1A
0=
06
0+
1B
17
1,
#480000
0&
0"
0%
0!
0>
0?
0;
0<
1/
0E
0A
0F
0B
08
07
0-
0,
#485000
1!
1<
0/
1=
16
1+
#490000
1%
0!
1;
0<
1/
#495000
1"
1!
1?
1<
0/
1A
1B
0=
1E
17
06
1,
0+
0B
07
0,
1F
18
1-
#500000
1&
0%
0!
1>
0;
0<
1/
0A
1B
17
1,
0B
07
0,
#505000
1!
1<
0/
1=
16
1+
#510000
0"
1%
0!
0?
1;
0<
1/
0E
1B
17
1,
0F
08
0-
#515000
1!
1<
0/
1A
0=
1E
06
0+
0B
07
0,
1F
18
1-
#520000
0&
0%
0!
0>
0;
0<
1/
0E
0A
1B
17
1,
0F
0B
08
07
0-
0,
#525000
1"
1!
1?
1<
0/
1B
1=
17
16
1,
1+
#530000
1%
0!
1;
0<
1/
#535000
1!
1<
0/
1A
0=
1E
06
0+
0B
07
0,
1F
18
1-
#540000
1&
0"
0%
0!
1>
0?
0;
0<
1/
0A
0E
1B
17
1,
0F
08
0-
#545000
1!
1<
0/
1=
16
1+
#550000
1%
0!
1;
0<
1/
#555000
1"
1!
1?
1<
0/
1E
1A
0B
0=
07
06
0,
0+
1F
1B
18
17
1-
1,
#560000
0&
0%
0!
0>
0;
0<
1/
0A
0B
0E
07
0,
1B
17
1,
0F
08
0-
#565000
1!
1<
0/
1=
16
1+
#570000
0"
1%
0!
0?
1;
0<
1/
0B
07
0,
#575000
1!
1<
0/
1A
0=
06
0+
1B
17
1,
#580000
1&
0%
0!
1>
0;
0<
1/
1E
0A
0B
0E
07
0,
1F
1B
18
17
1-
1,
0F
08
0-
#585000
1"
1!
1?
1<
0/
1E
0B
1=
07
16
0,
1+
1F
18
1-
#590000
1%
0!
1;
0<
1/
#595000
1!
1<
0/
1A
0=
06
0+
1B
17
1,
#600000
0&
0"
0%
0!
0>
0?
0;
0<
1/
0E
0A
0F
0B
08
07
0-
0,
#605000
1!
1<
0/
1=
16
1+
#610000
1%
0!
1;
0<
1/
#615000
1"
1!
1?
1<
0/
1A
1B
0=
1E
17
06
1,
0+
0B
07
0,
1F
18
1-
#620000
1&
0%
0!
1>
0;
0<
1/
0A
1B
17
1,
0B
07
0,
#625000
1!
1<
0/
1=
16
1+
#630000
0"
1%
0!
0?
1;
0<
1/
0E
1B
17
1,
0F
08
0-
#635000
1!
1<
0/
1A
0=
1E
06
0+
0B
07
0,
1F
18
1-
#640000
0&
0%
0!
0>
0;
0<
1/
0E
0A
1B
17
1,
0F
0B
08
07
0-
0,
#645000
1"
1!
1?
1<
0/
1B
1=
17
16
1,
1+
#650000
1%
0!
1;
0<
1/
#655000
1!
1<
0/
1A
0=
1E
06
0+
0B
07
0,
1F
18
1-
#660000
1&
0"
0%
0!
1>
0?
0;
0<
1/
0A
0E
1B
17
1,
0F
08
0-
#665000
1!
1<
0/
1=
16
1+
#670000
1%
0!
1;
0<
1/
#675000
1"
1!
1?
1<
0/
1E
1A
0B
0=
07
06
0,
0+
1F
1B
18
17
1-
1,
#680000
0&
0%
0!
0>
0;
0<
1/
0A
0B
0E
07
0,
1B
17
1,
0F
08
0-
#685000
1!
1<
0/
1=
16
1+
#690000
0"
1%
0!
0?
1;
0<
1/
0B
07
0,
#695000
1!
1<
0/
1A
0=
06
0+
1B
17
1,
#700000
1&
0%
0!
1>
0;
0<
1/
1E
0A
0B
0E
07
0,
1F
1B
18
17
1-
1,
0F
08
0-
#705000
1"
1!
1?
1<
0/
1E
0B
1=
07
16
0,
1+
1F
18
1-
#710000
1%
0!
1;
0<
1/
#715000
1!
1<
0/
1A
0=
06
0+
1B
17
1,
#720000
0&
0"
0%
0!
0>
0?
0;
0<
1/
0E
0A
0F
0B
08
07
0-
0,
#725000
1!
1<
0/
1=
16
1+
#730000
1%
0!
1;
0<
1/
#735000
1"
1!
1?
1<
0/
1A
1B
0=
1E
17
06
1,
0+
0B
07
0,
1F
18
1-
#740000
1&
0%
0!
1>
0;
0<
1/
0A
1B
17
1,
0B
07
0,
#745000
1!
1<
0/
1=
16
1+
#750000
0"
1%
0!
0?
1;
0<
1/
0E
1B
17
1,
0F
08
0-
#755000
1!
1<
0/
1A
0=
1E
06
0+
0B
07
0,
1F
18
1-
#760000
0&
0%
0!
0>
0;
0<
1/
0E
0A
1B
17
1,
0F
0B
08
07
0-
0,
#765000
1"
1!
1?
1<
0/
1B
1=
17
16
1,
1+
#770000
1%
0!
1;
0<
1/
#775000
1!
1<
0/
1A
0=
1E
06
0+
0B
07
0,
1F
18
1-
#780000
1&
0"
0%
0!
1>
0?
0;
0<
1/
0A
0E
1B
17
1,
0F
08
0-
#785000
1!
1<
0/
1=
16
1+
#790000
1%
0!
1;
0<
1/
#795000
1"
1!
1?
1<
0/
1E
1A
0B
0=
07
06
0,
0+
1F
1B
18
17
1-
1,
#800000
0&
0%
0!
0>
0;
0<
1/
0A
0B
0E
07
0,
1B
17
1,
0F
08
0-
#805000
1!
1<
0/
1=
16
1+
#810000
0"
1%
0!
0?
1;
0<
1/
0B
07
0,
#815000
1!
1<
0/
1A
0=
06
0+
1B
17
1,
#820000
1&
0%
0!
1>
0;
0<
1/
1E
0A
0B
0E
07
0,
1F
1B
18
17
1-
1,
0F
08
0-
#825000
1"
1!
1?
1<
0/
1E
0B
1=
07
16
0,
1+
1F
18
1-
#830000
1%
0!
1;
0<
1/
#835000
1!
1<
0/
1A
0=
06
0+
1B
17
1,
#840000
0&
0"
0%
0!
0>
0?
0;
0<
1/
0E
0A
0F
0B
08
07
0-
0,
#845000
1!
1<
0/
1=
16
1+
#850000
1%
0!
1;
0<
1/
#855000
1"
1!
1?
1<
0/
1A
1B
0=
1E
17
06
1,
0+
0B
07
0,
1F
18
1-
#860000
1&
0%
0!
1>
0;
0<
1/
0A
1B
17
1,
0B
07
0,
#865000
1!
1<
0/
1=
16
1+
#870000
0"
1%
0!
0?
1;
0<
1/
0E
1B
17
1,
0F
08
0-
#875000
1!
1<
0/
1A
0=
1E
06
0+
0B
07
0,
1F
18
1-
#880000
0&
0%
0!
0>
0;
0<
1/
0E
0A
1B
17
1,
0F
0B
08
07
0-
0,
#885000
1"
1!
1?
1<
0/
1B
1=
17
16
1,
1+
#890000
1%
0!
1;
0<
1/
#895000
1!
1<
0/
1A
0=
1E
06
0+
0B
07
0,
1F
18
1-
#900000
1&
0"
0%
0!
1>
0?
0;
0<
1/
0A
0E
1B
17
1,
0F
08
0-
#905000
1!
1<
0/
1=
16
1+
#910000
1%
0!
1;
0<
1/
#915000
1"
1!
1?
1<
0/
1E
1A
0B
0=
07
06
0,
0+
1F
1B
18
17
1-
1,
#920000
0&
0%
0!
0>
0;
0<
1/
0A
0B
0E
07
0,
1B
17
1,
0F
08
0-
#925000
1!
1<
0/
1=
16
1+
#930000
0"
1%
0!
0?
1;
0<
1/
0B
07
0,
#935000
1!
1<
0/
1A
0=
06
0+
1B
17
1,
#940000
1&
0%
0!
1>
0;
0<
1/
1E
0A
0B
0E
07
0,
1F
1B
18
17
1-
1,
0F
08
0-
#945000
1"
1!
1?
1<
0/
1E
0B
1=
07
16
0,
1+
1F
18
1-
#950000
1%
0!
1;
0<
1/
#955000
1!
1<
0/
1A
0=
06
0+
1B
17
1,
#960000
0&
0"
0%
0!
0>
0?
0;
0<
1/
0E
0A
0F
0B
08
07
0-
0,
#965000
1!
1<
0/
1=
16
1+
#970000
1%
0!
1;
0<
1/
#975000
1"
1!
1?
1<
0/
1A
1B
0=
1E
17
06
1,
0+
0B
07
0,
1F
18
1-
#980000
1&
0%
0!
1>
0;
0<
1/
0A
1B
17
1,
0B
07
0,
#985000
1!
1<
0/
1=
16
1+
#990000
0"
1%
0!
0?
1;
0<
1/
0E
1B
17
1,
0F
08
0-
#995000
1!
1<
0/
1A
0=
1E
06
0+
0B
07
0,
1F
18
1-
