Lab6/simulation/qsim/Lab6_1.msim.vcd
$comment
	File created using the following command:
		vcd file Lab6_1.msim.vcd -direction
$end
$date
	Tue Apr 02 15:45:04 2024
$end
$version
	ModelSim Version 10.1d
$end
$timescale
	1ps
$end
$scope module Lab6_1_vlg_vec_tst $end
$var reg 2 ! KEY [2:1] $end
$var wire 1 " HEX0 [0] $end
$var wire 1 # HEX0 [1] $end
$var wire 1 $ HEX0 [2] $end
$var wire 1 % HEX0 [3] $end
$var wire 1 & HEX0 [4] $end
$var wire 1 ' HEX0 [5] $end
$var wire 1 ( HEX0 [6] $end
$var wire 1 ) HEX3 [0] $end
$var wire 1 * HEX3 [1] $end
$var wire 1 + HEX3 [2] $end
$var wire 1 , HEX3 [3] $end
$var wire 1 - HEX3 [4] $end
$var wire 1 . HEX3 [5] $end
$var wire 1 / HEX3 [6] $end
$var wire 1 0 sampler $end
$scope module i1 $end
$var wire 1 1 gnd $end
$var wire 1 2 vcc $end
$var wire 1 3 unknown $end
$var tri1 1 4 devclrn $end
$var tri1 1 5 devpor $end
$var tri1 1 6 devoe $end
$var wire 1 7 HEX0[6]~output_o $end
$var wire 1 8 HEX0[5]~output_o $end
$var wire 1 9 HEX0[4]~output_o $end
$var wire 1 : HEX0[3]~output_o $end
$var wire 1 ; HEX0[2]~output_o $end
$var wire 1 < HEX0[1]~output_o $end
$var wire 1 = HEX0[0]~output_o $end
$var wire 1 > HEX3[6]~output_o $end
$var wire 1 ? HEX3[5]~output_o $end
$var wire 1 @ HEX3[4]~output_o $end
$var wire 1 A HEX3[3]~output_o $end
$var wire 1 B HEX3[2]~output_o $end
$var wire 1 C HEX3[1]~output_o $end
$var wire 1 D HEX3[0]~output_o $end
$var wire 1 E KEY[2]~input_o $end
$var wire 1 F temp2[0]~2_combout $end
$var wire 1 G KEY[1]~input_o $end
$var wire 1 H Add1~0_combout $end
$var wire 1 I temp2~0_combout $end
$var wire 1 J temp2~1_combout $end
$var wire 1 K Digit0|WideOr5~combout $end
$var wire 1 L Digit0|WideOr4~combout $end
$var wire 1 M Digit0|WideOr3~0_combout $end
$var wire 1 N Digit0|WideOr2~combout $end
$var wire 1 O Digit0|WideOr1~2_combout $end
$var wire 1 P Digit0|WideOr0~2_combout $end
$var wire 1 Q temp1[2]~0_combout $end
$var wire 1 R temp1~1_combout $end
$var wire 1 S temp1~2_combout $end
$var wire 1 T temp1~3_combout $end
$var wire 1 U Digit3|WideOr5~2_combout $end
$var wire 1 V Digit3|WideOr5~combout $end
$var wire 1 W Digit3|WideOr4~2_combout $end
$var wire 1 X Digit3|WideOr4~3_combout $end
$var wire 1 Y Digit3|Equal6~0_combout $end
$var wire 1 Z Digit3|WideOr3~8_combout $end
$var wire 1 [ Digit3|WideOr2~0_combout $end
$var wire 1 \ Digit3|WideOr2~1_combout $end
$var wire 1 ] Digit3|HEX[2]~2_combout $end
$var wire 1 ^ Digit3|WideOr1~2_combout $end
$var wire 1 _ Digit3|WideOr1~3_combout $end
$var wire 1 ` Digit3|WideOr0~2_combout $end
$var wire 1 a Digit3|WideOr0~combout $end
$var wire 1 b Digit3|HEX [0] $end
$var wire 1 c Digit3|HEX [1] $end
$var wire 1 d Digit3|HEX [2] $end
$var wire 1 e Digit3|HEX [3] $end
$var wire 1 f Digit3|HEX [4] $end
$var wire 1 g Digit3|HEX [5] $end
$var wire 1 h Digit3|HEX [6] $end
$var wire 1 i Digit0|HEX [0] $end
$var wire 1 j Digit0|HEX [1] $end
$var wire 1 k Digit0|HEX [2] $end
$var wire 1 l Digit0|HEX [3] $end
$var wire 1 m Digit0|HEX [4] $end
$var wire 1 n Digit0|HEX [5] $end
$var wire 1 o Digit0|HEX [6] $end
$var wire 1 p temp2 [3] $end
$var wire 1 q temp2 [2] $end
$var wire 1 r temp2 [1] $end
$var wire 1 s temp2 [0] $end
$var wire 1 t temp1 [3] $end
$var wire 1 u temp1 [2] $end
$var wire 1 v temp1 [1] $end
$var wire 1 w temp1 [0] $end
$upscope $end
$upscope $end
$enddefinitions $end
#0
$dumpvars
b1 !
1(
0'
0&
0%
0$
0#
0"
1/
0.
0-
0,
0+
0*
0)
x0
01
12
x3
14
15
16
17
08
09
0:
0;
0<
0=
1>
0?
0@
0A
0B
0C
0D
0E
1F
1G
0H
0I
0J
1K
0L
0M
0N
0O
1P
0Q
0R
0S
1T
1U
1V
0W
0X
0Y
1Z
0[
0\
0]
0^
0_
0`
0a
zh
zg
zf
ze
0d
zc
zb
zo
zn
zm
zl
0k
zj
zi
0s
0r
0q
0p
0w
0v
0u
0t
$end
#5000
b11 !
1E
00
1w
1s
1`
1[
0Z
1W
0T
1R
0P
1I
0F
1N
1M
1L
1@
1=
1:
19
18
1-
1"
1%
1&
1'
1a
1\
1X
1D
1A
1?
1)
1,
1.
#10000
b1 !
0E
10
#15000
b11 !
1E
00
0w
1v
1r
0s
0`
1]
0[
1Z
0U
1T
1Y
1P
1F
1k
0N
0M
0K
0@
0=
1;
0:
09
07
0-
0"
1$
0%
0&
0(
0a
1d
0\
0V
0D
1B
0A
0>
0)
1+
0,
0/
#20000
b1 !
0E
10
#25000
b11 !
1E
00
1w
1s
0]
0Z
0T
0R
1Q
0I
1H
0F
0k
1M
1@
0;
19
1-
0$
1&
0d
0B
0+
#30000
b1 !
0E
10
#35000
b11 !
1E
00
0w
0v
1u
0r
1q
0s
1`
1[
1Z
0W
1T
0Y
0P
1F
1N
0L
0Z
0@
1=
1:
08
0-
1"
1%
0'
1a
1\
0X
1@
1D
1A
0?
1-
1)
1,
0.
#40000
b1 !
0E
10
#45000
b11 !
1E
00
1w
1s
0`
1^
0[
0T
1R
1P
1I
0F
1O
0N
0=
1<
0:
0"
1#
0%
0a
1_
0\
0D
1C
0A
0)
1*
0,
#50000
b1 !
0E
10
#55000
b11 !
1E
00
0w
1v
1r
0s
1T
1Y
1F
0M
1Z
09
0&
0@
0-
#60000
b1 !
0E
10
#65000
b11 !
1E
00
1w
1s
0^
1[
0Z
1W
1U
0T
1S
0R
0Q
1J
0I
0H
0F
0O
1N
1M
1L
1K
1@
0<
1:
19
18
17
1-
0#
1%
1&
1'
1(
0_
1\
1X
1V
0C
1A
1?
1>
0*
1,
1.
1/
#70000
b1 !
0E
10
#75000
b11 !
1E
00
0w
1t
0v
0u
1p
0r
0q
0s
0[
1Z
0W
0U
1T
0Y
1F
0N
0M
0L
0K
0@
0:
09
08
07
0-
0%
0&
0'
0(
0\
0X
0V
0A
0?
0>
0,
0.
0/
#80000
b1 !
0E
10
#85000
b11 !
1E
00
1w
1s
1[
0Z
0T
1R
0J
0F
1N
1M
1@
1:
19
1-
1%
1&
1\
1A
1,
#90000
b1 !
0E
10
#95000
b11 !
1E
00
0w
1v
0p
0s
1Z
0S
0R
1F
0N
0M
1K
0@
0:
09
17
0-
0%
0&
1(
#100000
b1 !
0E
10
#105000
b11 !
1E
00
0t
0v
1s
0[
1U
1T
0P
1I
0F
1N
1M
1L
1=
1:
19
18
1"
1%
1&
1'
0\
1V
0A
1>
0,
1/
#110000
b1 !
0E
10
#115000
b11 !
1E
00
1w
1r
0s
1`
1[
0Z
1W
0T
1R
1P
1F
1k
0N
0M
0K
1@
0=
1;
0:
09
07
1-
0"
1$
0%
0&
0(
1a
1\
1X
1D
1A
1?
1)
1,
1.
#120000
b1 !
0E
10
#125000
b11 !
1E
00
0w
1v
1s
0`
1]
0[
1Z
0U
1T
1Y
0I
1H
0F
0k
1M
0@
0;
19
0-
0$
1&
0a
1d
0\
0V
0D
1B
0A
0>
0)
1+
0,
0/
#130000
b1 !
0E
10
#135000
b11 !
1E
00
1w
0r
1q
0s
0]
0Z
0T
0R
1Q
0P
1F
1N
0L
1@
1=
1:
08
1-
1"
1%
0'
0d
0B
0+
#140000
b10 !
b0 !
0G
0E
10
1Z
0Y
0X
1V
0@
0?
1>
0-
0.
1/
0w
0v
0q
0W
1U
1T
0Q
1P
0H
0N
0M
1K
0=
0:
09
17
0"
0%
0&
1(
#145000
b10 !
1E
00
#150000
b11 !
b1 !
1G
0E
10
#155000
b11 !
1E
00
1w
1s
1`
1[
0Z
1W
0T
1R
0P
1I
0F
1N
1M
1L
1@
1=
1:
19
18
1-
1"
1%
1&
1'
1a
1\
1X
1D
1A
1?
1)
1,
1.
#160000
b1 !
0E
10
#165000
b11 !
1E
00
0w
1v
1r
0s
0`
1]
0[
1Z
0U
1T
1Y
1P
1F
1k
0N
0M
0K
0@
0=
1;
0:
09
07
0-
0"
1$
0%
0&
0(
0a
1d
0\
0V
0D
1B
0A
0>
0)
1+
0,
0/
#170000
b1 !
0E
10
#175000
b11 !
1E
00
1w
1s
0]
0Z
0T
0R
1Q
0I
1H
0F
0k
1M
1@
0;
19
1-
0$
1&
0d
0B
0+
#180000
b1 !
0E
10
#185000
b11 !
1E
00
0w
0v
1u
0r
1q
0s
1`
1[
1Z
0W
1T
0Y
0P
1F
1N
0L
0Z
0@
1=
1:
08
0-
1"
1%
0'
1a
1\
0X
1@
1D
1A
0?
1-
1)
1,
0.
#190000
b1 !
0E
10
#195000
b11 !
1E
00
1w
1s
0`
1^
0[
0T
1R
1P
1I
0F
1O
0N
0=
1<
0:
0"
1#
0%
0a
1_
0\
0D
1C
0A
0)
1*
0,
#200000
b1 !
0E
10
#205000
b11 !
1E
00
0w
1v
1r
0s
1T
1Y
1F
0M
1Z
09
0&
0@
0-
#210000
b1 !
0E
10
#215000
b11 !
1E
00
1w
1s
0^
1[
0Z
1W
1U
0T
1S
0R
0Q
1J
0I
0H
0F
0O
1N
1M
1L
1K
1@
0<
1:
19
18
17
1-
0#
1%
1&
1'
1(
0_
1\
1X
1V
0C
1A
1?
1>
0*
1,
1.
1/
#220000
b1 !
0E
10
#225000
b11 !
1E
00
0w
1t
0v
0u
1p
0r
0q
0s
0[
1Z
0W
0U
1T
0Y
1F
0N
0M
0L
0K
0@
0:
09
08
07
0-
0%
0&
0'
0(
0\
0X
0V
0A
0?
0>
0,
0.
0/
#230000
b1 !
0E
10
#235000
b11 !
1E
00
1w
1s
1[
0Z
0T
1R
0J
0F
1N
1M
1@
1:
19
1-
1%
1&
1\
1A
1,
#240000
b1 !
0E
10
#245000
b11 !
1E
00
0w
1v
0p
0s
1Z
0S
0R
1F
0N
0M
1K
0@
0:
09
17
0-
0%
0&
1(
#250000
b1 !
0E
10
#255000
b11 !
1E
00
0t
0v
1s
0[
1U
1T
0P
1I
0F
1N
1M
1L
1=
1:
19
18
1"
1%
1&
1'
0\
1V
0A
1>
0,
1/
#260000
b1 !
0E
10
#265000
b11 !
1E
00
1w
1r
0s
1`
1[
0Z
1W
0T
1R
1P
1F
1k
0N
0M
0K
1@
0=
1;
0:
09
07
1-
0"
1$
0%
0&
0(
1a
1\
1X
1D
1A
1?
1)
1,
1.
#270000
b1 !
0E
10
#275000
b11 !
1E
00
0w
1v
1s
0`
1]
0[
1Z
0U
1T
1Y
0I
1H
0F
0k
1M
0@
0;
19
0-
0$
1&
0a
1d
0\
0V
0D
1B
0A
0>
0)
1+
0,
0/
#280000
b1 !
0E
10
#285000
b11 !
1E
00
1w
0r
1q
0s
0]
0Z
0T
0R
1Q
0P
1F
1N
0L
1@
1=
1:
08
1-
1"
1%
0'
0d
0B
0+
#290000
b1 !
0E
10
#295000
b11 !
1E
00
0w
0v
1u
1s
1`
1[
1Z
0W
1T
0Y
1P
1I
0F
1O
0N
0Z
0@
0=
1<
0:
0-
0"
1#
0%
1a
1\
0X
1@
1D
1A
0?
1-
1)
1,
0.
#300000
b1 !
0E
10
#305000
b11 !
1E
00
1w
1r
0s
0`
1^
0[
0T
1R
1F
0M
09
0&
0a
1_
0\
0D
1C
0A
0)
1*
0,
#310000
b1 !
0E
10
#315000
b11 !
1E
00
0w
1v
1s
1T
1Y
1J
0I
0H
0F
0O
1N
1M
1L
1K
1Z
0<
1:
19
18
17
0#
1%
1&
1'
1(
0@
0-
#320000
b1 !
0E
10
#325000
b11 !
1E
00
1w
1p
0r
0q
0s
0^
1[
0Z
1W
1U
0T
1S
0R
0Q
1F
0N
0M
0L
0K
1@
0:
09
08
07
1-
0%
0&
0'
0(
0_
1\
1X
1V
0C
1A
1?
1>
0*
1,
1.
1/
#330000
b1 !
0E
10
#335000
b11 !
1E
00
0w
1t
0v
0u
1s
0[
1Z
0W
0U
1T
0Y
0J
0F
1N
1M
0@
1:
19
0-
1%
1&
0\
0X
0V
0A
0?
0>
0,
0.
0/
#340000
b1 !
0E
10
#345000
b11 !
1E
00
1w
0p
0s
1[
0Z
0T
1R
1F
0N
0M
1K
1@
0:
09
17
1-
0%
0&
1(
1\
1A
1,
#350000
b1 !
0E
10
#355000
b11 !
1E
00
0w
1v
1s
1Z
0S
0R
0P
1I
0F
1N
1M
1L
0@
1=
1:
19
18
0-
1"
1%
1&
1'
#360000
b1 !
0E
10
#365000
b11 !
1E
00
0t
0v
1r
0s
0[
1U
1T
1P
1F
1k
0N
0M
0K
0=
1;
0:
09
07
0"
1$
0%
0&
0(
0\
1V
0A
1>
0,
1/
#370000
b1 !
0E
10
#375000
b11 !
1E
00
1w
1s
1`
1[
0Z
1W
0T
1R
0I
1H
0F
0k
1M
1@
0;
19
1-
0$
1&
1a
1\
1X
1D
1A
1?
1)
1,
1.
#380000
b1 !
0E
10
#385000
b11 !
1E
00
0w
1v
0r
1q
0s
0`
1]
0[
1Z
0U
1T
1Y
0P
1F
1N
0L
0@
1=
1:
08
0-
1"
1%
0'
0a
1d
0\
0V
0D
1B
0A
0>
0)
1+
0,
0/
#390000
b1 !
0E
10
#395000
b11 !
1E
00
1w
1s
0]
0Z
0T
0R
1Q
1P
1I
0F
1O
0N
1@
0=
1<
0:
1-
0"
1#
0%
0d
0B
0+
#400000
b1 !
0E
10
#405000
b11 !
1E
00
0w
0v
1u
1r
0s
1`
1[
1Z
0W
1T
0Y
1F
0M
0Z
0@
09
0-
0&
1a
1\
0X
1@
1D
1A
0?
1-
1)
1,
0.
#410000
b1 !
0E
10
#415000
b11 !
1E
00
1w
1s
0`
1^
0[
0T
1R
1J
0I
0H
0F
0O
1N
1M
1L
1K
0<
1:
19
18
17
0#
1%
1&
1'
1(
0a
1_
0\
0D
1C
0A
0)
1*
0,
#420000
b1 !
0E
10
#425000
b11 !
1E
00
0w
1v
1p
0r
0q
0s
1T
1Y
1F
0N
0M
0L
0K
1Z
0:
09
08
07
0%
0&
0'
0(
0@
0-
#430000
b1 !
0E
10
#435000
b11 !
1E
00
1w
1s
0^
1[
0Z
1W
1U
0T
1S
0R
0Q
0J
0F
1N
1M
1@
1:
19
1-
1%
1&
0_
1\
1X
1V
0C
1A
1?
1>
0*
1,
1.
1/
#440000
b1 !
0E
10
#445000
b11 !
1E
00
0w
1t
0v
0u
0p
0s
0[
1Z
0W
0U
1T
0Y
1F
0N
0M
1K
0@
0:
09
17
0-
0%
0&
1(
0\
0X
0V
0A
0?
0>
0,
0.
0/
#450000
b1 !
0E
10
#455000
b11 !
1E
00
1w
1s
1[
0Z
0T
1R
0P
1I
0F
1N
1M
1L
1@
1=
1:
19
18
1-
1"
1%
1&
1'
1\
1A
1,
#460000
b1 !
0E
10
#465000
b11 !
1E
00
0w
1v
1r
0s
1Z
0S
0R
1P
1F
1k
0N
0M
0K
0@
0=
1;
0:
09
07
0-
0"
1$
0%
0&
0(
#470000
b1 !
0E
10
#475000
b11 !
1E
00
0t
0v
1s
0[
1U
1T
0I
1H
0F
0k
1M
0;
19
0$
1&
0\
1V
0A
1>
0,
1/
#480000
b1 !
0E
10
#485000
b11 !
1E
00
1w
0r
1q
0s
1`
1[
0Z
1W
0T
1R
0P
1F
1N
0L
1@
1=
1:
08
1-
1"
1%
0'
1a
1\
1X
1D
1A
1?
1)
1,
1.
#490000
b1 !
0E
10
#495000
b11 !
1E
00
0w
1v
1s
0`
1]
0[
1Z
0U
1T
1Y
1P
1I
0F
1O
0N
0@
0=
1<
0:
0-
0"
1#
0%
0a
1d
0\
0V
0D
1B
0A
0>
0)
1+
0,
0/
#500000
b1 !
0E
10
#505000
b11 !
1E
00
1w
1r
0s
0]
0Z
0T
0R
1Q
1F
0M
1@
09
1-
0&
0d
0B
0+
#510000
b1 !
0E
10
#515000
b11 !
1E
00
0w
0v
1u
1s
1`
1[
1Z
0W
1T
0Y
1J
0I
0H
0F
0O
1N
1M
1L
1K
0Z
0@
0<
1:
19
18
17
0-
0#
1%
1&
1'
1(
1a
1\
0X
1@
1D
1A
0?
1-
1)
1,
0.
#520000
b1 !
0E
10
#525000
b11 !
1E
00
1w
1p
0r
0q
0s
0`
1^
0[
0T
1R
1F
0N
0M
0L
0K
0:
09
08
07
0%
0&
0'
0(
0a
1_
0\
0D
1C
0A
0)
1*
0,
#530000
b1 !
0E
10
#535000
b11 !
1E
00
0w
1v
1s
1T
1Y
0J
0F
1N
1M
1Z
1:
19
1%
1&
0@
0-
#540000
b1 !
0E
10
#545000
b11 !
1E
00
1w
0p
0s
0^
1[
0Z
1W
1U
0T
1S
0R
0Q
1F
0N
0M
1K
1@
0:
09
17
1-
0%
0&
1(
0_
1\
1X
1V
0C
1A
1?
1>
0*
1,
1.
1/
#550000
b1 !
0E
10
#555000
b11 !
1E
00
0w
1t
0v
0u
1s
0[
1Z
0W
0U
1T
0Y
0P
1I
0F
1N
1M
1L
0@
1=
1:
19
18
0-
1"
1%
1&
1'
0\
0X
0V
0A
0?
0>
0,
0.
0/
#560000
b1 !
0E
10
#565000
b11 !
1E
00
1w
1r
0s
1[
0Z
0T
1R
1P
1F
1k
0N
0M
0K
1@
0=
1;
0:
09
07
1-
0"
1$
0%
0&
0(
1\
1A
1,
#570000
b1 !
0E
10
#575000
b11 !
1E
00
0w
1v
1s
1Z
0S
0R
0I
1H
0F
0k
1M
0@
0;
19
0-
0$
1&
#580000
b1 !
0E
10
#585000
b11 !
1E
00
0t
0v
0r
1q
0s
0[
1U
1T
0P
1F
1N
0L
1=
1:
08
1"
1%
0'
0\
1V
0A
1>
0,
1/
#590000
b1 !
0E
10
#595000
b11 !
1E
00
1w
1s
1`
1[
0Z
1W
0T
1R
1P
1I
0F
1O
0N
1@
0=
1<
0:
1-
0"
1#
0%
1a
1\
1X
1D
1A
1?
1)
1,
1.
#600000
b1 !
0E
10
#605000
b11 !
1E
00
0w
1v
1r
0s
0`
1]
0[
1Z
0U
1T
1Y
1F
0M
0@
09
0-
0&
0a
1d
0\
0V
0D
1B
0A
0>
0)
1+
0,
0/
#610000
b1 !
0E
10
#615000
b11 !
1E
00
1w
1s
0]
0Z
0T
0R
1Q
1J
0I
0H
0F
0O
1N
1M
1L
1K
1@
0<
1:
19
18
17
1-
0#
1%
1&
1'
1(
0d
0B
0+
#620000
b1 !
0E
10
#625000
b11 !
1E
00
0w
0v
1u
1p
0r
0q
0s
1`
1[
1Z
0W
1T
0Y
1F
0N
0M
0L
0K
0Z
0@
0:
09
08
07
0-
0%
0&
0'
0(
1a
1\
0X
1@
1D
1A
0?
1-
1)
1,
0.
#630000
b1 !
0E
10
#635000
b11 !
1E
00
1w
1s
0`
1^
0[
0T
1R
0J
0F
1N
1M
1:
19
1%
1&
0a
1_
0\
0D
1C
0A
0)
1*
0,
#640000
b1 !
0E
10
#645000
b11 !
1E
00
0w
1v
0p
0s
1T
1Y
1F
0N
0M
1K
1Z
0:
09
17
0%
0&
1(
0@
0-
#650000
b1 !
0E
10
#655000
b11 !
1E
00
1w
1s
0^
1[
0Z
1W
1U
0T
1S
0R
0Q
0P
1I
0F
1N
1M
1L
1@
1=
1:
19
18
1-
1"
1%
1&
1'
0_
1\
1X
1V
0C
1A
1?
1>
0*
1,
1.
1/
#660000
b1 !
0E
10
#665000
b11 !
1E
00
0w
1t
0v
0u
1r
0s
0[
1Z
0W
0U
1T
0Y
1P
1F
1k
0N
0M
0K
0@
0=
1;
0:
09
07
0-
0"
1$
0%
0&
0(
0\
0X
0V
0A
0?
0>
0,
0.
0/
#670000
b1 !
0E
10
#675000
b11 !
1E
00
1w
1s
1[
0Z
0T
1R
0I
1H
0F
0k
1M
1@
0;
19
1-
0$
1&
1\
1A
1,
#680000
b1 !
0E
10
#685000
b11 !
1E
00
0w
1v
0r
1q
0s
1Z
0S
0R
0P
1F
1N
0L
0@
1=
1:
08
0-
1"
1%
0'
#690000
b1 !
0E
10
#695000
b11 !
1E
00
0t
0v
1s
0[
1U
1T
1P
1I
0F
1O
0N
0=
1<
0:
0"
1#
0%
0\
1V
0A
1>
0,
1/
#700000
b1 !
0E
10
#705000
b11 !
1E
00
1w
1r
0s
1`
1[
0Z
1W
0T
1R
1F
0M
1@
09
1-
0&
1a
1\
1X
1D
1A
1?
1)
1,
1.
#710000
b1 !
0E
10
#715000
b11 !
1E
00
0w
1v
1s
0`
1]
0[
1Z
0U
1T
1Y
1J
0I
0H
0F
0O
1N
1M
1L
1K
0@
0<
1:
19
18
17
0-
0#
1%
1&
1'
1(
0a
1d
0\
0V
0D
1B
0A
0>
0)
1+
0,
0/
#720000
b1 !
0E
10
#725000
b11 !
1E
00
1w
1p
0r
0q
0s
0]
0Z
0T
0R
1Q
1F
0N
0M
0L
0K
1@
0:
09
08
07
1-
0%
0&
0'
0(
0d
0B
0+
#730000
b1 !
0E
10
#735000
b11 !
1E
00
0w
0v
1u
1s
1`
1[
1Z
0W
1T
0Y
0J
0F
1N
1M
0Z
0@
1:
19
0-
1%
1&
1a
1\
0X
1@
1D
1A
0?
1-
1)
1,
0.
#740000
b1 !
0E
10
#745000
b11 !
1E
00
1w
0p
0s
0`
1^
0[
0T
1R
1F
0N
0M
1K
0:
09
17
0%
0&
1(
0a
1_
0\
0D
1C
0A
0)
1*
0,
#750000
b1 !
0E
10
#755000
b11 !
1E
00
0w
1v
1s
1T
1Y
0P
1I
0F
1N
1M
1L
1Z
1=
1:
19
18
1"
1%
1&
1'
0@
0-
#760000
b1 !
0E
10
#765000
b11 !
1E
00
1w
1r
0s
0^
1[
0Z
1W
1U
0T
1S
0R
0Q
1P
1F
1k
0N
0M
0K
1@
0=
1;
0:
09
07
1-
0"
1$
0%
0&
0(
0_
1\
1X
1V
0C
1A
1?
1>
0*
1,
1.
1/
#770000
b1 !
0E
10
#775000
b11 !
1E
00
0w
1t
0v
0u
1s
0[
1Z
0W
0U
1T
0Y
0I
1H
0F
0k
1M
0@
0;
19
0-
0$
1&
0\
0X
0V
0A
0?
0>
0,
0.
0/
#780000
b1 !
0E
10
#785000
b11 !
1E
00
1w
0r
1q
0s
1[
0Z
0T
1R
0P
1F
1N
0L
1@
1=
1:
08
1-
1"
1%
0'
1\
1A
1,
#790000
b1 !
0E
10
#795000
b11 !
1E
00
0w
1v
1s
1Z
0S
0R
1P
1I
0F
1O
0N
0@
0=
1<
0:
0-
0"
1#
0%
#800000
b1 !
0E
10
#805000
b11 !
1E
00
0t
0v
1r
0s
0[
1U
1T
1F
0M
09
0&
0\
1V
0A
1>
0,
1/
#810000
b1 !
0E
10
#815000
b11 !
1E
00
1w
1s
1`
1[
0Z
1W
0T
1R
1J
0I
0H
0F
0O
1N
1M
1L
1K
1@
0<
1:
19
18
17
1-
0#
1%
1&
1'
1(
1a
1\
1X
1D
1A
1?
1)
1,
1.
#820000
b1 !
0E
10
#825000
b11 !
1E
00
0w
1v
1p
0r
0q
0s
0`
1]
0[
1Z
0U
1T
1Y
1F
0N
0M
0L
0K
0@
0:
09
08
07
0-
0%
0&
0'
0(
0a
1d
0\
0V
0D
1B
0A
0>
0)
1+
0,
0/
#830000
b1 !
0E
10
#835000
b11 !
1E
00
1w
1s
0]
0Z
0T
0R
1Q
0J
0F
1N
1M
1@
1:
19
1-
1%
1&
0d
0B
0+
#840000
b1 !
0E
10
#845000
b11 !
1E
00
0w
0v
1u
0p
0s
1`
1[
1Z
0W
1T
0Y
1F
0N
0M
1K
0Z
0@
0:
09
17
0-
0%
0&
1(
1a
1\
0X
1@
1D
1A
0?
1-
1)
1,
0.
#850000
b1 !
0E
10
#855000
b11 !
1E
00
1w
1s
0`
1^
0[
0T
1R
0P
1I
0F
1N
1M
1L
1=
1:
19
18
1"
1%
1&
1'
0a
1_
0\
0D
1C
0A
0)
1*
0,
#860000
b1 !
0E
10
#865000
b11 !
1E
00
0w
1v
1r
0s
1T
1Y
1P
1F
1k
0N
0M
0K
1Z
0=
1;
0:
09
07
0"
1$
0%
0&
0(
0@
0-
#870000
b1 !
0E
10
#875000
b11 !
1E
00
1w
1s
0^
1[
0Z
1W
1U
0T
1S
0R
0Q
0I
1H
0F
0k
1M
1@
0;
19
1-
0$
1&
0_
1\
1X
1V
0C
1A
1?
1>
0*
1,
1.
1/
#880000
b1 !
0E
10
#885000
b11 !
1E
00
0w
1t
0v
0u
0r
1q
0s
0[
1Z
0W
0U
1T
0Y
0P
1F
1N
0L
0@
1=
1:
08
0-
1"
1%
0'
0\
0X
0V
0A
0?
0>
0,
0.
0/
#890000
b1 !
0E
10
#895000
b11 !
1E
00
1w
1s
1[
0Z
0T
1R
1P
1I
0F
1O
0N
1@
0=
1<
0:
1-
0"
1#
0%
1\
1A
1,
#900000
b1 !
0E
10
#905000
b11 !
1E
00
0w
1v
1r
0s
1Z
0S
0R
1F
0M
0@
09
0-
0&
#910000
b1 !
0E
10
#915000
b11 !
1E
00
0t
0v
1s
0[
1U
1T
1J
0I
0H
0F
0O
1N
1M
1L
1K
0<
1:
19
18
17
0#
1%
1&
1'
1(
0\
1V
0A
1>
0,
1/
#920000
b1 !
0E
10
#925000
b11 !
1E
00
1w
1p
0r
0q
0s
1`
1[
0Z
1W
0T
1R
1F
0N
0M
0L
0K
1@
0:
09
08
07
1-
0%
0&
0'
0(
1a
1\
1X
1D
1A
1?
1)
1,
1.
#930000
b1 !
0E
10
#935000
b11 !
1E
00
0w
1v
1s
0`
1]
0[
1Z
0U
1T
1Y
0J
0F
1N
1M
0@
1:
19
0-
1%
1&
0a
1d
0\
0V
0D
1B
0A
0>
0)
1+
0,
0/
#940000
b1 !
0E
10
#945000
b11 !
1E
00
1w
0p
0s
0]
0Z
0T
0R
1Q
1F
0N
0M
1K
1@
0:
09
17
1-
0%
0&
1(
0d
0B
0+
#950000
b1 !
0E
10
#955000
b11 !
1E
00
0w
0v
1u
1s
1`
1[
1Z
0W
1T
0Y
0P
1I
0F
1N
1M
1L
0Z
0@
1=
1:
19
18
0-
1"
1%
1&
1'
1a
1\
0X
1@
1D
1A
0?
1-
1)
1,
0.
#960000
b1 !
0E
10
#965000
b11 !
1E
00
1w
1r
0s
0`
1^
0[
0T
1R
1P
1F
1k
0N
0M
0K
0=
1;
0:
09
07
0"
1$
0%
0&
0(
0a
1_
0\
0D
1C
0A
0)
1*
0,
#970000
b1 !
0E
10
#975000
b11 !
1E
00
0w
1v
1s
1T
1Y
0I
1H
0F
0k
1M
1Z
0;
19
0$
1&
0@
0-
#980000
b1 !
0E
10
#985000
b11 !
1E
00
1w
0r
1q
0s
0^
1[
0Z
1W
1U
0T
1S
0R
0Q
0P
1F
1N
0L
1@
1=
1:
08
1-
1"
1%
0'
0_
1\
1X
1V
0C
1A
1?
1>
0*
1,
1.
1/
#990000
b1 !
0E
10
#995000
b11 !
1E
00
0w
1t
0v
0u
1s
0[
1Z
0W
0U
1T
0Y
1P
1I
0F
1O
0N
0@
0=
1<
0:
0-
0"
1#
0%
0\
0X
0V
0A
0?
0>
0,
0.
0/
