Lab6/simulation/qsim/Lab6_2.msim.vcd
$comment
	File created using the following command:
		vcd file Lab6_2.msim.vcd -direction
$end
$date
	Wed Mar 27 19:56:18 2024
$end
$version
	ModelSim Version 10.1d
$end
$timescale
	1ps
$end
$scope module Lab6_2_vlg_vec_tst $end
$var reg 2 ! KEY [2:1] $end
$var reg 8 " SW [7:0] $end
$var wire 1 # LEDG [9] $end
$var wire 1 $ LEDG [8] $end
$var wire 1 % LEDG [7] $end
$var wire 1 & LEDG [6] $end
$var wire 1 ' LEDG [5] $end
$var wire 1 ( LEDG [4] $end
$var wire 1 ) LEDG [3] $end
$var wire 1 * LEDG [2] $end
$var wire 1 + LEDG [1] $end
$var wire 1 , LEDG [0] $end
$var wire 1 - sampler $end
$scope module i1 $end
$var wire 1 . gnd $end
$var wire 1 / vcc $end
$var wire 1 0 unknown $end
$var tri1 1 1 devclrn $end
$var tri1 1 2 devpor $end
$var tri1 1 3 devoe $end
$var wire 1 4 LEDG[0]~output_o $end
$var wire 1 5 LEDG[1]~output_o $end
$var wire 1 6 LEDG[2]~output_o $end
$var wire 1 7 LEDG[3]~output_o $end
$var wire 1 8 LEDG[4]~output_o $end
$var wire 1 9 LEDG[5]~output_o $end
$var wire 1 : LEDG[6]~output_o $end
$var wire 1 ; LEDG[7]~output_o $end
$var wire 1 < LEDG[8]~output_o $end
$var wire 1 = LEDG[9]~output_o $end
$var wire 1 > KEY[2]~input_o $end
$var wire 1 ? SW[0]~input_o $end
$var wire 1 @ Add0~0_combout $end
$var wire 1 A KEY[1]~input_o $end
$var wire 1 B SW[1]~input_o $end
$var wire 1 C Add0~1 $end
$var wire 1 D Add0~2_combout $end
$var wire 1 E SW[2]~input_o $end
$var wire 1 F Add0~3 $end
$var wire 1 G Add0~4_combout $end
$var wire 1 H SW[3]~input_o $end
$var wire 1 I Add0~5 $end
$var wire 1 J Add0~6_combout $end
$var wire 1 K SW[4]~input_o $end
$var wire 1 L Add0~7 $end
$var wire 1 M Add0~8_combout $end
$var wire 1 N SW[5]~input_o $end
$var wire 1 O Add0~9 $end
$var wire 1 P Add0~10_combout $end
$var wire 1 Q SW[6]~input_o $end
$var wire 1 R Add0~11 $end
$var wire 1 S Add0~12_combout $end
$var wire 1 T SW[7]~input_o $end
$var wire 1 U Add0~13 $end
$var wire 1 V Add0~14_combout $end
$var wire 1 W Add0~15 $end
$var wire 1 X Add0~16_combout $end
$var wire 1 Y LEDG[9]~0_combout $end
$var wire 1 Z LEDG[9]~reg0_q $end
$var wire 1 [ sum [8] $end
$var wire 1 \ sum [7] $end
$var wire 1 ] sum [6] $end
$var wire 1 ^ sum [5] $end
$var wire 1 _ sum [4] $end
$var wire 1 ` sum [3] $end
$var wire 1 a sum [2] $end
$var wire 1 b sum [1] $end
$var wire 1 c sum [0] $end
$upscope $end
$upscope $end
$enddefinitions $end
#0
$dumpvars
b1 !
b10100 "
0,
0+
0*
0)
0(
0'
0&
0%
0$
0#
x-
0.
1/
x0
11
12
13
04
05
06
07
08
09
0:
0;
0<
0=
0>
0?
0@
1A
0B
0C
0D
1E
1F
1G
0H
0I
0J
1K
1L
1M
0N
0O
0P
0Q
1R
0S
0T
0U
0V
1W
0X
0Y
0Z
0c
0b
0a
0`
0_
0^
0]
0\
0[
$end
#5000
b11 !
1>
0-
1_
1a
1O
0M
1I
0G
18
16
1(
1*
1P
1J
#10000
b11100 "
b11101 "
b1 !
0>
1?
1H
1-
1@
0L
0J
1M
#15000
b11 !
1>
0-
1^
0a
1c
0R
0P
0I
1G
1C
0@
19
06
14
1'
0*
1,
1S
1L
1J
1D
0M
#20000
b111101 "
b111001 "
b110001 "
b110000 "
b1 !
0>
0?
0E
0H
1N
1-
0C
1@
0G
0J
1P
0D
#25000
b11 !
1>
0-
1]
0_
1U
0S
0O
1M
1:
08
1&
0(
1V
0P
#30000
b1110000 "
b1100000 "
b1000000 "
b1000100 "
b1000101 "
b1 !
0>
1?
1E
0K
0N
1Q
1-
1C
0@
1G
0M
1R
1P
1S
1D
0S
#35000
b11 !
1>
0-
1\
0]
1a
1b
0c
0W
0V
0U
1S
1I
0G
0F
0D
0C
1@
1;
0:
16
15
04
1%
0&
1*
1+
0,
1X
1W
1V
1J
1G
1F
1D
1Y
0X
0G
0Y
#40000
b11000101 "
b11000001 "
b1 !
0>
0E
1T
1-
0I
1G
0W
0V
0J
1X
1Y
#45000
b11 !
1>
0-
1[
1Z
0\
1]
1c
0X
1W
1V
1U
0S
1C
0@
1=
0;
1:
14
1#
0%
1&
1,
1X
0W
0V
0F
0D
0X
1I
0G
1J
#50000
b11000011 "
b11001011 "
b10001011 "
b10011011 "
b1 !
0>
1B
1H
1K
0Q
1-
1D
0L
0J
1M
0U
1S
1O
0M
1W
1V
0R
0P
1X
1U
0S
0W
0V
0X
#55000
b11 !
1>
0-
0[
0]
0^
0a
0c
1X
0U
1S
1R
1P
0I
1G
0C
1@
0:
09
06
04
0&
0'
0*
0,
1W
1V
0S
1L
1J
0D
0X
0O
1M
0P
#60000
b10111011 "
b111011 "
b110011 "
b1110011 "
b1100011 "
b1 !
0>
0H
0K
1N
1Q
0T
1-
0J
0M
1P
1S
0V
#65000
b11 !
1>
0-
1]
1^
1a
0b
1c
1U
0S
0R
0P
1I
0G
1F
1D
1C
0@
1:
19
16
05
14
1&
1'
1*
0+
1,
1V
1S
1J
0I
1G
0F
0D
0J
1I
0G
1J
#70000
b1100010 "
b1100000 "
b11100000 "
b11101000 "
b11111000 "
b1 !
0>
0?
0B
1H
1K
1T
1-
0C
1@
1F
1D
0L
0J
1M
0W
0V
0D
0I
1G
1O
0M
1X
1L
1J
1P
0O
1M
0P
#75000
b11 !
1>
0-
1[
0^
1_
1`
0X
1R
1P
1O
0M
0L
0J
09
18
17
0'
1(
1)
0S
0R
0P
1M
1S
#80000
b11111100 "
b1111100 "
b1101100 "
b1 !
0>
1E
0K
0T
1-
1I
0G
0M
1W
1V
1J
1X
#85000
b11 !
1>
0-
1\
0_
0a
0W
0V
0O
1M
0I
1G
1;
08
06
1%
0(
0*
0X
1R
1P
0J
0S
#90000
b1001100 "
b1100 "
b1101 "
b1111 "
b111 "
b11 "
b10000011 "
b1 !
0>
1?
1B
0E
0H
0N
0Q
1T
1-
1C
0@
1D
0G
1L
1J
0P
0U
1S
1V
0F
0D
0M
0V
1G
#95000
b11 !
1>
0-
0[
0\
1a
0c
1X
1W
1V
1I
0G
0C
1@
0;
16
04
0%
1*
0,
0X
0L
0J
1F
1D
1M
0I
1G
1L
1J
0M
#100000
b10010011 "
b10110011 "
b10110010 "
b10111010 "
b10111110 "
b1 !
0>
0?
1E
1H
1K
1N
1-
0@
1I
0G
0L
0J
1M
1P
1J
1O
0M
0R
0P
1U
0S
0W
0V
1X
#105000
b11 !
1>
0-
1[
0]
0a
1b
0X
0U
1S
0I
1G
0F
0D
0:
06
15
0&
0*
1+
1W
1V
0J
1I
0G
1X
1J
#110000
b10111100 "
b10101100 "
b10001100 "
b10001101 "
b1 !
0>
1?
0B
0K
0N
1-
1@
1F
1D
0O
1M
1R
1P
0I
1G
0P
0S
0J
#115000
b11 !
1>
0-
1\
1_
0`
1a
1c
0W
0V
1O
0M
1L
1J
1I
0G
1C
0@
1;
18
07
16
14
1%
1(
0)
1*
1,
0X
1P
0O
1M
0L
0J
0F
0D
0P
1O
0M
1G
1P
#120000
b10000101 "
b10000001 "
b10010001 "
b10010000 "
b1 !
0>
0?
0E
0H
1K
1-
0C
1@
0G
1L
1J
1M
1F
1D
0M
0I
1G
0J
#125000
b11 !
1>
0-
0[
0\
1^
0_
1X
1W
1V
0R
0P
0O
1M
0;
19
08
0%
1'
0(
0X
1S
1R
1P
0S
#130000
b10010010 "
b10010110 "
b10000110 "
b1 !
0>
1B
1E
0K
1-
0F
0D
1I
0G
0M
1G
1J
#135000
b11 !
1>
0-
1\
1`
0b
0W
0V
0L
0J
1F
1D
1;
17
05
1%
1)
0+
1X
1M
0G
#140000
b11000110 "
b11100110 "
b11100100 "
b11100000 "
b1 !
0>
0B
0E
1N
1Q
1-
0D
0I
1G
0R
0P
1S
1L
1J
1U
0S
0M
1V
#145000
b11 !
1>
0-
1[
0^
0X
1R
1P
09
0'
0U
1S
0V
#150000
b1100000 "
b1101000 "
b1101001 "
b101001 "
b101011 "
b101111 "
b1 !
0>
1?
1B
1E
1H
0Q
0T
1-
1C
0@
1D
1I
0G
0L
0J
0S
1W
1V
0F
0D
1J
1M
1X
1G
#155000
b11 !
1>
0-
1^
1_
0c
0R
0P
1O
0M
0C
1@
19
18
04
1'
1(
0,
1S
1P
1F
1D
0G
#160000
b111111 "
b11111 "
b10111 "
b1 !
0>
0H
1K
0N
1-
0J
1M
0P
#165000
b11 !
1>
0-
1]
0^
0`
0a
1b
1c
1U
0S
1R
1P
1L
1J
0I
1G
0F
0D
1C
0@
1:
09
07
06
15
14
1&
0'
0)
0*
1+
1,
0W
0V
0U
1S
0M
0J
1I
0G
1D
0X
1W
1V
1J
1X
#170000
b10010111 "
b10010110 "
b11010110 "
b11010100 "
b11010000 "
b11011000 "
b1 !
0>
0?
0B
0E
1H
1Q
1T
1-
0C
1@
0D
0I
1G
0L
0J
1U
0S
0W
0V
1F
1D
1L
1J
1M
1V
0X
0G
0M
#175000
b11 !
1>
0-
0[
0]
1^
0_
1`
1X
0U
1S
0R
0P
0O
1M
0L
0J
0:
19
08
17
0&
1'
0(
1)
0V
1U
0S
1R
1P
1O
0M
1V
0U
1S
0R
0P
0V
1U
0S
1V
#180000
b11001000 "
b1001000 "
b1000 "
b1010 "
b1110 "
b110 "
b1 !
0>
1B
1E
0H
0K
0Q
0T
1-
0F
0D
1G
1L
1J
0O
1M
0U
1S
0V
1I
0G
0M
1R
1P
1W
1V
0L
0J
0S
0X
1M
#185000
b11 !
1>
0-
1_
0`
0b
1O
0M
1L
1J
1F
1D
18
07
05
1(
0)
0+
0R
0P
0O
1M
0I
1G
1S
1R
1P
0J
0S
#190000
b111 "
b10111 "
b10010111 "
b10010101 "
b1 !
0>
1?
0B
1K
1T
1-
1C
0@
0D
1O
0M
0W
0V
1D
0R
0P
1X
1S
#195000
b11 !
1>
0-
1[
0\
1]
0^
0_
1a
1b
0c
0X
1W
1V
1U
0S
1R
1P
0O
1M
1I
0G
0F
0D
0C
1@
0;
1:
09
08
16
15
04
0%
1&
0'
0(
1*
1+
0,
1X
0W
0V
0U
1S
0P
1J
1G
1F
1D
0X
1W
1V
0G
1X
#200000
b11010101 "
b11010001 "
b11010011 "
b1 !
0>
1B
0E
1Q
1-
0F
0D
0I
1G
1U
0S
1I
0G
0J
0W
0V
1J
0X
#205000
b11 !
1>
0-
0[
0]
1_
1`
0a
0b
1c
1X
0U
1S
1O
0M
0L
0J
0I
1G
1F
1D
1C
0@
0:
18
17
06
05
14
0&
1(
1)
0*
0+
1,
1W
1V
1P
1M
1L
1J
0G
0F
0D
0X
0M
1G
#210000
b11110011 "
b1110011 "
b110011 "
b110111 "
b1 !
0>
1E
1N
0Q
0T
1-
1I
0G
0R
0P
0S
0V
0L
0J
1S
1M
#215000
b11 !
1>
0-
1]
0`
0c
1U
0S
1L
1J
0C
1@
1:
07
04
1&
0)
0,
1V
0M
1F
1D
0I
1G
0J
#220000
b111111 "
b11111 "
b10011111 "
b10011011 "
b1 !
0>
0E
1H
0N
1T
1-
0G
1J
1R
1P
0W
0V
0U
1S
1X
1W
1V
0X
#225000
b11 !
1>
0-
1\
1^
0_
1`
1b
1c
0W
0V
0R
0P
0O
1M
0L
0J
0F
0D
1C
0@
1;
19
08
17
15
14
1%
1'
0(
1)
1+
1,
1X
1U
0S
1R
1P
1O
0M
1G
1D
1V
0U
1S
0R
0P
0V
1U
0S
1V
#230000
b10001011 "
b10001001 "
b10000001 "
b10100001 "
b100001 "
b1 !
0>
0B
0H
0K
1N
0T
1-
0D
1L
1J
0O
1M
1P
0V
0M
0P
#235000
b11 !
1>
0-
1[
0\
0]
0^
1a
0b
0c
0X
1W
1V
0U
1S
1R
1P
1I
0G
1F
1D
0C
1@
0;
0:
09
16
05
04
0%
0&
0'
1*
0+
0,
1X
0V
0S
0L
0J
0I
1G
0D
1M
1L
1J
0M
#240000
b100000 "
b110000 "
b10110000 "
b1 !
0>
0?
1K
1T
1-
0@
1M
1V
#245000
b11 !
1>
0-
1\
1^
1_
0W
0V
0R
0P
1O
0M
1;
19
18
1%
1'
1(
0X
1S
1P
#250000
b10110100 "
b10110110 "
b10111110 "
b10101110 "
b1 !
0>
1B
1E
1H
0K
1-
1D
1I
0G
0L
0J
0O
1M
1J
1O
0M
0P
1P
#255000
b11 !
1>
0-
0[
0\
1]
0_
0a
1b
1X
1W
1V
1U
0S
0O
1M
0I
1G
0F
0D
0;
1:
08
06
15
0%
1&
0(
0*
1+
0X
0W
0V
0P
0J
1I
0G
1X
1J
#260000
b11101110 "
b11101111 "
b1101111 "
b1101011 "
b1111011 "
b1 !
0>
1?
0E
1K
1Q
0T
1-
1@
0I
1G
1O
0M
1S
1W
1V
0J
1P
0X
#265000
b11 !
1>
0-
1\
0`
1a
0b
1c
0W
0V
1L
1J
1I
0G
1F
1D
1C
0@
1;
07
16
05
14
1%
0)
1*
0+
1,
1X
0O
1M
0L
0J
0I
1G
0F
0D
0P
1O
0M
1L
1J
1I
0G
1P
0O
1M
0L
0J
0P
1O
0M
1P
#270000
b1011011 "
b1011001 "
b1010001 "
b10001 "
b10010001 "
b1 !
0>
0B
0H
0N
0Q
1T
1-
1F
1D
1L
1J
0P
0S
1V
0I
1G
0O
1M
0J
1R
1P
0U
1S
0V
#275000
b11 !
1>
0-
1[
0\
1_
1b
0c
0X
1W
1V
1O
0M
0F
0D
0C
1@
0;
18
15
04
0%
1(
1+
0,
1X
0R
0P
1I
0G
1F
1D
1U
0S
1J
0I
1G
0W
0V
0J
0X
#280000
b10010101 "
b10000101 "
b10000111 "
b10001111 "
b1111 "
b1 !
0>
1B
1E
1H
0K
0T
1-
0F
0D
1I
0G
1J
0O
1M
1W
1V
1G
0L
0J
1R
1P
1X
1O
0M
0U
1S
0R
0P
0V
1U
0S
1V
#285000
b11 !
1>
0-
1\
0]
0^
0_
0b
1c
0W
0V
0U
1S
1R
1P
0O
1M
1F
1D
1C
0@
1;
0:
09
08
05
14
1%
0&
0'
0(
0+
1,
0X
1W
1V
0S
0P
0G
0F
0D
1X
1G
#290000
b1110 "
b1001110 "
b1001100 "
b1000100 "
b1 !
0>
0?
0B
0H
1Q
1-
0C
1@
1F
1D
1L
1J
1S
0D
0G
0M
#295000
b11 !
1>
0-
1]
1`
0a
1U
0S
0L
0J
0I
1G
1:
17
06
1&
1)
0*
0W
0V
1M
1L
1J
0X
0M
#300000
b1100100 "
b1100000 "
b1110000 "
b11110000 "
b11110001 "
b11110011 "
b11111011 "
b1 !
0>
1?
1B
0E
1H
1K
1N
1T
1-
1C
0@
1D
0G
0L
0J
1M
1P
1V
0F
0D
1O
0M
1G
0R
0P
1S
#305000
b11 !
1>
0-
0[
0`
1a
0c
1X
1L
1J
1I
0G
0C
1@
07
16
04
0)
1*
0,
0O
1M
0L
0J
1F
1D
1R
1P
1O
0M
0I
1G
0S
0R
0P
1L
1J
1S
0O
1M
1R
1P
0S
#310000
b1111011 "
b1110011 "
b1 !
0>
0H
0T
1-
0J
0V
#315000
b11 !
1>
0-
1[
0\
0]
1^
1_
1b
1c
0X
1W
1V
0U
1S
0R
0P
1O
0M
0F
0D
1C
0@
0;
0:
19
18
15
14
0%
0&
1'
1(
1+
1,
1X
0V
1U
0S
1P
1I
0G
1D
1V
1J
#320000
b110011 "
b10011 "
b10111 "
b10110 "
b10010110 "
b1 !
0>
0?
1E
0N
0Q
1T
1-
0C
1@
1G
0P
0U
1S
0W
0V
0D
1W
1V
0X
1X
#325000
b11 !
1>
0-
1\
1]
0^
0_
1`
0b
0W
0V
1U
0S
1R
1P
0O
1M
0L
0J
1F
1D
1;
1:
09
08
17
05
1%
1&
0'
0(
1)
0+
0X
1V
0U
1S
0P
1O
0M
0G
0V
1P
#330000
b10000110 "
b10000100 "
b11000100 "
b11100100 "
b11100000 "
b11100001 "
b1100001 "
b1 !
0>
1?
0B
0E
0K
1N
1Q
0T
1-
1C
0@
0D
0I
1G
0O
1M
0R
0P
1U
0S
1W
1V
1D
1L
1J
1R
1P
1S
0W
0V
1X
0M
0S
0X
#335000
b11 !
1>
0-
0[
0\
0]
1^
1b
0c
1X
1W
1V
0U
1S
0R
0P
0F
0D
0C
1@
0;
0:
19
15
04
0%
0&
1'
1+
0,
0X
0V
1U
0S
1I
0G
1F
1D
1V
0L
0J
0I
1G
1M
1L
1J
0M
#340000
b1110001 "
b1110011 "
b1010011 "
b1010111 "
b1 !
0>
1B
1E
1K
0N
1-
0F
0D
1I
0G
1M
1R
1P
1G
0L
0J
0U
1S
1O
0M
0V
0R
0P
1U
0S
1V
#345000
b11 !
1>
0-
1\
0^
0`
0b
1c
0W
0V
1R
1P
1L
1J
1F
1D
1C
0@
1;
09
07
05
14
1%
0'
0)
0+
1,
1X
0U
1S
0O
1M
0G
0F
0D
1W
1V
0P
1G
0X
#350000
b11010111 "
b11010101 "
b11110101 "
b11110001 "
b1 !
0>
0B
0E
1N
1T
1-
1F
1D
0G
1P
0W
0V
0I
1G
1X
0J
#355000
b11 !
1>
0-
1[
0\
1]
1^
1_
1b
0c
0X
1W
1V
1U
0S
0R
0P
1O
0M
0F
0D
0C
1@
0;
1:
19
18
15
04
0%
1&
1'
1(
1+
0,
1X
0W
0V
1S
1P
1I
0G
1F
1D
0X
1J
0I
1G
0J
#360000
b11111001 "
b10111001 "
b111001 "
b11001 "
b1 !
0>
1H
0N
0Q
0T
1-
1J
0P
0S
1W
1V
1X
#365000
b11 !
1>
0-
1\
0]
0^
0_
1`
1c
0W
0V
0U
1S
1R
1P
0O
1M
0L
0J
1C
0@
1;
0:
09
08
17
14
1%
0&
0'
0(
1)
1,
0X
1W
1V
0S
0P
1O
0M
0F
0D
1X
1P
1I
0G
1J
#370000
b11000 "
b1000 "
b1010 "
b1110 "
b110 "
b100110 "
b1 !
0>
0?
1B
1E
0H
0K
1N
1-
0C
1@
1D
1G
0J
0O
1M
0R
0P
0D
1R
1P
1S
0S
#375000
b11 !
1>
0-
1^
1_
0`
0b
0R
0P
1O
0M
1L
1J
1F
1D
19
18
07
05
1'
1(
0)
0+
1S
1P
0O
1M
0G
0P
#380000
b110110 "
b111110 "
b11110 "
b1 !
0>
1H
1K
0N
1-
0L
0J
1O
0M
1R
1P
1M
0R
0P
0S
1S
#385000
b11 !
1>
0-
1]
0^
0a
1b
1U
0S
1R
1P
0I
1G
0F
0D
1:
09
06
15
1&
0'
0*
1+
0W
0V
0U
1S
1L
1J
1I
0G
0X
1W
1V
0M
0L
0J
1X
1M
#390000
b1011110 "
b11011110 "
b11011111 "
b11011011 "
b11010011 "
b11110011 "
b1 !
0>
1?
0E
0H
1N
1Q
1T
1-
1C
0@
0I
1G
1L
1J
0R
0P
1U
0S
0W
0V
1D
0J
0M
1S
1V
0X
#395000
b11 !
1>
0-
0[
0_
1a
0c
1X
0O
1M
1I
0G
0C
1@
08
16
04
0(
1*
0,
1R
1P
1J
0D
0S
#400000
b10110011 "
b110011 "
b10011 "
b1 !
0>
0N
0Q
0T
1-
0P
0U
1S
0V
1W
1V
0X
#405000
b11 !
1>
0-
1_
1`
0a
0b
1c
1O
0M
0L
0J
0I
1G
1F
1D
1C
0@
18
17
06
05
14
1(
1)
0*
0+
1,
1P
1M
1L
1J
0G
0F
0D
0M
1G
#410000
b11 "
b10 "
b110 "
b1 !
0>
0?
1E
0K
1-
0C
1@
1I
0G
0O
1M
1F
1D
0L
0J
0P
0I
1G
1O
0M
1L
1J
1P
0O
1M
0P
#415000
b11 !
1>
0-
1a
1b
1I
0G
0F
0D
16
15
1*
1+
0L
0J
1G
1O
0M
1P
#420000
b10110 "
b10111 "
b10011 "
b1 !
0>
1?
0E
1K
1-
1C
0@
0G
1M
1D
#425000
b11 !
1>
0-
1^
0`
0a
0c
0R
0P
1L
1J
0I
1G
0C
1@
19
07
06
04
1'
0)
0*
0,
1U
0S
0M
0J
0D
0W
0V
1X
#430000
b1 !
0>
1-
#435000
b11 !
1>
0-
1[
0\
0]
0^
0_
1a
0b
1c
0X
1W
1V
0U
1S
1R
1P
0O
1M
1I
0G
1F
1D
1C
0@
0;
0:
09
08
16
05
14
0%
0&
0'
0(
1*
0+
1,
1X
0V
0S
0P
1J
0I
1G
0F
0D
0J
1I
0G
1J
#440000
b11011 "
b10011011 "
b10001011 "
b10001111 "
b1 !
0>
1E
1H
0K
1T
1-
1G
0L
0J
0M
1V
1M
#445000
b11 !
1>
0-
1\
1_
0c
0W
0V
1O
0M
0C
1@
1;
18
04
1%
1(
0,
0X
1P
1F
1D
0G
#450000
b10011111 "
b10011011 "
b1 !
0>
0E
1K
1-
0I
1G
1M
1L
1J
0M
#455000
b11 !
1>
0-
0[
0\
1^
0_
1`
1b
1c
1X
1W
1V
0R
0P
0O
1M
0L
0J
0F
0D
1C
0@
0;
19
08
17
15
14
0%
1'
0(
1)
1+
1,
0X
1S
1R
1P
1O
0M
1I
0G
1D
0S
0R
0P
1J
1S
#460000
b10011001 "
b11011001 "
b11011000 "
b11010000 "
b1010000 "
b1010100 "
b1 !
0>
0?
0B
1E
0H
1Q
0T
1-
0C
1@
0D
1G
0J
1U
0S
0V
1F
1D
1V
0G
#465000
b11 !
1>
0-
1\
0^
0`
0a
0W
0V
1R
1P
1L
1J
0I
1G
1;
09
07
06
1%
0'
0)
0*
1X
0U
1S
0O
1M
0J
1W
1V
0P
0X
#470000
b10100 "
b11100 "
b10011100 "
b10011000 "
b1 !
0>
0E
1H
0Q
1T
1-
0G
1J
0S
0W
0V
1X
#475000
b11 !
1>
0-
1[
0\
1_
1`
0X
1W
1V
1O
0M
0L
0J
0;
18
17
0%
1(
1)
1X
1P
1M
#480000
b10111000 "
b11111000 "
b11110000 "
b1110000 "
b1 !
0>
0H
1N
1Q
0T
1-
1L
1J
0R
0P
1S
0V
0M
1U
0S
1V
#485000
b11 !
1>
0-
1\
0_
0W
0V
0O
1M
1;
08
1%
0(
0X
1R
1P
0U
1S
1W
1V
1X
#490000
b1100000 "
b1100010 "
b100010 "
b101010 "
b1 !
0>
1B
1H
0K
0Q
1-
0F
0D
0L
0J
0M
0S
1G
1M
#495000
b11 !
1>
0-
1^
1_
0`
1a
0b
0R
0P
1O
0M
1L
1J
1I
0G
1F
1D
19
18
07
16
05
1'
1(
0)
1*
0+
1S
1P
0O
1M
0L
0J
0I
1G
0P
1O
0M
1L
1J
1P
0O
1M
0P
#500000
b111010 "
b1111010 "
b1110010 "
b1 !
0>
0H
1K
1Q
1-
0J
1O
0M
1U
0S
1P
0W
0V
0X
#505000
b11 !
1>
0-
0[
0\
0_
1b
1X
1W
1V
0O
1M
0F
0D
0;
08
15
0%
0(
1+
0X
0P
1I
0G
1J
#510000
b1110011 "
b1110111 "
b1100111 "
b100111 "
b101111 "
b1 !
0>
1?
1E
1H
0K
0Q
1-
1C
0@
1G
0L
0J
0M
0U
1S
1D
1M
0V
#515000
b11 !
1>
0-
1]
0^
1_
0c
1U
0S
1R
1P
1O
0M
0C
1@
1:
09
18
04
1&
0'
1(
0,
1V
0U
1S
0R
0P
0D
0V
1U
0S
1V
#520000
b101110 "
b1101110 "
b1100110 "
b1 !
0>
0?
0H
1Q
1-
0@
1L
1J
1S
0O
1M
1R
1P
0S
#525000
b11 !
1>
0-
1\
0]
1^
1`
0b
0W
0V
0U
1S
0R
0P
0L
0J
1F
1D
1;
0:
19
17
05
1%
0&
1'
1)
0+
1X
1W
1V
1U
0S
1O
0M
0G
0X
0W
0V
1P
1X
#530000
b1000110 "
b1010110 "
b1010111 "
b10111 "
b11111 "
b1 !
0>
1?
1H
1K
0N
0Q
1-
1@
1J
1M
0P
0U
1S
1W
1V
0X
#535000
b11 !
1>
0-
1]
0^
0a
1b
1c
1U
0S
1R
1P
0I
1G
0F
0D
1C
0@
1:
09
06
15
14
1&
0'
0*
1+
1,
0W
0V
0U
1S
0J
1I
0G
1D
1X
1W
1V
1J
0X
#540000
b11101 "
b11001 "
b1001 "
b1000 "
b1001000 "
b1 !
0>
0?
0B
0E
0K
1Q
1-
0C
1@
0D
0I
1G
0M
1U
0S
1F
1D
0J
0W
0V
0G
1X
#545000
b11 !
1>
0-
1[
0\
0]
1^
0_
0`
0X
1W
1V
0U
1S
0R
0P
0O
1M
1L
1J
0;
0:
19
08
07
0%
0&
1'
0(
0)
1X
0V
1U
0S
1R
1P
0M
1V
0U
1S
0V
#550000
b11001000 "
b11001100 "
b11001101 "
b1 !
0>
1?
1E
1T
1-
1C
0@
1G
1V
0F
0D
1I
0G
0L
0J
1M
#555000
b11 !
1>
0-
1\
1]
1_
0b
0c
0W
0V
1U
0S
1O
0M
1F
1D
0C
1@
1;
1:
18
05
04
1%
1&
1(
0+
0,
0X
1V
0R
0P
0I
1G
0D
1S
1L
1J
0O
1M
1R
1P
0S
#560000
b11011101 "
b1 !
0>
1K
1-
1O
0M
0R
0P
1S
#565000
b11 !
1>
0-
0[
0^
0_
1`
1a
1c
1X
1R
1P
0O
1M
0L
0J
1I
0G
1C
0@
09
08
17
16
14
0'
0(
1)
1*
1,
0S
0P
1O
0M
1J
1D
1P
#570000
b11011111 "
b10011111 "
b11111 "
b11011 "
b1 !
0>
1B
0E
0Q
0T
1-
0F
0D
0I
1G
0U
1S
0V
1I
0G
0J
1W
1V
1J
0X
#575000
b11 !
1>
0-
1^
0a
0c
0R
0P
0I
1G
0C
1@
19
06
04
1'
0*
0,
1U
0S
0J
1F
1D
0W
0V
0G
1X
#580000
b11001 "
b10011001 "
b1 !
0>
0B
1T
1-
0D
1V
#585000
b11 !
1>
0-
1[
0]
0^
0`
1c
0X
0U
1S
1R
1P
1L
1J
1C
0@
0:
09
07
14
0&
0'
0)
1,
0V
0S
0O
1M
1D
0P
#590000
b10111001 "
b1 !
0>
1N
1-
1P
#595000
b11 !
1>
0-
0[
0\
1^
1_
1`
1b
0c
1X
1W
1V
0R
0P
1O
0M
0L
0J
0F
0D
0C
1@
0;
19
18
17
15
04
0%
1'
1(
1)
1+
0,
0X
1S
1P
1M
1G
1F
1D
0G
#600000
b10110001 "
b11110001 "
b11110011 "
b1110011 "
b1 !
0>
1B
0H
1Q
0T
1-
0F
0D
1L
1J
1U
0S
0V
1G
0M
1V
#605000
b11 !
1>
0-
1\
0_
1a
0b
1c
0W
0V
0O
1M
1I
0G
1F
1D
1C
0@
1;
08
16
05
14
1%
0(
1*
0+
1,
1X
0P
0L
0J
0I
1G
0F
0D
1O
0M
1L
1J
1I
0G
1P
0O
1M
0L
0J
0P
1O
0M
1P
#610000
b1110010 "
b1111010 "
b111010 "
b111000 "
b1 !
0>
0?
0B
1H
0Q
1-
0C
1@
1F
1D
1J
0U
1S
0D
0I
1G
1W
1V
0J
0X
#615000
b11 !
1>
0-
1]
0`
1U
0S
1L
1J
1:
07
1&
0)
0W
0V
0O
1M
1X
0P
#620000
b111100 "
b10111100 "
b10110100 "
b1 !
0>
1E
0H
1T
1-
1I
0G
0J
1V
1J
#625000
b11 !
1>
0-
1[
0]
0^
1_
1`
0a
0X
0U
1S
1R
1P
1O
0M
0L
0J
0I
1G
0:
09
18
17
06
0&
0'
1(
1)
0*
0V
0S
0R
0P
1M
1L
1J
1S
0M
#630000
b10100100 "
b10000100 "
b11000100 "
b11000000 "
b1000000 "
b1001000 "
b1 !
0>
0E
1H
0K
0N
1Q
0T
1-
0G
0L
0J
0O
1M
1R
1P
1U
0S
1W
1V
1O
0M
0P
0U
1S
0W
0V
1X
1P
1W
1V
0X
1X
#635000
b11 !
1>
0-
1]
1^
0_
0`
1U
0S
0R
0P
0O
1M
1L
1J
1:
19
08
07
1&
1'
0(
0)
0W
0V
1S
1R
1P
0M
0X
0S
#640000
b1001001 "
b1001101 "
b11001101 "
b11000101 "
b1 !
0>
1?
1E
0H
1T
1-
1C
0@
1G
0J
1V
1D
#645000
b11 !
1>
0-
0[
0]
1a
1b
0c
1X
0U
1S
1I
0G
0F
0D
0C
1@
0:
16
15
04
0&
1*
1+
0,
0V
1J
1G
1F
1D
0G
#650000
b11100101 "
b11100100 "
b11101100 "
b1 !
0>
0?
1H
1N
1-
0@
0L
0J
0R
0P
1M
1U
0S
1V
#655000
b11 !
1>
0-
1[
0^
1_
0a
0X
1R
1P
1O
0M
0I
1G
09
18
06
0'
1(
0*
0U
1S
0R
0P
1L
1J
0V
1U
0S
0O
1M
1V
1R
1P
0U
1S
0V
#660000
b11101110 "
b11111110 "
b1111110 "
b1 !
0>
1B
1K
0T
1-
0F
0D
1O
0M
1W
1V
1I
0G
0R
0P
1X
0L
0J
1U
0S
1M
0W
0V
0X
#665000
b11 !
1>
0-
0[
0\
0b
1X
1W
1V
1F
1D
0;
05
0%
0+
0X
0I
1G
1L
1J
0M
#670000
b1111010 "
b1011010 "
b1011011 "
b1010011 "
b1000011 "
b11000011 "
b1 !
0>
1?
0E
0H
0K
0N
1T
1-
1@
0G
0J
0O
1M
1R
1P
0W
0V
0P
0U
1S
1X
1W
1V
0X
#675000
b11 !
1>
0-
1\
1]
1b
1c
0W
0V
1U
0S
0F
0D
1C
0@
1;
1:
15
14
1%
1&
1+
1,
1X
1V
1G
1D
#680000
b10000011 "
b10000001 "
b10000101 "
b10100101 "
b10110101 "
b110101 "
b1 !
0>
0B
1E
1K
1N
0Q
0T
1-
0D
1I
0G
1O
0M
1P
0U
1S
0V
1J
0R
0P
1W
1V
1U
0S
0X
0W
0V
1X
