Lab6/simulation/qsim/Lab6_1.msim.vcd
$comment
	File created using the following command:
		vcd file Lab6_1.msim.vcd -direction
$end
$date
	Wed Mar 27 18:51:07 2024
$end
$version
	ModelSim Version 10.1d
$end
$timescale
	1ps
$end
$scope module Lab6_1_vlg_vec_tst $end
$var reg 2 ! KEY [2:1] $end
$var wire 1 " HEX0 [0] $end
$var wire 1 # HEX0 [1] $end
$var wire 1 $ HEX0 [2] $end
$var wire 1 % HEX0 [3] $end
$var wire 1 & HEX0 [4] $end
$var wire 1 ' HEX0 [5] $end
$var wire 1 ( HEX0 [6] $end
$var wire 1 ) HEX3 [0] $end
$var wire 1 * HEX3 [1] $end
$var wire 1 + HEX3 [2] $end
$var wire 1 , HEX3 [3] $end
$var wire 1 - HEX3 [4] $end
$var wire 1 . HEX3 [5] $end
$var wire 1 / HEX3 [6] $end
$var wire 1 0 sampler $end
$scope module i1 $end
$var wire 1 1 gnd $end
$var wire 1 2 vcc $end
$var wire 1 3 unknown $end
$var tri1 1 4 devclrn $end
$var tri1 1 5 devpor $end
$var tri1 1 6 devoe $end
$var wire 1 7 HEX0[6]~output_o $end
$var wire 1 8 HEX0[5]~output_o $end
$var wire 1 9 HEX0[4]~output_o $end
$var wire 1 : HEX0[3]~output_o $end
$var wire 1 ; HEX0[2]~output_o $end
$var wire 1 < HEX0[1]~output_o $end
$var wire 1 = HEX0[0]~output_o $end
$var wire 1 > HEX3[6]~output_o $end
$var wire 1 ? HEX3[5]~output_o $end
$var wire 1 @ HEX3[4]~output_o $end
$var wire 1 A HEX3[3]~output_o $end
$var wire 1 B HEX3[2]~output_o $end
$var wire 1 C HEX3[1]~output_o $end
$var wire 1 D HEX3[0]~output_o $end
$var wire 1 E KEY[1]~input_o $end
$var wire 1 F KEY[2]~input_o $end
$var wire 1 G temp2[0]~2_combout $end
$var wire 1 H Add1~0_combout $end
$var wire 1 I temp2~1_combout $end
$var wire 1 J temp2~0_combout $end
$var wire 1 K Digit0|WideOr5~2_combout $end
$var wire 1 L Digit0|WideOr5~combout $end
$var wire 1 M Digit0|WideOr4~2_combout $end
$var wire 1 N Digit0|WideOr4~3_combout $end
$var wire 1 O Digit0|Equal6~0_combout $end
$var wire 1 P Digit0|WideOr3~8_combout $end
$var wire 1 Q Digit0|WideOr2~0_combout $end
$var wire 1 R Digit0|WideOr2~1_combout $end
$var wire 1 S Digit0|HEX[2]~2_combout $end
$var wire 1 T Digit0|WideOr1~4_combout $end
$var wire 1 U Digit0|WideOr1~5_combout $end
$var wire 1 V Digit0|WideOr0~2_combout $end
$var wire 1 W Digit0|WideOr0~combout $end
$var wire 1 X temp1~2_combout $end
$var wire 1 Y temp1~3_combout $end
$var wire 1 Z temp1[2]~0_combout $end
$var wire 1 [ temp1~1_combout $end
$var wire 1 \ Digit3|WideOr5~2_combout $end
$var wire 1 ] Digit3|WideOr5~combout $end
$var wire 1 ^ Digit3|WideOr4~2_combout $end
$var wire 1 _ Digit3|WideOr4~3_combout $end
$var wire 1 ` Digit3|Equal6~0_combout $end
$var wire 1 a Digit3|WideOr3~8_combout $end
$var wire 1 b Digit3|WideOr2~0_combout $end
$var wire 1 c Digit3|WideOr2~1_combout $end
$var wire 1 d Digit3|HEX[2]~2_combout $end
$var wire 1 e Digit3|WideOr1~2_combout $end
$var wire 1 f Digit3|WideOr1~3_combout $end
$var wire 1 g Digit3|WideOr0~2_combout $end
$var wire 1 h Digit3|WideOr0~combout $end
$var wire 1 i Digit3|HEX [0] $end
$var wire 1 j Digit3|HEX [1] $end
$var wire 1 k Digit3|HEX [2] $end
$var wire 1 l Digit3|HEX [3] $end
$var wire 1 m Digit3|HEX [4] $end
$var wire 1 n Digit3|HEX [5] $end
$var wire 1 o Digit3|HEX [6] $end
$var wire 1 p temp1 [3] $end
$var wire 1 q temp1 [2] $end
$var wire 1 r temp1 [1] $end
$var wire 1 s temp1 [0] $end
$var wire 1 t temp2 [3] $end
$var wire 1 u temp2 [2] $end
$var wire 1 v temp2 [1] $end
$var wire 1 w temp2 [0] $end
$var wire 1 x Digit0|HEX [0] $end
$var wire 1 y Digit0|HEX [1] $end
$var wire 1 z Digit0|HEX [2] $end
$var wire 1 { Digit0|HEX [3] $end
$var wire 1 | Digit0|HEX [4] $end
$var wire 1 } Digit0|HEX [5] $end
$var wire 1 ~ Digit0|HEX [6] $end
$upscope $end
$upscope $end
$enddefinitions $end
#0
$dumpvars
b1 !
1(
0'
0&
0%
0$
0#
0"
1/
0.
0-
0,
0+
0*
0)
x0
01
12
x3
14
15
16
17
08
09
0:
0;
0<
0=
1>
0?
0@
0A
0B
0C
0D
1E
0F
1G
0H
0I
0J
1K
1L
0M
0N
0O
1P
0Q
0R
0S
0T
0U
0V
0W
0X
1Y
0Z
0[
1\
1]
0^
0_
0`
1a
0b
0c
0d
0e
0f
0g
0h
zo
zn
zm
zl
0k
zj
zi
0s
0r
0q
0p
0w
0v
0u
0t
z~
z}
z|
z{
0z
zy
zx
$end
#5000
b11 !
1F
00
1s
1w
1g
1b
0a
1^
1[
0Y
1V
1Q
0P
1M
1J
0G
1@
19
1-
1&
1h
1c
1_
1W
1R
1N
1D
1A
1?
1=
1:
18
1)
1,
1.
1"
1%
1'
#10000
b1 !
0F
10
#15000
b11 !
1F
00
1r
0s
1v
0w
0g
1d
0b
1`
0\
1Y
1a
0V
1S
0Q
1O
0K
1P
1G
0@
09
0-
0&
0h
1k
0c
0]
0W
1z
0R
0L
0D
1B
0A
0>
0=
1;
0:
07
0)
1+
0,
0/
0"
1$
0%
0(
#20000
b1 !
0F
10
#25000
b11 !
1F
00
1s
1w
0d
0a
0[
1Z
0Y
0S
0P
0J
1H
0G
1@
19
1-
1&
0k
0z
0B
0;
0+
0$
#30000
b1 !
0F
10
#35000
b11 !
1F
00
0r
1q
0s
0v
1u
0w
1g
1b
0`
0^
1Y
1a
1V
1Q
0O
0M
1P
1G
0a
0P
0@
09
0-
0&
1h
1c
0_
1W
1R
0N
1@
19
1D
1A
0?
1=
1:
08
1-
1&
1)
1,
0.
1"
1%
0'
#40000
b1 !
0F
10
#45000
b11 !
1F
00
1s
1w
0g
1e
0b
1[
0Y
0V
1T
0Q
1J
0G
0h
1f
0c
0W
1U
0R
0D
1C
0A
0=
1<
0:
0)
1*
0,
0"
1#
0%
#50000
b1 !
0F
10
#55000
b11 !
1F
00
1r
0s
1v
0w
1`
1Y
1O
1G
1a
1P
0@
09
0-
0&
#60000
b10 !
b0 !
0E
0F
10
0`
0O
0f
1]
0U
1L
0C
1>
0<
17
0*
1/
0#
1(
#65000
b10 !
1F
00
1s
1w
0e
1b
1^
1\
0[
0Z
0Y
1X
0T
1Q
1M
1K
0J
1I
0H
0G
#70000
b0 !
0F
10
#75000
b10 !
1F
00
0r
0q
0s
1p
0v
1t
0u
0w
0b
0^
0\
1Y
0Q
0M
0K
1G
#80000
b11 !
b1 !
1E
0F
10
0]
0L
0>
07
0/
0(
#85000
b11 !
1F
00
1s
1w
1b
0a
1[
0Y
1Q
0P
0I
0G
1@
19
1-
1&
1c
1R
1A
1:
1,
1%
#90000
b1 !
0F
10
#95000
b11 !
1F
00
1r
0s
0t
0w
0[
0X
1a
0Q
1K
1P
1G
0@
09
0-
0&
0R
1L
0:
17
0%
1(
#100000
b1 !
0F
10
#105000
b11 !
1F
00
0r
0p
1w
0b
1\
1Y
1V
1Q
0P
1M
1J
0G
19
1&
0c
1]
1W
1R
1N
0A
1>
1=
1:
18
0,
1/
1"
1%
1'
#110000
b1 !
0F
10
#115000
b11 !
1F
00
1s
1v
0w
1g
1b
0a
1^
1[
0Y
0V
1S
0Q
1O
0K
1P
1G
1@
09
1-
0&
1h
1c
1_
0W
1z
0R
0L
1D
1A
1?
0=
1;
0:
07
1)
1,
1.
0"
1$
0%
0(
#120000
b1 !
0F
10
#125000
b11 !
1F
00
1r
0s
1w
0g
1d
0b
1`
0\
1Y
1a
0S
0P
0J
1H
0G
0@
19
0-
1&
0h
1k
0c
0]
0z
0D
1B
0A
0>
0;
0)
1+
0,
0/
0$
#130000
b1 !
0F
10
#135000
b11 !
1F
00
1s
0v
1u
0w
0d
0a
0[
1Z
0Y
1V
1Q
0O
0M
1P
1G
0P
1@
09
1-
0&
0k
1W
1R
0N
19
0B
1=
1:
08
1&
0+
1"
1%
0'
#140000
b1 !
0F
10
#145000
b11 !
1F
00
0r
1q
0s
1w
1g
1b
0`
0^
1Y
1a
0V
1T
0Q
1J
0G
0a
0@
0-
1h
1c
0_
0W
1U
0R
1@
1D
1A
0?
0=
1<
0:
1-
1)
1,
0.
0"
1#
0%
#150000
b1 !
0F
10
#155000
b11 !
1F
00
1s
1v
0w
0g
1e
0b
1[
0Y
1O
1G
1P
0h
1f
0c
09
0D
1C
0A
0&
0)
1*
0,
#160000
b1 !
0F
10
#165000
b11 !
1F
00
1r
0s
1w
1`
1Y
0T
1Q
0P
1M
1K
0J
1I
0H
0G
1a
19
1&
0U
1R
1N
1L
0@
0<
1:
18
17
0-
0#
1%
1'
1(
#170000
b1 !
0F
10
#175000
b11 !
1F
00
1s
0v
1t
0u
0w
0e
1b
0a
1^
1\
0[
0Z
0Y
1X
0Q
0O
0M
0K
1P
1G
1@
09
1-
0&
0f
1c
1_
1]
0R
0N
0L
0C
1A
1?
1>
0:
08
07
0*
1,
1.
1/
0%
0'
0(
#180000
b1 !
0F
10
#185000
b11 !
1F
00
0r
0q
0s
1p
1w
0b
0`
0^
0\
1Y
1a
1Q
0P
0I
0G
0@
19
0-
1&
0c
0_
0]
1R
0A
0?
0>
1:
0,
0.
0/
1%
#190000
b1 !
0F
10
#195000
b11 !
1F
00
1s
0t
0w
1b
0a
1[
0Y
0Q
1K
1P
1G
1@
09
1-
0&
1c
0R
1L
1A
0:
17
1,
0%
1(
#200000
b1 !
0F
10
#205000
b11 !
1F
00
1r
0s
1w
0[
0X
1a
1V
1Q
0P
1M
1J
0G
0@
19
0-
1&
1W
1R
1N
1=
1:
18
1"
1%
1'
#210000
b1 !
0F
10
#215000
b11 !
1F
00
0r
0p
1v
0w
0b
1\
1Y
0V
1S
0Q
1O
0K
1P
1G
09
0&
0c
1]
0W
1z
0R
0L
0A
1>
0=
1;
0:
07
0,
1/
0"
1$
0%
0(
#220000
b1 !
0F
10
#225000
b11 !
1F
00
1s
1w
1g
1b
0a
1^
1[
0Y
0S
0P
0J
1H
0G
1@
19
1-
1&
1h
1c
1_
0z
1D
1A
1?
0;
1)
1,
1.
0$
#230000
b1 !
0F
10
#235000
b11 !
1F
00
1r
0s
0v
1u
0w
0g
1d
0b
1`
0\
1Y
1a
1V
1Q
0O
0M
1P
1G
0P
0@
09
0-
0&
0h
1k
0c
0]
1W
1R
0N
19
0D
1B
0A
0>
1=
1:
08
1&
0)
1+
0,
0/
1"
1%
0'
#240000
b1 !
0F
10
#245000
b11 !
1F
00
1s
1w
0d
0a
0[
1Z
0Y
0V
1T
0Q
1J
0G
1@
1-
0k
0W
1U
0R
0B
0=
1<
0:
0+
0"
1#
0%
#250000
b1 !
0F
10
#255000
b11 !
1F
00
0r
1q
0s
1v
0w
1g
1b
0`
0^
1Y
1a
1O
1G
0a
1P
0@
0-
1h
1c
0_
1@
09
1D
1A
0?
1-
0&
1)
1,
0.
#260000
b1 !
0F
10
#265000
b11 !
1F
00
1s
1w
0g
1e
0b
1[
0Y
0T
1Q
0P
1M
1K
0J
1I
0H
0G
19
1&
0h
1f
0c
0U
1R
1N
1L
0D
1C
0A
0<
1:
18
17
0)
1*
0,
0#
1%
1'
1(
#270000
b1 !
0F
10
#275000
b11 !
1F
00
1r
0s
0v
1t
0u
0w
1`
1Y
0Q
0O
0M
0K
1P
1G
1a
09
0&
0R
0N
0L
0@
0:
08
07
0-
0%
0'
0(
#280000
b1 !
0F
10
#285000
b11 !
1F
00
1s
1w
0e
1b
0a
1^
1\
0[
0Z
0Y
1X
1Q
0P
0I
0G
1@
19
1-
1&
0f
1c
1_
1]
1R
0C
1A
1?
1>
1:
0*
1,
1.
1/
1%
#290000
b1 !
0F
10
#295000
b11 !
1F
00
0r
0q
0s
1p
0t
0w
0b
0`
0^
0\
1Y
1a
0Q
1K
1P
1G
0@
09
0-
0&
0c
0_
0]
0R
1L
0A
0?
0>
0:
17
0,
0.
0/
0%
1(
#300000
b1 !
0F
10
#305000
b11 !
1F
00
1s
1w
1b
0a
1[
0Y
1V
1Q
0P
1M
1J
0G
1@
19
1-
1&
1c
1W
1R
1N
1A
1=
1:
18
1,
1"
1%
1'
#310000
b1 !
0F
10
#315000
b11 !
1F
00
1r
0s
1v
0w
0[
0X
1a
0V
1S
0Q
1O
0K
1P
1G
0@
09
0-
0&
0W
1z
0R
0L
0=
1;
0:
07
0"
1$
0%
0(
#320000
b1 !
0F
10
#325000
b11 !
1F
00
0r
0p
1w
0b
1\
1Y
0S
0P
0J
1H
0G
19
1&
0c
1]
0z
0A
1>
0;
0,
1/
0$
#330000
b1 !
0F
10
#335000
b11 !
1F
00
1s
0v
1u
0w
1g
1b
0a
1^
1[
0Y
1V
1Q
0O
0M
1P
1G
0P
1@
09
1-
0&
1h
1c
1_
1W
1R
0N
19
1D
1A
1?
1=
1:
08
1&
1)
1,
1.
1"
1%
0'
#340000
b1 !
0F
10
#345000
b11 !
1F
00
1r
0s
1w
0g
1d
0b
1`
0\
1Y
1a
0V
1T
0Q
1J
0G
0@
0-
0h
1k
0c
0]
0W
1U
0R
0D
1B
0A
0>
0=
1<
0:
0)
1+
0,
0/
0"
1#
0%
#350000
b1 !
0F
10
#355000
b11 !
1F
00
1s
1v
0w
0d
0a
0[
1Z
0Y
1O
1G
1P
1@
1-
0k
09
0B
0&
0+
#360000
b1 !
0F
10
#365000
b11 !
1F
00
0r
1q
0s
1w
1g
1b
0`
0^
1Y
1a
0T
1Q
0P
1M
1K
0J
1I
0H
0G
0a
0@
19
0-
1&
1h
1c
0_
0U
1R
1N
1L
1@
1D
1A
0?
0<
1:
18
17
1-
1)
1,
0.
0#
1%
1'
1(
#370000
b1 !
0F
10
#375000
b11 !
1F
00
1s
0v
1t
0u
0w
0g
1e
0b
1[
0Y
0Q
0O
0M
0K
1P
1G
09
0&
0h
1f
0c
0R
0N
0L
0D
1C
0A
0:
08
07
0)
1*
0,
0%
0'
0(
#380000
b1 !
0F
10
#385000
b11 !
1F
00
1r
0s
1w
1`
1Y
1Q
0P
0I
0G
1a
19
1&
1R
0@
1:
0-
1%
#390000
b1 !
0F
10
#395000
b11 !
1F
00
1s
0t
0w
0e
1b
0a
1^
1\
0[
0Z
0Y
1X
0Q
1K
1P
1G
1@
09
1-
0&
0f
1c
1_
1]
0R
1L
0C
1A
1?
1>
0:
17
0*
1,
1.
1/
0%
1(
#400000
b1 !
0F
10
#405000
b11 !
1F
00
0r
0q
0s
1p
1w
0b
0`
0^
0\
1Y
1a
1V
1Q
0P
1M
1J
0G
0@
19
0-
1&
0c
0_
0]
1W
1R
1N
0A
0?
0>
1=
1:
18
0,
0.
0/
1"
1%
1'
#410000
b1 !
0F
10
#415000
b11 !
1F
00
1s
1v
0w
1b
0a
1[
0Y
0V
1S
0Q
1O
0K
1P
1G
1@
09
1-
0&
1c
0W
1z
0R
0L
1A
0=
1;
0:
07
1,
0"
1$
0%
0(
#420000
b1 !
0F
10
#425000
b11 !
1F
00
1r
0s
1w
0[
0X
1a
0S
0P
0J
1H
0G
0@
19
0-
1&
0z
0;
0$
#430000
b1 !
0F
10
#435000
b11 !
1F
00
0r
0p
0v
1u
0w
0b
1\
1Y
1V
1Q
0O
0M
1P
1G
0P
09
0&
0c
1]
1W
1R
0N
19
0A
1>
1=
1:
08
1&
0,
1/
1"
1%
0'
#440000
b1 !
0F
10
#445000
b11 !
1F
00
1s
1w
1g
1b
0a
1^
1[
0Y
0V
1T
0Q
1J
0G
1@
1-
1h
1c
1_
0W
1U
0R
1D
1A
1?
0=
1<
0:
1)
1,
1.
0"
1#
0%
#450000
b1 !
0F
10
#455000
b11 !
1F
00
1r
0s
1v
0w
0g
1d
0b
1`
0\
1Y
1a
1O
1G
1P
0@
0-
0h
1k
0c
0]
09
0D
1B
0A
0>
0&
0)
1+
0,
0/
#460000
b1 !
0F
10
#465000
b11 !
1F
00
1s
1w
0d
0a
0[
1Z
0Y
0T
1Q
0P
1M
1K
0J
1I
0H
0G
1@
19
1-
1&
0k
0U
1R
1N
1L
0B
0<
1:
18
17
0+
0#
1%
1'
1(
#470000
b1 !
0F
10
#475000
b11 !
1F
00
0r
1q
0s
0v
1t
0u
0w
1g
1b
0`
0^
1Y
1a
0Q
0O
0M
0K
1P
1G
0a
0@
09
0-
0&
1h
1c
0_
0R
0N
0L
1@
1D
1A
0?
0:
08
07
1-
1)
1,
0.
0%
0'
0(
#480000
b1 !
0F
10
#485000
b11 !
1F
00
1s
1w
0g
1e
0b
1[
0Y
1Q
0P
0I
0G
19
1&
0h
1f
0c
1R
0D
1C
0A
1:
0)
1*
0,
1%
#490000
b1 !
0F
10
#495000
b11 !
1F
00
1r
0s
0t
0w
1`
1Y
0Q
1K
1P
1G
1a
09
0&
0R
1L
0@
0:
17
0-
0%
1(
#500000
b1 !
0F
10
#505000
b11 !
1F
00
1s
1w
0e
1b
0a
1^
1\
0[
0Z
0Y
1X
1V
1Q
0P
1M
1J
0G
1@
19
1-
1&
0f
1c
1_
1]
1W
1R
1N
0C
1A
1?
1>
1=
1:
18
0*
1,
1.
1/
1"
1%
1'
#510000
b1 !
0F
10
#515000
b11 !
1F
00
0r
0q
0s
1p
1v
0w
0b
0`
0^
0\
1Y
1a
0V
1S
0Q
1O
0K
1P
1G
0@
09
0-
0&
0c
0_
0]
0W
1z
0R
0L
0A
0?
0>
0=
1;
0:
07
0,
0.
0/
0"
1$
0%
0(
#520000
b1 !
0F
10
#525000
b11 !
1F
00
1s
1w
1b
0a
1[
0Y
0S
0P
0J
1H
0G
1@
19
1-
1&
1c
0z
1A
0;
1,
0$
#530000
b1 !
0F
10
#535000
b11 !
1F
00
1r
0s
0v
1u
0w
0[
0X
1a
1V
1Q
0O
0M
1P
1G
0P
0@
09
0-
0&
1W
1R
0N
19
1=
1:
08
1&
1"
1%
0'
#540000
b1 !
0F
10
#545000
b11 !
1F
00
0r
0p
1w
0b
1\
1Y
0V
1T
0Q
1J
0G
0c
1]
0W
1U
0R
0A
1>
0=
1<
0:
0,
1/
0"
1#
0%
#550000
b1 !
0F
10
#555000
b11 !
1F
00
1s
1v
0w
1g
1b
0a
1^
1[
0Y
1O
1G
1P
1@
1-
1h
1c
1_
09
1D
1A
1?
0&
1)
1,
1.
#560000
b1 !
0F
10
#565000
b11 !
1F
00
1r
0s
1w
0g
1d
0b
1`
0\
1Y
1a
0T
1Q
0P
1M
1K
0J
1I
0H
0G
0@
19
0-
1&
0h
1k
0c
0]
0U
1R
1N
1L
0D
1B
0A
0>
0<
1:
18
17
0)
1+
0,
0/
0#
1%
1'
1(
#570000
b1 !
0F
10
#575000
b11 !
1F
00
1s
0v
1t
0u
0w
0d
0a
0[
1Z
0Y
0Q
0O
0M
0K
1P
1G
1@
09
1-
0&
0k
0R
0N
0L
0B
0:
08
07
0+
0%
0'
0(
#580000
b1 !
0F
10
#585000
b11 !
1F
00
0r
1q
0s
1w
1g
1b
0`
0^
1Y
1a
1Q
0P
0I
0G
0a
0@
19
0-
1&
1h
1c
0_
1R
1@
1D
1A
0?
1:
1-
1)
1,
0.
1%
#590000
b1 !
0F
10
#595000
b11 !
1F
00
1s
0t
0w
0g
1e
0b
1[
0Y
0Q
1K
1P
1G
09
0&
0h
1f
0c
0R
1L
0D
1C
0A
0:
17
0)
1*
0,
0%
1(
#600000
b1 !
0F
10
#605000
b11 !
1F
00
1r
0s
1w
1`
1Y
1V
1Q
0P
1M
1J
0G
1a
19
1&
1W
1R
1N
0@
1=
1:
18
0-
1"
1%
1'
#610000
b1 !
0F
10
#615000
b11 !
1F
00
1s
1v
0w
0e
1b
0a
1^
1\
0[
0Z
0Y
1X
0V
1S
0Q
1O
0K
1P
1G
1@
09
1-
0&
0f
1c
1_
1]
0W
1z
0R
0L
0C
1A
1?
1>
0=
1;
0:
07
0*
1,
1.
1/
0"
1$
0%
0(
#620000
b1 !
0F
10
#625000
b11 !
1F
00
0r
0q
0s
1p
1w
0b
0`
0^
0\
1Y
1a
0S
0P
0J
1H
0G
0@
19
0-
1&
0c
0_
0]
0z
0A
0?
0>
0;
0,
0.
0/
0$
#630000
b1 !
0F
10
#635000
b11 !
1F
00
1s
0v
1u
0w
1b
0a
1[
0Y
1V
1Q
0O
0M
1P
1G
0P
1@
09
1-
0&
1c
1W
1R
0N
19
1A
1=
1:
08
1&
1,
1"
1%
0'
#640000
b1 !
0F
10
#645000
b11 !
1F
00
1r
0s
1w
0[
0X
1a
0V
1T
0Q
1J
0G
0@
0-
0W
1U
0R
0=
1<
0:
0"
1#
0%
#650000
b1 !
0F
10
#655000
b11 !
1F
00
0r
0p
1v
0w
0b
1\
1Y
1O
1G
1P
0c
1]
09
0A
1>
0&
0,
1/
#660000
b1 !
0F
10
#665000
b11 !
1F
00
1s
1w
1g
1b
0a
1^
1[
0Y
0T
1Q
0P
1M
1K
0J
1I
0H
0G
1@
19
1-
1&
1h
1c
1_
0U
1R
1N
1L
1D
1A
1?
0<
1:
18
17
1)
1,
1.
0#
1%
1'
1(
#670000
b1 !
0F
10
#675000
b11 !
1F
00
1r
0s
0v
1t
0u
0w
0g
1d
0b
1`
0\
1Y
1a
0Q
0O
0M
0K
1P
1G
0@
09
0-
0&
0h
1k
0c
0]
0R
0N
0L
0D
1B
0A
0>
0:
08
07
0)
1+
0,
0/
0%
0'
0(
#680000
b1 !
0F
10
#685000
b11 !
1F
00
1s
1w
0d
0a
0[
1Z
0Y
1Q
0P
0I
0G
1@
19
1-
1&
0k
1R
0B
1:
0+
1%
#690000
b1 !
0F
10
#695000
b11 !
1F
00
0r
1q
0s
0t
0w
1g
1b
0`
0^
1Y
1a
0Q
1K
1P
1G
0a
0@
09
0-
0&
1h
1c
0_
0R
1L
1@
1D
1A
0?
0:
17
1-
1)
1,
0.
0%
1(
#700000
b1 !
0F
10
#705000
b11 !
1F
00
1s
1w
0g
1e
0b
1[
0Y
1V
1Q
0P
1M
1J
0G
19
1&
0h
1f
0c
1W
1R
1N
0D
1C
0A
1=
1:
18
0)
1*
0,
1"
1%
1'
#710000
b1 !
0F
10
#715000
b11 !
1F
00
1r
0s
1v
0w
1`
1Y
0V
1S
0Q
1O
0K
1P
1G
1a
09
0&
0W
1z
0R
0L
0@
0=
1;
0:
07
0-
0"
1$
0%
0(
#720000
b1 !
0F
10
#725000
b11 !
1F
00
1s
1w
0e
1b
0a
1^
1\
0[
0Z
0Y
1X
0S
0P
0J
1H
0G
1@
19
1-
1&
0f
1c
1_
1]
0z
0C
1A
1?
1>
0;
0*
1,
1.
1/
0$
#730000
b1 !
0F
10
#735000
b11 !
1F
00
0r
0q
0s
1p
0v
1u
0w
0b
0`
0^
0\
1Y
1a
1V
1Q
0O
0M
1P
1G
0P
0@
09
0-
0&
0c
0_
0]
1W
1R
0N
19
0A
0?
0>
1=
1:
08
1&
0,
0.
0/
1"
1%
0'
#740000
b1 !
0F
10
#745000
b11 !
1F
00
1s
1w
1b
0a
1[
0Y
0V
1T
0Q
1J
0G
1@
1-
1c
0W
1U
0R
1A
0=
1<
0:
1,
0"
1#
0%
#750000
b1 !
0F
10
#755000
b11 !
1F
00
1r
0s
1v
0w
0[
0X
1a
1O
1G
1P
0@
0-
09
0&
#760000
b1 !
0F
10
#765000
b11 !
1F
00
0r
0p
1w
0b
1\
1Y
0T
1Q
0P
1M
1K
0J
1I
0H
0G
19
1&
0c
1]
0U
1R
1N
1L
0A
1>
0<
1:
18
17
0,
1/
0#
1%
1'
1(
#770000
b1 !
0F
10
#775000
b11 !
1F
00
1s
0v
1t
0u
0w
1g
1b
0a
1^
1[
0Y
0Q
0O
0M
0K
1P
1G
1@
09
1-
0&
1h
1c
1_
0R
0N
0L
1D
1A
1?
0:
08
07
1)
1,
1.
0%
0'
0(
#780000
b1 !
0F
10
#785000
b11 !
1F
00
1r
0s
1w
0g
1d
0b
1`
0\
1Y
1a
1Q
0P
0I
0G
0@
19
0-
1&
0h
1k
0c
0]
1R
0D
1B
0A
0>
1:
0)
1+
0,
0/
1%
#790000
b1 !
0F
10
#795000
b11 !
1F
00
1s
0t
0w
0d
0a
0[
1Z
0Y
0Q
1K
1P
1G
1@
09
1-
0&
0k
0R
1L
0B
0:
17
0+
0%
1(
#800000
b1 !
0F
10
#805000
b11 !
1F
00
0r
1q
0s
1w
1g
1b
0`
0^
1Y
1a
1V
1Q
0P
1M
1J
0G
0a
0@
19
0-
1&
1h
1c
0_
1W
1R
1N
1@
1D
1A
0?
1=
1:
18
1-
1)
1,
0.
1"
1%
1'
#810000
b1 !
0F
10
#815000
b11 !
1F
00
1s
1v
0w
0g
1e
0b
1[
0Y
0V
1S
0Q
1O
0K
1P
1G
09
0&
0h
1f
0c
0W
1z
0R
0L
0D
1C
0A
0=
1;
0:
07
0)
1*
0,
0"
1$
0%
0(
#820000
b1 !
0F
10
#825000
b11 !
1F
00
1r
0s
1w
1`
1Y
0S
0P
0J
1H
0G
1a
19
1&
0z
0@
0;
0-
0$
#830000
b1 !
0F
10
#835000
b11 !
1F
00
1s
0v
1u
0w
0e
1b
0a
1^
1\
0[
0Z
0Y
1X
1V
1Q
0O
0M
1P
1G
0P
1@
09
1-
0&
0f
1c
1_
1]
1W
1R
0N
19
0C
1A
1?
1>
1=
1:
08
1&
0*
1,
1.
1/
1"
1%
0'
#840000
b1 !
0F
10
#845000
b11 !
1F
00
0r
0q
0s
1p
1w
0b
0`
0^
0\
1Y
1a
0V
1T
0Q
1J
0G
0@
0-
0c
0_
0]
0W
1U
0R
0A
0?
0>
0=
1<
0:
0,
0.
0/
0"
1#
0%
#850000
b1 !
0F
10
#855000
b11 !
1F
00
1s
1v
0w
1b
0a
1[
0Y
1O
1G
1P
1@
1-
1c
09
1A
0&
1,
#860000
b1 !
0F
10
#865000
b11 !
1F
00
1r
0s
1w
0[
0X
1a
0T
1Q
0P
1M
1K
0J
1I
0H
0G
0@
19
0-
1&
0U
1R
1N
1L
0<
1:
18
17
0#
1%
1'
1(
#870000
b1 !
0F
10
#875000
b11 !
1F
00
0r
0p
0v
1t
0u
0w
0b
1\
1Y
0Q
0O
0M
0K
1P
1G
09
0&
0c
1]
0R
0N
0L
0A
1>
0:
08
07
0,
1/
0%
0'
0(
#880000
b1 !
0F
10
#885000
b11 !
1F
00
1s
1w
1g
1b
0a
1^
1[
0Y
1Q
0P
0I
0G
1@
19
1-
1&
1h
1c
1_
1R
1D
1A
1?
1:
1)
1,
1.
1%
#890000
b1 !
0F
10
#895000
b11 !
1F
00
1r
0s
0t
0w
0g
1d
0b
1`
0\
1Y
1a
0Q
1K
1P
1G
0@
09
0-
0&
0h
1k
0c
0]
0R
1L
0D
1B
0A
0>
0:
17
0)
1+
0,
0/
0%
1(
#900000
b1 !
0F
10
#905000
b11 !
1F
00
1s
1w
0d
0a
0[
1Z
0Y
1V
1Q
0P
1M
1J
0G
1@
19
1-
1&
0k
1W
1R
1N
0B
1=
1:
18
0+
1"
1%
1'
#910000
b1 !
0F
10
#915000
b11 !
1F
00
0r
1q
0s
1v
0w
1g
1b
0`
0^
1Y
1a
0V
1S
0Q
1O
0K
1P
1G
0a
0@
09
0-
0&
1h
1c
0_
0W
1z
0R
0L
1@
1D
1A
0?
0=
1;
0:
07
1-
1)
1,
0.
0"
1$
0%
0(
#920000
b1 !
0F
10
#925000
b11 !
1F
00
1s
1w
0g
1e
0b
1[
0Y
0S
0P
0J
1H
0G
19
1&
0h
1f
0c
0z
0D
1C
0A
0;
0)
1*
0,
0$
#930000
b1 !
0F
10
#935000
b11 !
1F
00
1r
0s
0v
1u
0w
1`
1Y
1V
1Q
0O
0M
1P
1G
1a
0P
09
0&
1W
1R
0N
0@
19
1=
1:
08
0-
1&
1"
1%
0'
#940000
b1 !
0F
10
#945000
b11 !
1F
00
1s
1w
0e
1b
0a
1^
1\
0[
0Z
0Y
1X
0V
1T
0Q
1J
0G
1@
1-
0f
1c
1_
1]
0W
1U
0R
0C
1A
1?
1>
0=
1<
0:
0*
1,
1.
1/
0"
1#
0%
#950000
b1 !
0F
10
#955000
b11 !
1F
00
0r
0q
0s
1p
1v
0w
0b
0`
0^
0\
1Y
1a
1O
1G
1P
0@
0-
0c
0_
0]
09
0A
0?
0>
0&
0,
0.
0/
#960000
b1 !
0F
10
#965000
b11 !
1F
00
1s
1w
1b
0a
1[
0Y
0T
1Q
0P
1M
1K
0J
1I
0H
0G
1@
19
1-
1&
1c
0U
1R
1N
1L
1A
0<
1:
18
17
1,
0#
1%
1'
1(
#970000
b1 !
0F
10
#975000
b11 !
1F
00
1r
0s
0v
1t
0u
0w
0[
0X
1a
0Q
0O
0M
0K
1P
1G
0@
09
0-
0&
0R
0N
0L
0:
08
07
0%
0'
0(
#980000
b1 !
0F
10
#985000
b11 !
1F
00
0r
0p
1w
0b
1\
1Y
1Q
0P
0I
0G
19
1&
0c
1]
1R
0A
1>
1:
0,
1/
1%
#990000
b1 !
0F
10
#995000
b11 !
1F
00
1s
0t
0w
1g
1b
0a
1^
1[
0Y
0Q
1K
1P
1G
1@
09
1-
0&
1h
1c
1_
0R
1L
1D
1A
1?
0:
17
1)
1,
1.
0%
1(
