Lab9/simulation/qsim/Lab9_1.msim.vcd
$comment
	File created using the following command:
		vcd file Lab9_1.msim.vcd -direction
$end
$date
	Fri May 03 23:51:10 2024
$end
$version
	ModelSim Version 10.1d
$end
$timescale
	1ps
$end
$scope module Lab9_1_vlg_vec_tst $end
$var reg 2 ! KEY [2:1] $end
$var reg 1 " SW [0:0] $end
$var wire 1 # LEDG [9] $end
$var wire 1 $ LEDG [8] $end
$var wire 1 % LEDG [7] $end
$var wire 1 & LEDG [6] $end
$var wire 1 ' LEDG [5] $end
$var wire 1 ( sampler $end
$scope module i1 $end
$var wire 1 ) gnd $end
$var wire 1 * vcc $end
$var wire 1 + unknown $end
$var tri1 1 , devclrn $end
$var tri1 1 - devpor $end
$var tri1 1 . devoe $end
$var wire 1 / LEDG[5]~output_o $end
$var wire 1 0 LEDG[6]~output_o $end
$var wire 1 1 LEDG[7]~output_o $end
$var wire 1 2 LEDG[8]~output_o $end
$var wire 1 3 LEDG[9]~output_o $end
$var wire 1 4 KEY[2]~input_o $end
$var wire 1 5 SW[0]~input_o $end
$var wire 1 6 Mux1~0_combout $end
$var wire 1 7 KEY[1]~input_o $end
$var wire 1 8 Mux0~0_combout $end
$var wire 1 9 Mux2~0_combout $end
$var wire 1 : Equal0~0_combout $end
$var wire 1 ; l_state [2] $end
$var wire 1 < l_state [1] $end
$var wire 1 = l_state [0] $end
$upscope $end
$upscope $end
$enddefinitions $end
#0
$dumpvars
b0 !
b1 "
0'
0&
0%
0$
0#
x(
0)
1*
x+
1,
1-
1.
0/
00
01
02
03
04
15
06
07
08
19
0:
0=
0<
0;
$end
#10000
b1 !
17
0(
#20000
b11 !
14
1(
1=
1/
1'
#40000
b0 "
b1 !
05
04
0(
09
16
#60000
b11 !
14
1(
0=
1<
06
0/
10
0'
1&
#80000
b1 "
b1 !
15
04
0(
19
16
#100000
b11 !
14
1(
1=
09
18
06
1/
1'
#120000
b1 !
04
0(
#140000
b11 !
14
1(
0=
1;
0<
19
08
0/
11
00
0'
1%
0&
1:
13
1#
#160000
b0 "
b1 !
05
04
0(
09
16
#180000
b11 !
14
1(
0;
1<
06
01
10
0%
1&
0:
03
0#
#200000
b1 "
b1 !
15
04
0(
19
16
#220000
b11 !
14
1(
1=
09
18
06
1/
1'
#240000
b1 !
04
0(
#260000
b11 !
14
1(
0=
1;
0<
19
08
0/
11
00
0'
1%
0&
1:
13
1#
#280000
b0 "
b1 !
05
04
0(
09
16
#300000
b11 !
14
1(
0;
1<
06
01
10
0%
1&
0:
03
0#
#320000
b1 !
04
0(
#340000
b1 "
b11 !
15
14
1(
19
16
0<
06
00
0&
#360000
b1 !
04
0(
#380000
b11 !
14
1(
1=
1/
1'
#400000
b1 !
04
0(
#420000
b0 !
b0 "
b10 !
07
14
05
1(
09
16
0=
06
0/
0'
#440000
b11 !
b1 !
17
04
0(
#460000
b11 !
14
1(
#480000
b1 !
04
0(
#500000
b1 "
b11 !
15
14
1(
19
#520000
b1 !
04
0(
#540000
b0 "
b11 !
05
14
1(
09
1=
16
1/
1'
#560000
b1 !
04
0(
#580000
b1 "
b11 !
15
14
1(
19
06
0=
1<
16
0/
10
0'
1&
#600000
b1 !
04
0(
#620000
b0 "
b11 !
05
14
1(
09
06
1=
16
1/
1'
#640000
b1 !
04
0(
#660000
b1 "
b11 !
15
14
1(
18
06
0=
19
08
16
0/
0'
#680000
b1 !
04
0(
#700000
b11 !
14
1(
1=
09
18
06
1/
1'
#720000
b1 !
04
0(
#740000
b0 "
b11 !
05
14
1(
08
16
0=
1;
0<
0/
11
00
0'
1%
0&
1:
13
1#
#760000
b1 !
04
0(
#780000
b11 !
14
1(
0;
1<
06
01
10
0%
1&
0:
03
0#
#800000
b1 !
04
0(
#820000
b11 !
14
1(
0<
00
0&
#840000
b1 !
04
0(
#860000
b11 !
14
1(
#880000
b1 !
04
0(
#900000
b11 !
14
1(
#920000
b1 !
04
0(
#940000
b11 !
14
1(
#960000
b1 !
04
0(
#980000
b11 !
14
1(
