Lab4/simulation/qsim/Lab4_2.msim.vcd
$comment
	File created using the following command:
		vcd file Lab4_2.msim.vcd -direction
$end
$date
	Sat Mar 16 21:27:14 2024
$end
$version
	ModelSim Version 10.1d
$end
$timescale
	1ps
$end
$scope module Lab4_2_vlg_vec_tst $end
$var reg 2 ! KEY [1:0] $end
$var reg 6 " SW [5:0] $end
$var wire 1 # HEX0 [0] $end
$var wire 1 $ HEX0 [1] $end
$var wire 1 % HEX0 [2] $end
$var wire 1 & HEX0 [3] $end
$var wire 1 ' HEX0 [4] $end
$var wire 1 ( HEX0 [5] $end
$var wire 1 ) HEX0 [6] $end
$var wire 1 * HEX1 [0] $end
$var wire 1 + HEX1 [1] $end
$var wire 1 , HEX1 [2] $end
$var wire 1 - HEX1 [3] $end
$var wire 1 . HEX1 [4] $end
$var wire 1 / HEX1 [5] $end
$var wire 1 0 HEX1 [6] $end
$var wire 1 1 LEDG [3] $end
$var wire 1 2 LEDG [2] $end
$var wire 1 3 LEDG [1] $end
$var wire 1 4 LEDG [0] $end
$var wire 1 5 sampler $end
$scope module i1 $end
$var wire 1 6 gnd $end
$var wire 1 7 vcc $end
$var wire 1 8 unknown $end
$var tri1 1 9 devclrn $end
$var tri1 1 : devpor $end
$var tri1 1 ; devoe $end
$var wire 1 < HEX0[6]~output_o $end
$var wire 1 = HEX0[5]~output_o $end
$var wire 1 > HEX0[4]~output_o $end
$var wire 1 ? HEX0[3]~output_o $end
$var wire 1 @ HEX0[2]~output_o $end
$var wire 1 A HEX0[1]~output_o $end
$var wire 1 B HEX0[0]~output_o $end
$var wire 1 C HEX1[6]~output_o $end
$var wire 1 D HEX1[5]~output_o $end
$var wire 1 E HEX1[4]~output_o $end
$var wire 1 F HEX1[3]~output_o $end
$var wire 1 G HEX1[2]~output_o $end
$var wire 1 H HEX1[1]~output_o $end
$var wire 1 I HEX1[0]~output_o $end
$var wire 1 J LEDG[0]~output_o $end
$var wire 1 K LEDG[1]~output_o $end
$var wire 1 L LEDG[2]~output_o $end
$var wire 1 M LEDG[3]~output_o $end
$var wire 1 N KEY[0]~input_o $end
$var wire 1 O KEY[1]~input_o $end
$var wire 1 P SW[2]~input_o $end
$var wire 1 Q SW[5]~input_o $end
$var wire 1 R SW[0]~input_o $end
$var wire 1 S SW[1]~input_o $end
$var wire 1 T SW[4]~input_o $end
$var wire 1 U SW[3]~input_o $end
$var wire 1 V Add0~2_combout $end
$var wire 1 W Add0~4_combout $end
$var wire 1 X Add0~3_combout $end
$var wire 1 Y Add0~1_combout $end
$var wire 1 Z Add0~0_combout $end
$var wire 1 [ Mux6~0_combout $end
$var wire 1 \ HEX0[6]~14_combout $end
$var wire 1 ] Equal1~0_combout $end
$var wire 1 ^ Equal1~0clkctrl_outclk $end
$var wire 1 _ HEX0[6]$latch~combout $end
$var wire 1 ` Mux5~0_combout $end
$var wire 1 a HEX0[5]~15_combout $end
$var wire 1 b HEX0[5]$latch~combout $end
$var wire 1 c Mux4~0_combout $end
$var wire 1 d HEX0[4]~16_combout $end
$var wire 1 e HEX0[4]$latch~combout $end
$var wire 1 f Mux3~0_combout $end
$var wire 1 g HEX0[3]~17_combout $end
$var wire 1 h HEX0[3]$latch~combout $end
$var wire 1 i Mux2~0_combout $end
$var wire 1 j HEX0[2]~18_combout $end
$var wire 1 k HEX0[2]$latch~combout $end
$var wire 1 l Mux1~0_combout $end
$var wire 1 m HEX0[1]~19_combout $end
$var wire 1 n HEX0[1]$latch~combout $end
$var wire 1 o HEX0[0]~12_combout $end
$var wire 1 p HEX0[0]~13_combout $end
$var wire 1 q HEX0[0]$latch~combout $end
$var wire 1 r Equal0~0_combout $end
$var wire 1 s HEX1[0]~0_combout $end
$var wire 1 t HEX1[5]$latch~combout $end
$var wire 1 u comb~0_combout $end
$var wire 1 v HEX1[2]$latch~combout $end
$var wire 1 w HEX1[1]$latch~combout $end
$var wire 1 x LEDG~2_combout $end
$var wire 1 y Equal0~0clkctrl_outclk $end
$var wire 1 z LEDG[0]$latch~combout $end
$var wire 1 { LEDG~5_combout $end
$var wire 1 | LEDG[1]$latch~combout $end
$var wire 1 } LEDG~3_combout $end
$var wire 1 ~ LEDG[2]$latch~combout $end
$var wire 1 !! LEDG~4_combout $end
$var wire 1 "! LEDG[3]$latch~combout $end
$upscope $end
$upscope $end
$enddefinitions $end
#0
$dumpvars
b0 !
b100011 "
1)
1(
1'
1&
1%
1$
1#
10
1/
1.
1-
1,
1+
1*
04
03
02
01
x5
06
17
x8
19
1:
1;
1<
1=
1>
1?
1@
1A
1B
1C
1D
1E
1F
1G
1H
1I
0J
0K
0L
0M
0N
0O
0P
1Q
1R
1S
0T
0U
0V
0W
1X
1Y
1Z
0[
1\
0]
0^
1_
1`
1a
1b
1c
1d
1e
1f
1g
1h
0i
1j
1k
0l
1m
1n
0o
1p
1q
0r
1s
1t
0u
1v
1w
0x
0y
0z
0{
0|
0}
0~
0!!
0"!
$end
#2500
b1 !
1N
05
1{
1x
1u
1]
1^
1}
1|
1z
1K
1J
13
14
1~
1L
12
#5000
b11 !
b10 !
0N
1O
15
0{
0x
1r
0p
0m
0j
0]
1y
0^
0s
0}
0w
0v
0q
0n
0k
0H
0G
0B
0A
0@
0+
0,
0#
0$
0%
0t
0I
0F
0E
0D
0*
0-
0.
0/
#7500
b11 !
1N
05
0u
0r
1p
1m
1j
0y
1s
1w
1v
1q
1n
1k
0~
0|
0z
1H
1G
1B
1A
1@
0L
0K
0J
1+
1,
1#
1$
1%
02
03
04
1t
1I
1F
1E
1D
1*
1-
1.
1/
#10000
b100001 "
b1 !
b0 !
0N
0O
0S
15
0Y
1l
0f
0`
1[
#12500
b1 !
1N
05
1x
1u
1]
1^
1}
1z
1J
14
1~
1L
12
#15000
b11 !
b10 !
0N
1O
15
0x
1r
0p
0j
0g
0a
0]
0\
1y
0^
0s
0}
0w
0v
0q
0k
0h
0b
0_
0H
0G
0B
0@
0?
0=
0<
0+
0,
0#
0%
0&
0(
0)
0t
0I
0F
0E
0D
0*
0-
0.
0/
#17500
b11 !
1N
05
0u
0r
1p
1j
1g
1a
1\
0y
1s
1w
1v
1q
1k
1h
1b
1_
0~
0z
1H
1G
1B
1@
1?
1=
1<
0L
0J
1+
1,
1#
1%
1&
1(
1)
02
04
1t
1I
1F
1E
1D
1*
1-
1.
1/
#20000
b1 "
b10001 "
b10101 "
b10100 "
b10110 "
b1 !
b0 !
0N
0O
0R
1S
1P
1T
0Q
15
0Z
1V
1o
0l
1f
0X
1W
0o
0f
0c
#22500
b1 !
1N
05
1!!
1u
1]
1^
1"!
1M
11
#25000
b11 !
b10 !
0N
1O
15
0!!
1r
0p
0m
0j
0g
0d
0a
0]
0\
1y
0^
0s
0w
0v
0q
0n
0k
0h
0e
0b
0_
0H
0G
0B
0A
0@
0?
0>
0=
0<
0+
0,
0#
0$
0%
0&
0'
0(
0)
0t
0I
0F
0E
0D
0*
0-
0.
0/
#27500
b11 !
1N
05
0u
0r
1p
1m
1j
1g
1d
1a
1\
0y
1s
1w
1v
1q
1n
1k
1h
1e
1b
1_
0"!
1H
1G
1B
1A
1@
1?
1>
1=
1<
0M
1+
1,
1#
1$
1%
1&
1'
1(
1)
01
1t
1I
1F
1E
1D
1*
1-
1.
1/
#30000
b11110 "
b1110 "
b1100 "
b1 !
b0 !
0N
0O
0S
1U
0T
15
0V
1Z
1X
0W
1f
1c
1l
0f
#32500
b1 !
1N
05
1x
1u
1]
1^
1}
1z
1J
14
1~
1L
12
#35000
b11 !
b10 !
0N
1O
15
0x
1r
0p
0j
0g
0a
0]
0\
1y
0^
0s
0}
0w
0v
0q
0k
0h
0b
0_
0H
0G
0B
0@
0?
0=
0<
0+
0,
0#
0%
0&
0(
0)
0t
0I
0F
0E
0D
0*
0-
0.
0/
#37500
b11 !
1N
05
0u
0r
1p
1j
1g
1a
1\
0y
1s
1w
1v
1q
1k
1h
1b
1_
0~
0z
1H
1G
1B
1@
1?
1=
1<
0L
0J
1+
1,
1#
1%
1&
1(
1)
02
04
1t
1I
1F
1E
1D
1*
1-
1.
1/
#40000
b1000 "
b1001 "
b1 "
b10001 "
b10011 "
b1 !
b0 !
0N
0O
1R
1S
0P
0U
1T
15
1V
0X
1X
1o
0l
1f
1`
0[
0o
1l
0f
0`
1[
#42500
b1 !
1N
05
1x
1u
1]
1^
1}
1z
1J
14
1~
1L
12
#45000
b11 !
b10 !
0N
1O
15
0x
1r
0p
0j
0g
0a
0]
0\
1y
0^
0s
0}
0w
0v
0q
0k
0h
0b
0_
0H
0G
0B
0@
0?
0=
0<
0+
0,
0#
0%
0&
0(
0)
0t
0I
0F
0E
0D
0*
0-
0.
0/
#47500
b11 !
1N
05
0u
0r
1p
1j
1g
1a
1\
0y
1s
1w
1v
1q
1k
1h
1b
1_
0~
0z
1H
1G
1B
1@
1?
1=
1<
0L
0J
1+
1,
1#
1%
1&
1(
1)
02
04
1t
1I
1F
1E
1D
1*
1-
1.
1/
#50000
b10010 "
b10 "
b0 "
b1 !
b0 !
0N
0O
0R
0S
0T
15
0Z
0V
1o
0l
1f
0X
0o
0f
0c
0[
#52500
b1 !
1N
05
1u
1]
1^
#55000
b11 !
b10 !
0N
1O
15
1r
0p
0m
0j
0g
0d
0a
0]
1y
0^
0s
0w
0v
0q
0n
0k
0h
0e
0b
0H
0G
0B
0A
0@
0?
0>
0=
0+
0,
0#
0$
0%
0&
0'
0(
0t
0I
0F
0E
0D
0*
0-
0.
0/
#57500
b11 !
1N
05
0u
0r
1p
1m
1j
1g
1d
1a
0y
1s
1w
1v
1q
1n
1k
1h
1e
1b
1H
1G
1B
1A
1@
1?
1>
1=
1+
1,
1#
1$
1%
1&
1'
1(
1t
1I
1F
1E
1D
1*
1-
1.
1/
#60000
b100 "
b1100 "
b11100 "
b1 !
b0 !
0N
0O
1P
1U
1T
15
1X
1Z
1Y
1f
1c
1`
#62500
b1 !
1N
05
1{
1x
1u
1]
1^
1}
1|
1z
1K
1J
13
14
1~
1L
12
#65000
b11 !
b10 !
0N
1O
15
0{
0x
1r
0p
0m
0j
0]
1y
0^
0s
0}
0w
0v
0q
0n
0k
0H
0G
0B
0A
0@
0+
0,
0#
0$
0%
0t
0I
0F
0E
0D
0*
0-
0.
0/
#67500
b11 !
1N
05
0u
0r
1p
1m
1j
0y
1s
1w
1v
1q
1n
1k
0~
0|
0z
1H
1G
1B
1A
1@
0L
0K
0J
1+
1,
1#
1$
1%
02
03
04
1t
1I
1F
1E
1D
1*
1-
1.
1/
#70000
b1100 "
b1 !
b0 !
0N
0O
0T
15
0Y
1l
0f
0`
1[
#72500
b1 !
1N
05
1x
1u
1]
1^
1}
1z
1J
14
1~
1L
12
#75000
b11 !
b10 !
0N
1O
15
0x
1r
0p
0j
0g
0a
0]
0\
1y
0^
0s
0}
0w
0v
0q
0k
0h
0b
0_
0H
0G
0B
0@
0?
0=
0<
0+
0,
0#
0%
0&
0(
0)
0t
0I
0F
0E
0D
0*
0-
0.
0/
#77500
b11 !
1N
05
0u
0r
1p
1j
1g
1a
1\
0y
1s
1w
1v
1q
1k
1h
1b
1_
0~
0z
1H
1G
1B
1@
1?
1=
1<
0L
0J
1+
1,
1#
1%
1&
1(
1)
02
04
1t
1I
1F
1E
1D
1*
1-
1.
1/
#80000
b1110 "
b11110 "
b1 !
b0 !
0N
0O
1S
1T
15
1V
0X
1W
0l
1f
#82500
b1 !
1N
05
1!!
1x
1u
1]
1^
1"!
1z
1M
1J
11
14
#85000
b11 !
b10 !
0N
1O
15
0!!
0x
1r
0p
0m
0j
0a
0]
0\
1y
0^
0s
0w
0v
0q
0n
0k
0b
0_
0H
0G
0B
0A
0@
0=
0<
0+
0,
0#
0$
0%
0(
0)
0t
0I
0F
0E
0D
0*
0-
0.
0/
#87500
b11 !
1N
05
0u
0r
1p
1m
1j
1a
1\
0y
1s
1w
1v
1q
1n
1k
1b
1_
0"!
0z
1H
1G
1B
1A
1@
1=
1<
0M
0J
1+
1,
1#
1$
1%
1(
1)
01
04
1t
1I
1F
1E
1D
1*
1-
1.
1/
#90000
b11111 "
b10111 "
b10101 "
b101 "
b1 !
b0 !
0N
0O
1R
0S
0U
0T
15
0V
1X
0W
1l
0f
#92500
b1 !
1N
05
1x
1u
1]
1^
1}
1z
1J
14
1~
1L
12
#95000
b11 !
b10 !
0N
1O
15
0x
1r
0p
0j
0g
0a
0]
0\
1y
0^
0s
0}
0w
0v
0q
0k
0h
0b
0_
0H
0G
0B
0@
0?
0=
0<
0+
0,
0#
0%
0&
0(
0)
0t
0I
0F
0E
0D
0*
0-
0.
0/
#97500
b11 !
1N
05
0u
0r
1p
1j
1g
1a
1\
0y
1s
1w
1v
1q
1k
1h
1b
1_
0~
0z
1H
1G
1B
1@
1?
1=
1<
0L
0J
1+
1,
1#
1%
1&
1(
1)
02
04
1t
1I
1F
1E
1D
1*
1-
1.
1/
#100000
b1 "
b0 "
b1000 "
b1010 "
b1 !
b0 !
0N
0O
0R
1S
0P
1U
15
1Y
0X
0l
1`
#102500
b1 !
1N
05
1{
1x
1u
1]
1^
1|
1z
1K
1J
13
14
#105000
b11 !
b10 !
0N
1O
15
0{
0x
1r
0p
0m
0j
0g
0]
0\
1y
0^
0s
0w
0v
0q
0n
0k
0h
0_
0H
0G
0B
0A
0@
0?
0<
0+
0,
0#
0$
0%
0&
0)
0t
0I
0F
0E
0D
0*
0-
0.
0/
#107500
b11 !
1N
05
0u
0r
1p
1m
1j
1g
1\
0y
1s
1w
1v
1q
1n
1k
1h
1_
0|
0z
1H
1G
1B
1A
1@
1?
1<
0K
0J
1+
1,
1#
1$
1%
1&
1)
03
04
1t
1I
1F
1E
1D
1*
1-
1.
1/
#110000
b11010 "
b1 !
b0 !
0N
0O
1T
15
0Y
1V
1o
1f
0[
1X
0o
1l
0f
0`
1[
#112500
b1 !
1N
05
1x
1u
1]
1^
1}
1z
1J
14
1~
1L
12
#115000
b11 !
b10 !
0N
1O
15
0x
1r
0p
0j
0g
0a
0]
0\
1y
0^
0s
0}
0w
0v
0q
0k
0h
0b
0_
0H
0G
0B
0@
0?
0=
0<
0+
0,
0#
0%
0&
0(
0)
0t
0I
0F
0E
0D
0*
0-
0.
0/
#117500
b11 !
1N
05
0u
0r
1p
1j
1g
1a
1\
0y
1s
1w
1v
1q
1k
1h
1b
1_
0~
0z
1H
1G
1B
1@
1?
1=
1<
0L
0J
1+
1,
1#
1%
1&
1(
1)
02
04
1t
1I
1F
1E
1D
1*
1-
1.
1/
#120000
b11011 "
b11001 "
b1 !
b0 !
0N
0O
1R
0S
15
0Z
1o
0l
1f
#122500
b1 !
1N
05
1u
1]
1^
1}
1~
1L
12
#125000
b11 !
b10 !
0N
1O
15
1r
0m
0j
0a
0]
0\
1y
0^
0s
0}
0w
0v
0n
0k
0b
0_
0H
0G
0A
0@
0=
0<
0+
0,
0$
0%
0(
0)
0t
0I
0F
0E
0D
0*
0-
0.
0/
#127500
b11 !
1N
05
0u
0r
1m
1j
1a
1\
0y
1s
1w
1v
1n
1k
1b
1_
0~
1H
1G
1A
1@
1=
1<
0L
1+
1,
1$
1%
1(
1)
02
1t
1I
1F
1E
1D
1*
1-
1.
1/
#130000
b111001 "
b111101 "
b101101 "
b101111 "
b1 !
b0 !
0N
0O
1S
1P
0T
1Q
15
1W
0o
1i
0f
0c
1`
#132500
b1 !
1N
05
1!!
1u
1]
1^
1}
1"!
1M
11
1~
1L
12
#135000
b11 !
b10 !
0N
1O
15
0!!
1r
0p
0m
0g
0d
0]
0\
1y
0^
0}
0w
0v
0q
0n
0h
0e
0_
0H
0G
0B
0A
0?
0>
0<
0+
0,
0#
0$
0&
0'
0)
#137500
b11 !
1N
05
0u
0r
1p
1m
1g
1d
1\
0y
1w
1v
1q
1n
1h
1e
1_
0"!
0~
1H
1G
1B
1A
1?
1>
1<
0M
0L
1+
1,
1#
1$
1&
1'
1)
01
02
#140000
b100111 "
b100110 "
b100010 "
b110010 "
b1 !
b0 !
0N
0O
0R
0P
0U
1T
15
0X
0i
0`
#142500
b1 !
1N
05
1!!
1u
1]
1^
1"!
1M
11
#145000
b11 !
b10 !
0N
1O
15
0!!
1r
0p
0m
0j
0g
0d
0a
0]
0\
1y
0^
0s
0w
0v
0q
0n
0k
0h
0e
0b
0_
0H
0G
0B
0A
0@
0?
0>
0=
0<
0+
0,
0#
0$
0%
0&
0'
0(
0)
0t
0I
0F
0E
0D
0*
0-
0.
0/
#147500
b11 !
1N
05
0u
0r
1p
1m
1j
1g
1d
1a
1\
0y
1s
1w
1v
1q
1n
1k
1h
1e
1b
1_
0"!
1H
1G
1B
1A
1@
1?
1>
1=
1<
0M
1+
1,
1#
1$
1%
1&
1'
1(
1)
01
1t
1I
1F
1E
1D
1*
1-
1.
1/
#150000
b111010 "
b111110 "
b101110 "
b1 !
b0 !
0N
0O
1P
1U
0T
15
1X
1Z
1Y
0V
1l
1c
0X
1o
0l
1f
1`
0[
#152500
b1 !
1N
05
1!!
1{
1x
1u
1]
1^
1"!
1|
1z
1M
1K
1J
11
13
14
#155000
b11 !
b10 !
0N
1O
15
0!!
0{
0x
1r
0m
0j
0]
1y
0^
0w
0v
0n
0k
0H
0G
0A
0@
0+
0,
0$
0%
#157500
b11 !
1N
05
0u
0r
1m
1j
0y
1w
1v
1n
1k
0"!
0|
0z
1H
1G
1A
1@
0M
0K
0J
1+
1,
1$
1%
01
03
04
#160000
b1110 "
b1 !
b0 !
0N
0O
0Q
15
1X
0W
0o
#162500
b1 !
1N
05
1{
1x
1u
1]
1^
1}
1|
1z
1K
1J
13
14
1~
1L
12
#165000
b11 !
b10 !
0N
1O
15
0{
0x
1r
0p
0m
0j
0]
1y
0^
0s
0}
0w
0v
0q
0n
0k
0H
0G
0B
0A
0@
0+
0,
0#
0$
0%
0t
0I
0F
0E
0D
0*
0-
0.
0/
#167500
b11 !
1N
05
0u
0r
1p
1m
1j
0y
1s
1w
1v
1q
1n
1k
0~
0|
0z
1H
1G
1B
1A
1@
0L
0K
0J
1+
1,
1#
1$
1%
02
03
04
1t
1I
1F
1E
1D
1*
1-
1.
1/
#170000
b110 "
b10110 "
b1 !
b0 !
0N
0O
0U
1T
15
0Z
0Y
1V
1o
0`
1[
0X
1W
0o
0f
0c
#172500
b1 !
1N
05
1!!
1u
1]
1^
1"!
1M
11
#175000
b11 !
b10 !
0N
1O
15
0!!
1r
0p
0m
0j
0g
0d
0a
0]
0\
1y
0^
0s
0w
0v
0q
0n
0k
0h
0e
0b
0_
0H
0G
0B
0A
0@
0?
0>
0=
0<
0+
0,
0#
0$
0%
0&
0'
0(
0)
0t
0I
0F
0E
0D
0*
0-
0.
0/
#177500
b11 !
1N
05
0u
0r
1p
1m
1j
1g
1d
1a
1\
0y
1s
1w
1v
1q
1n
1k
1h
1e
1b
1_
0"!
1H
1G
1B
1A
1@
1?
1>
1=
1<
0M
1+
1,
1#
1$
1%
1&
1'
1(
1)
01
1t
1I
1F
1E
1D
1*
1-
1.
1/
#180000
b10100 "
b100 "
b1 !
b0 !
0N
0O
0S
0T
15
0V
1X
0W
1o
1f
1c
#182500
b1 !
1N
05
1u
1]
1^
1}
1~
1L
12
#185000
b11 !
b10 !
0N
1O
15
1r
0m
0j
0a
0]
0\
1y
0^
0s
0}
0w
0v
0n
0k
0b
0_
0H
0G
0A
0@
0=
0<
0+
0,
0$
0%
0(
0)
0t
0I
0F
0E
0D
0*
0-
0.
0/
#187500
b11 !
1N
05
0u
0r
1m
1j
1a
1\
0y
1s
1w
1v
1n
1k
1b
1_
0~
1H
1G
1A
1@
1=
1<
0L
1+
1,
1$
1%
1(
1)
02
1t
1I
1F
1E
1D
1*
1-
1.
1/
#190000
b100100 "
b1 !
b0 !
0N
0O
1Q
15
0X
1W
0o
0f
0c
#192500
b1 !
1N
05
1!!
1u
1]
1^
1"!
1M
11
#195000
b11 !
b10 !
0N
1O
15
0!!
1r
0p
0m
0j
0g
0d
0a
0]
0\
1y
0^
0s
0w
0v
0q
0n
0k
0h
0e
0b
0_
0H
0G
0B
0A
0@
0?
0>
0=
0<
0+
0,
0#
0$
0%
0&
0'
0(
0)
0t
0I
0F
0E
0D
0*
0-
0.
0/
#197500
b11 !
1N
05
0u
0r
1p
1m
1j
1g
1d
1a
1\
0y
1s
1w
1v
1q
1n
1k
1h
1e
1b
1_
0"!
1H
1G
1B
1A
1@
1?
1>
1=
1<
0M
1+
1,
1#
1$
1%
1&
1'
1(
1)
01
1t
1I
1F
1E
1D
1*
1-
1.
1/
#200000
b1 !
b0 !
0N
0O
15
#202500
b1 !
1N
05
1!!
1u
1]
1^
1"!
1M
11
#205000
b11 !
b10 !
0N
1O
15
0!!
1r
0p
0m
0j
0g
0d
0a
0]
0\
1y
0^
0s
0w
0v
0q
0n
0k
0h
0e
0b
0_
0H
0G
0B
0A
0@
0?
0>
0=
0<
0+
0,
0#
0$
0%
0&
0'
0(
0)
0t
0I
0F
0E
0D
0*
0-
0.
0/
#207500
b11 !
1N
05
0u
0r
1p
1m
1j
1g
1d
1a
1\
0y
1s
1w
1v
1q
1n
1k
1h
1e
1b
1_
0"!
1H
1G
1B
1A
1@
1?
1>
1=
1<
0M
1+
1,
1#
1$
1%
1&
1'
1(
1)
01
1t
1I
1F
1E
1D
1*
1-
1.
1/
#210000
b100101 "
b100001 "
b101001 "
b1001 "
b1 !
b0 !
0N
0O
1R
0P
1U
0Q
15
1Y
0W
1i
1`
#212500
b1 !
1N
05
1{
1u
1]
1^
1|
1K
13
#215000
b11 !
b10 !
0N
1O
15
0{
1r
0p
0m
0g
0d
0]
0\
1y
0^
0s
0w
0v
0q
0n
0h
0e
0_
0H
0G
0B
0A
0?
0>
0<
0+
0,
0#
0$
0&
0'
0)
0t
0I
0F
0E
0D
0*
0-
0.
0/
#217500
b11 !
1N
05
0u
0r
1p
1m
1g
1d
1\
0y
1s
1w
1v
1q
1n
1h
1e
1_
0|
1H
1G
1B
1A
1?
1>
1<
0K
1+
1,
1#
1$
1&
1'
1)
03
1t
1I
1F
1E
1D
1*
1-
1.
1/
#220000
b1011 "
b11011 "
b1 !
b0 !
0N
0O
1S
1T
15
1V
1X
1l
0i
0`
#222500
b1 !
1N
05
1{
1u
1]
1^
1}
1|
1K
13
1~
1L
12
#225000
b11 !
b10 !
0N
1O
15
0{
1r
0p
0j
0g
0d
0a
0]
0\
1y
0^
0s
0}
0w
0v
0q
0k
0h
0e
0b
0_
0H
0G
0B
0@
0?
0>
0=
0<
0+
0,
0#
0%
0&
0'
0(
0)
0t
0I
0F
0E
0D
0*
0-
0.
0/
#227500
b11 !
1N
05
0u
0r
1p
1j
1g
1d
1a
1\
0y
1s
1w
1v
1q
1k
1h
1e
1b
1_
0~
0|
1H
1G
1B
1@
1?
1>
1=
1<
0L
0K
1+
1,
1#
1%
1&
1'
1(
1)
02
03
1t
1I
1F
1E
1D
1*
1-
1.
1/
#230000
b11010 "
b11110 "
b10110 "
b110 "
b1 !
b0 !
0N
0O
0R
1P
0U
0T
15
0V
0X
1W
1X
0W
0l
0[
1l
1[
#232500
b1 !
1N
05
1{
1u
1]
1^
1}
1|
1K
13
1~
1L
12
#235000
b11 !
b10 !
0N
1O
15
0{
1r
0p
0j
0g
0d
0a
0]
0\
1y
0^
0s
0}
0w
0v
0q
0k
0h
0e
0b
0_
0H
0G
0B
0@
0?
0>
0=
0<
0+
0,
0#
0%
0&
0'
0(
0)
0t
0I
0F
0E
0D
0*
0-
0.
0/
#237500
b11 !
1N
05
0u
0r
1p
1j
1g
1d
1a
1\
0y
1s
1w
1v
1q
1k
1h
1e
1b
1_
0~
0|
1H
1G
1B
1@
1?
1>
1=
1<
0L
0K
1+
1,
1#
1%
1&
1'
1(
1)
02
03
1t
1I
1F
1E
1D
1*
1-
1.
1/
#240000
b100110 "
b100111 "
b101111 "
b111111 "
b1 !
b0 !
0N
0O
1R
1U
1T
1Q
15
1V
0X
1W
1X
0l
0[
1o
1f
1c
1[
#242500
b1 !
1N
05
1!!
1{
1u
1]
1^
1}
1"!
1|
1M
1K
11
13
1~
1L
12
#245000
b11 !
b10 !
0N
1O
15
0!!
0{
1r
0m
0j
0a
0]
0\
1y
0^
0}
0w
0v
0n
0k
0b
0_
0H
0G
0A
0@
0=
0<
0+
0,
0$
0%
0(
0)
#247500
b11 !
1N
05
0u
0r
1m
1j
1a
1\
0y
1w
1v
1n
1k
1b
1_
0"!
0~
0|
1H
1G
1A
1@
1=
1<
0M
0L
0K
1+
1,
1$
1%
1(
1)
01
02
03
#250000
b111011 "
b101011 "
b1 !
b0 !
0N
0O
0P
0T
15
0X
0Y
0o
0f
0c
#252500
b1 !
1N
05
1!!
1u
1]
1^
1"!
1M
11
#255000
b11 !
b10 !
0N
1O
15
0!!
1r
0p
0m
0j
0g
0d
0a
0]
0\
1y
0^
0s
0w
0v
0q
0n
0k
0h
0e
0b
0_
0H
0G
0B
0A
0@
0?
0>
0=
0<
0+
0,
0#
0$
0%
0&
0'
0(
0)
0t
0I
0F
0E
0D
0*
0-
0.
0/
#257500
b11 !
1N
05
0u
0r
1p
1m
1j
1g
1d
1a
1\
0y
1s
1w
1v
1q
1n
1k
1h
1e
1b
1_
0"!
1H
1G
1B
1A
1@
1?
1>
1=
1<
0M
1+
1,
1#
1$
1%
1&
1'
1(
1)
01
1t
1I
1F
1E
1D
1*
1-
1.
1/
#260000
b1011 "
b1 !
b0 !
0N
0O
0Q
15
1X
0W
1o
1f
1c
#262500
b1 !
1N
05
1u
1]
1^
1}
1~
1L
12
#265000
b11 !
b10 !
0N
1O
15
1r
0m
0j
0a
0]
0\
1y
0^
0s
0}
0w
0v
0n
0k
0b
0_
0H
0G
0A
0@
0=
0<
0+
0,
0$
0%
0(
0)
0t
0I
0F
0E
0D
0*
0-
0.
0/
#267500
b11 !
1N
05
0u
0r
1m
1j
1a
1\
0y
1s
1w
1v
1n
1k
1b
1_
0~
1H
1G
1A
1@
1=
1<
0L
1+
1,
1$
1%
1(
1)
02
1t
1I
1F
1E
1D
1*
1-
1.
1/
#270000
b1001 "
b1000 "
b0 "
b100000 "
b1 !
b0 !
0N
0O
0R
0S
0U
1Q
15
0V
0X
1W
1X
0W
0o
0f
0c
1o
1f
1c
#272500
b1 !
1N
05
1u
1]
1^
1}
1~
1L
12
#275000
b11 !
b10 !
0N
1O
15
1r
0m
0j
0a
0]
0\
1y
0^
0s
0}
0w
0v
0n
0k
0b
0_
0H
0G
0A
0@
0=
0<
0+
0,
0$
0%
0(
0)
0t
0I
0F
0E
0D
0*
0-
0.
0/
#277500
b11 !
1N
05
0u
0r
1m
1j
1a
1\
0y
1s
1w
1v
1n
1k
1b
1_
0~
1H
1G
1A
1@
1=
1<
0L
1+
1,
1$
1%
1(
1)
02
1t
1I
1F
1E
1D
1*
1-
1.
1/
#280000
b110000 "
b110001 "
b111001 "
b11001 "
b1 !
b0 !
0N
0O
1R
1U
1T
0Q
15
1V
0X
1X
0o
0f
0c
0[
1o
1f
1c
1[
#282500
b1 !
1N
05
1u
1]
1^
1}
1~
1L
12
#285000
b11 !
b10 !
0N
1O
15
1r
0m
0j
0a
0]
0\
1y
0^
0s
0}
0w
0v
0n
0k
0b
0_
0H
0G
0A
0@
0=
0<
0+
0,
0$
0%
0(
0)
0t
0I
0F
0E
0D
0*
0-
0.
0/
#287500
b11 !
1N
05
0u
0r
1m
1j
1a
1\
0y
1s
1w
1v
1n
1k
1b
1_
0~
1H
1G
1A
1@
1=
1<
0L
1+
1,
1$
1%
1(
1)
02
1t
1I
1F
1E
1D
1*
1-
1.
1/
#290000
b1001 "
b1 "
b100001 "
b1 !
b0 !
0N
0O
0U
0T
1Q
15
1Z
0V
0X
1W
0o
1X
0W
1l
0f
#292500
b1 !
1N
05
1x
1u
1]
1^
1}
1z
1J
14
1~
1L
12
#295000
b11 !
b10 !
0N
1O
15
0x
1r
0p
0j
0g
0a
0]
0\
1y
0^
0s
0}
0w
0v
0q
0k
0h
0b
0_
0H
0G
0B
0@
0?
0=
0<
0+
0,
0#
0%
0&
0(
0)
0t
0I
0F
0E
0D
0*
0-
0.
0/
#297500
b11 !
1N
05
0u
0r
1p
1j
1g
1a
1\
0y
1s
1w
1v
1q
1k
1h
1b
1_
0~
0z
1H
1G
1B
1@
1?
1=
1<
0L
0J
1+
1,
1#
1%
1&
1(
1)
02
04
1t
1I
1F
1E
1D
1*
1-
1.
1/
#300000
b100011 "
b110011 "
b10011 "
b1 !
b0 !
0N
0O
1S
1T
0Q
15
1V
0X
1X
1o
0l
1f
1`
0[
0o
1l
0f
0`
1[
#302500
b1 !
1N
05
1x
1u
1]
1^
1}
1z
1J
14
1~
1L
12
#305000
b11 !
b10 !
0N
1O
15
0x
1r
0p
0j
0g
0a
0]
0\
1y
0^
0s
0}
0w
0v
0q
0k
0h
0b
0_
0H
0G
0B
0@
0?
0=
0<
0+
0,
0#
0%
0&
0(
0)
0t
0I
0F
0E
0D
0*
0-
0.
0/
#307500
b11 !
1N
05
0u
0r
1p
1j
1g
1a
1\
0y
1s
1w
1v
1q
1k
1h
1b
1_
0~
0z
1H
1G
1B
1@
1?
1=
1<
0L
0J
1+
1,
1#
1%
1&
1(
1)
02
04
1t
1I
1F
1E
1D
1*
1-
1.
1/
#310000
b10111 "
b11111 "
b111111 "
b1 !
b0 !
0N
0O
1P
1U
1Q
15
1W
0Z
1Y
1o
0l
1f
#312500
b1 !
1N
05
1!!
1{
1u
1]
1^
1}
1"!
1|
1M
1K
11
13
1~
1L
12
#315000
b11 !
b10 !
0N
1O
15
0!!
0{
1r
0m
0j
0a
0]
0\
1y
0^
0}
0w
0v
0n
0k
0b
0_
0H
0G
0A
0@
0=
0<
0+
0,
0$
0%
0(
0)
