Lab4/simulation/qsim/Lab4_1.msim.vcd
$comment
	File created using the following command:
		vcd file Lab4_1.msim.vcd -direction
$end
$date
	Thu Mar 14 16:53:32 2024
$end
$version
	ModelSim Version 10.1d
$end
$timescale
	1ps
$end
$scope module Lab4_1_vlg_vec_tst $end
$var reg 4 ! SW [3:0] $end
$var wire 1 " HEX0 [0] $end
$var wire 1 # HEX0 [1] $end
$var wire 1 $ HEX0 [2] $end
$var wire 1 % HEX0 [3] $end
$var wire 1 & HEX0 [4] $end
$var wire 1 ' HEX0 [5] $end
$var wire 1 ( HEX0 [6] $end
$var wire 1 ) HEX1 [0] $end
$var wire 1 * HEX1 [1] $end
$var wire 1 + HEX1 [2] $end
$var wire 1 , HEX1 [3] $end
$var wire 1 - HEX1 [4] $end
$var wire 1 . HEX1 [5] $end
$var wire 1 / HEX1 [6] $end
$var wire 1 0 sampler $end
$scope module i1 $end
$var wire 1 1 gnd $end
$var wire 1 2 vcc $end
$var wire 1 3 unknown $end
$var tri1 1 4 devclrn $end
$var tri1 1 5 devpor $end
$var tri1 1 6 devoe $end
$var wire 1 7 HEX0[6]~output_o $end
$var wire 1 8 HEX0[5]~output_o $end
$var wire 1 9 HEX0[4]~output_o $end
$var wire 1 : HEX0[3]~output_o $end
$var wire 1 ; HEX0[2]~output_o $end
$var wire 1 < HEX0[1]~output_o $end
$var wire 1 = HEX0[0]~output_o $end
$var wire 1 > HEX1[6]~output_o $end
$var wire 1 ? HEX1[5]~output_o $end
$var wire 1 @ HEX1[4]~output_o $end
$var wire 1 A HEX1[3]~output_o $end
$var wire 1 B HEX1[2]~output_o $end
$var wire 1 C HEX1[1]~output_o $end
$var wire 1 D HEX1[0]~output_o $end
$var wire 1 E SW[0]~input_o $end
$var wire 1 F SW[3]~input_o $end
$var wire 1 G SW[2]~input_o $end
$var wire 1 H SW[1]~input_o $end
$var wire 1 I Mux6~0_combout $end
$var wire 1 J Mux5~0_combout $end
$var wire 1 K Mux4~0_combout $end
$var wire 1 L Mux3~0_combout $end
$var wire 1 M Mux2~0_combout $end
$var wire 1 N Mux1~0_combout $end
$var wire 1 O Mux0~0_combout $end
$var wire 1 P Mux10~0_combout $end
$upscope $end
$upscope $end
$enddefinitions $end
#0
$dumpvars
b0 !
1(
0'
0&
0%
0$
0#
0"
1/
0.
0-
0,
0+
0*
0)
x0
01
12
x3
14
15
16
17
08
09
0:
0;
0<
0=
1>
0?
0@
0A
0B
0C
0D
0E
0F
0G
0H
0I
0J
0K
0L
0M
0N
0O
1P
$end
#10000
b1 !
1E
00
1O
1L
1K
1J
1=
1:
19
18
1"
1%
1&
1'
#20000
b11 !
b10 !
0E
1H
10
1I
0O
1M
0L
0K
07
0=
1;
0:
09
0(
0"
1$
0%
0&
#30000
b11 !
1E
00
0M
1K
0;
19
0$
1&
#40000
b111 !
b101 !
b100 !
0E
0H
1G
10
1O
1L
0J
1=
1:
08
1"
1%
0'
#50000
b101 !
1E
00
0O
1N
0L
0=
1<
0:
0"
1#
0%
#60000
b111 !
b110 !
0E
1H
10
0K
09
0&
#70000
b111 !
1E
00
0I
0N
1L
1K
1J
17
0<
1:
19
18
1(
0#
1%
1&
1'
#80000
b1111 !
b1011 !
b1001 !
b1000 !
0E
0H
0G
1F
10
1I
0L
0K
0J
07
0:
09
08
0(
0%
0&
0'
#90000
b1001 !
1E
00
1L
1K
1:
19
1%
1&
#100000
b1011 !
b1010 !
0E
1H
10
0I
0P
0L
0K
17
1?
1@
1A
1D
0:
09
1(
1.
1-
1,
1)
0%
0&
#110000
b1011 !
1E
00
1O
1L
1K
1J
1=
1:
19
18
1"
1%
1&
1'
#120000
b1111 !
b1101 !
b1100 !
0E
0H
1G
10
1I
0O
1M
0L
0K
07
0=
1;
0:
09
0(
0"
1$
0%
0&
#130000
b1101 !
1E
00
0M
1K
0;
19
0$
1&
#140000
b1111 !
b1110 !
0E
1H
10
1O
1L
0J
1=
1:
08
1"
1%
0'
#150000
b1111 !
1E
00
0O
1N
0L
0=
1<
0:
0"
1#
0%
#160000
b111 !
b11 !
b1 !
b0 !
0E
0H
0G
0F
10
0I
1P
0N
0K
17
0?
0@
0A
0D
0<
09
1(
0.
0-
0,
0)
0#
0&
#170000
b1 !
1E
00
1O
1L
1K
1J
1=
1:
19
18
1"
1%
1&
1'
#180000
b11 !
b10 !
0E
1H
10
1I
0O
1M
0L
0K
07
0=
1;
0:
09
0(
0"
1$
0%
0&
#190000
b11 !
1E
00
0M
1K
0;
19
0$
1&
#200000
b111 !
b101 !
b100 !
0E
0H
1G
10
1O
1L
0J
1=
1:
08
1"
1%
0'
#210000
b101 !
1E
00
0O
1N
0L
0=
1<
0:
0"
1#
0%
#220000
b111 !
b110 !
0E
1H
10
0K
09
0&
#230000
b111 !
1E
00
0I
0N
1L
1K
1J
17
0<
1:
19
18
1(
0#
1%
1&
1'
#240000
b1111 !
b1011 !
b1001 !
b1000 !
0E
0H
0G
1F
10
1I
0L
0K
0J
07
0:
09
08
0(
0%
0&
0'
#250000
b1001 !
1E
00
1L
1K
1:
19
1%
1&
#260000
b1011 !
b1010 !
0E
1H
10
0I
0P
0L
0K
17
1?
1@
1A
1D
0:
09
1(
1.
1-
1,
1)
0%
0&
#270000
b1011 !
1E
00
1O
1L
1K
1J
1=
1:
19
18
1"
1%
1&
1'
#280000
b1111 !
b1101 !
b1100 !
0E
0H
1G
10
1I
0O
1M
0L
0K
07
0=
1;
0:
09
0(
0"
1$
0%
0&
#290000
b1101 !
1E
00
0M
1K
0;
19
0$
1&
#300000
b1111 !
b1110 !
0E
1H
10
1O
1L
0J
1=
1:
08
1"
1%
0'
#310000
b1111 !
1E
00
0O
1N
0L
0=
1<
0:
0"
1#
0%
#320000
b111 !
b11 !
b1 !
b0 !
0E
0H
0G
0F
10
0I
1P
0N
0K
17
0?
0@
0A
0D
0<
09
1(
0.
0-
0,
0)
0#
0&
#330000
b1 !
1E
00
1O
1L
1K
1J
1=
1:
19
18
1"
1%
1&
1'
#340000
b11 !
b10 !
0E
1H
10
1I
0O
1M
0L
0K
07
0=
1;
0:
09
0(
0"
1$
0%
0&
#350000
b11 !
1E
00
0M
1K
0;
19
0$
1&
#360000
b111 !
b101 !
b100 !
0E
0H
1G
10
1O
1L
0J
1=
1:
08
1"
1%
0'
#370000
b101 !
1E
00
0O
1N
0L
0=
1<
0:
0"
1#
0%
#380000
b111 !
b110 !
0E
1H
10
0K
09
0&
#390000
b111 !
1E
00
0I
0N
1L
1K
1J
17
0<
1:
19
18
1(
0#
1%
1&
1'
#400000
b1111 !
b1011 !
b1001 !
b1000 !
0E
0H
0G
1F
10
1I
0L
0K
0J
07
0:
09
08
0(
0%
0&
0'
#410000
b1001 !
1E
00
1L
1K
1:
19
1%
1&
#420000
b1011 !
b1010 !
0E
1H
10
0I
0P
0L
0K
17
1?
1@
1A
1D
0:
09
1(
1.
1-
1,
1)
0%
0&
#430000
b1011 !
1E
00
1O
1L
1K
1J
1=
1:
19
18
1"
1%
1&
1'
#440000
b1111 !
b1101 !
b1100 !
0E
0H
1G
10
1I
0O
1M
0L
0K
07
0=
1;
0:
09
0(
0"
1$
0%
0&
#450000
b1101 !
1E
00
0M
1K
0;
19
0$
1&
#460000
b1111 !
b1110 !
0E
1H
10
1O
1L
0J
1=
1:
08
1"
1%
0'
#470000
b1111 !
1E
00
0O
1N
0L
0=
1<
0:
0"
1#
0%
#480000
b111 !
b11 !
b1 !
b0 !
0E
0H
0G
0F
10
0I
1P
0N
0K
17
0?
0@
0A
0D
0<
09
1(
0.
0-
0,
0)
0#
0&
#490000
b1 !
1E
00
1O
1L
1K
1J
1=
1:
19
18
1"
1%
1&
1'
#500000
b11 !
b10 !
0E
1H
10
1I
0O
1M
0L
0K
07
0=
1;
0:
09
0(
0"
1$
0%
0&
#510000
b11 !
1E
00
0M
1K
0;
19
0$
1&
#520000
b111 !
b101 !
b100 !
0E
0H
1G
10
1O
1L
0J
1=
1:
08
1"
1%
0'
#530000
b101 !
1E
00
0O
1N
0L
0=
1<
0:
0"
1#
0%
#540000
b111 !
b110 !
0E
1H
10
0K
09
0&
#550000
b111 !
1E
00
0I
0N
1L
1K
1J
17
0<
1:
19
18
1(
0#
1%
1&
1'
#560000
b1111 !
b1011 !
b1001 !
b1000 !
0E
0H
0G
1F
10
1I
0L
0K
0J
07
0:
09
08
0(
0%
0&
0'
#570000
b1001 !
1E
00
1L
1K
1:
19
1%
1&
#580000
b1011 !
b1010 !
0E
1H
10
0I
0P
0L
0K
17
1?
1@
1A
1D
0:
09
1(
1.
1-
1,
1)
0%
0&
#590000
b1011 !
1E
00
1O
1L
1K
1J
1=
1:
19
18
1"
1%
1&
1'
#600000
b1111 !
b1101 !
b1100 !
0E
0H
1G
10
1I
0O
1M
0L
0K
07
0=
1;
0:
09
0(
0"
1$
0%
0&
#610000
b1101 !
1E
00
0M
1K
0;
19
0$
1&
#620000
b1111 !
b1110 !
0E
1H
10
1O
1L
0J
1=
1:
08
1"
1%
0'
#630000
b1111 !
1E
00
0O
1N
0L
0=
1<
0:
0"
1#
0%
#640000
b111 !
b11 !
b1 !
b0 !
0E
0H
0G
0F
10
0I
1P
0N
0K
17
0?
0@
0A
0D
0<
09
1(
0.
0-
0,
0)
0#
0&
#650000
b1 !
1E
00
1O
1L
1K
1J
1=
1:
19
18
1"
1%
1&
1'
#660000
b11 !
b10 !
0E
1H
10
1I
0O
1M
0L
0K
07
0=
1;
0:
09
0(
0"
1$
0%
0&
#670000
b11 !
1E
00
0M
1K
0;
19
0$
1&
#680000
b111 !
b101 !
b100 !
0E
0H
1G
10
1O
1L
0J
1=
1:
08
1"
1%
0'
#690000
b101 !
1E
00
0O
1N
0L
0=
1<
0:
0"
1#
0%
#700000
b111 !
b110 !
0E
1H
10
0K
09
0&
#710000
b111 !
1E
00
0I
0N
1L
1K
1J
17
0<
1:
19
18
1(
0#
1%
1&
1'
#720000
b1111 !
b1011 !
b1001 !
b1000 !
0E
0H
0G
1F
10
1I
0L
0K
0J
07
0:
09
08
0(
0%
0&
0'
#730000
b1001 !
1E
00
1L
1K
1:
19
1%
1&
#740000
b1011 !
b1010 !
0E
1H
10
0I
0P
0L
0K
17
1?
1@
1A
1D
0:
09
1(
1.
1-
1,
1)
0%
0&
#750000
b1011 !
1E
00
1O
1L
1K
1J
1=
1:
19
18
1"
1%
1&
1'
#760000
b1111 !
b1101 !
b1100 !
0E
0H
1G
10
1I
0O
1M
0L
0K
07
0=
1;
0:
09
0(
0"
1$
0%
0&
#770000
b1101 !
1E
00
0M
1K
0;
19
0$
1&
#780000
b1111 !
b1110 !
0E
1H
10
1O
1L
0J
1=
1:
08
1"
1%
0'
#790000
b1111 !
1E
00
0O
1N
0L
0=
1<
0:
0"
1#
0%
#800000
b111 !
b11 !
b1 !
b0 !
0E
0H
0G
0F
10
0I
1P
0N
0K
17
0?
0@
0A
0D
0<
09
1(
0.
0-
0,
0)
0#
0&
#810000
b1 !
1E
00
1O
1L
1K
1J
1=
1:
19
18
1"
1%
1&
1'
#820000
b11 !
b10 !
0E
1H
10
1I
0O
1M
0L
0K
07
0=
1;
0:
09
0(
0"
1$
0%
0&
#830000
b11 !
1E
00
0M
1K
0;
19
0$
1&
#840000
b111 !
b101 !
b100 !
0E
0H
1G
10
1O
1L
0J
1=
1:
08
1"
1%
0'
#850000
b101 !
1E
00
0O
1N
0L
0=
1<
0:
0"
1#
0%
#860000
b111 !
b110 !
0E
1H
10
0K
09
0&
#870000
b111 !
1E
00
0I
0N
1L
1K
1J
17
0<
1:
19
18
1(
0#
1%
1&
1'
#880000
b1111 !
b1011 !
b1001 !
b1000 !
0E
0H
0G
1F
10
1I
0L
0K
0J
07
0:
09
08
0(
0%
0&
0'
#890000
b1001 !
1E
00
1L
1K
1:
19
1%
1&
#900000
b1011 !
b1010 !
0E
1H
10
0I
0P
0L
0K
17
1?
1@
1A
1D
0:
09
1(
1.
1-
1,
1)
0%
0&
#910000
b1011 !
1E
00
1O
1L
1K
1J
1=
1:
19
18
1"
1%
1&
1'
#920000
b1111 !
b1101 !
b1100 !
0E
0H
1G
10
1I
0O
1M
0L
0K
07
0=
1;
0:
09
0(
0"
1$
0%
0&
#930000
b1101 !
1E
00
0M
1K
0;
19
0$
1&
#940000
b1111 !
b1110 !
0E
1H
10
1O
1L
0J
1=
1:
08
1"
1%
0'
#950000
b1111 !
1E
00
0O
1N
0L
0=
1<
0:
0"
1#
0%
#960000
b111 !
b11 !
b1 !
b0 !
0E
0H
0G
0F
10
0I
1P
0N
0K
17
0?
0@
0A
0D
0<
09
1(
0.
0-
0,
0)
0#
0&
#970000
b1 !
1E
00
1O
1L
1K
1J
1=
1:
19
18
1"
1%
1&
1'
#980000
b11 !
b10 !
0E
1H
10
1I
0O
1M
0L
0K
07
0=
1;
0:
09
0(
0"
1$
0%
0&
#990000
b11 !
1E
00
0M
1K
0;
19
0$
1&
